LabSimulation/FSM/FSM_demo4/simulation/qsim/FSM_demo4.msim.vcd
$comment
	File created using the following command:
		vcd file FSM_demo4.msim.vcd -direction
$end
$date
	Mon Jun 07 13:22:09 2021
$end
$version
	ModelSim Version 10.5b
$end
$timescale
	1ps
$end

$scope module FSM_demo4_vlg_vec_tst $end
$var reg 1 ! a $end
$var reg 1 " clk $end
$var reg 1 # rst $end
$var wire 1 $ z $end

$scope module i1 $end
$var wire 1 % gnd $end
$var wire 1 & vcc $end
$var wire 1 ' unknown $end
$var tri1 1 ( devclrn $end
$var tri1 1 ) devpor $end
$var tri1 1 * devoe $end
$var wire 1 + z~output_o $end
$var wire 1 , a~input_o $end
$var wire 1 - clk~input_o $end
$var wire 1 . clk~inputclkctrl_outclk $end
$var wire 1 / state.s0~feeder_combout $end
$var wire 1 0 rst~input_o $end
$var wire 1 1 rst~inputclkctrl_outclk $end
$var wire 1 2 state.s0~q $end
$var wire 1 3 Selector0~0_combout $end
$var wire 1 4 state.s2~q $end
$var wire 1 5 z~1_combout $end
$upscope $end
$upscope $end
$enddefinitions $end
#0
$dumpvars
0!
0"
1#
x$
0%
1&
x'
1(
1)
1*
x+
0,
0-
x.
x/
10
x1
02
x3
04
x5
$end
#208
0.
#222
11
#522
03
#540
15
#3383
0/
#4060
0+
0$
#2560000
1!
#2560766
1,
#2563924
1/
#5000000
1"
#5000766
1-
#5000988
1.
#5002876
12
#5003350
13
#10000000
0"
#10000812
0-
#10001020
0.
#15000000
1"
#15000766
1-
#15000988
1.
#15002876
14
#17920000
0!
#17920812
0,
#17924195
0/
#17924490
03
#17924494
05
#17927939
1+
1$
#20000000
0"
#20000812
0-
#20001020
0.
#25000000
1"
#25000766
1-
#25000988
1.
#25002876
02
04
#25003416
15
#25006936
0+
0$
#28160000
1!
#28160766
1,
#28163924
1/
#30000000
0"
#30000812
0-
#30001020
0.
#35000000
1"
#35000766
1-
#35000988
1.
#35002876
12
#35003350
13
#38400000
0!
#38400812
0,
#38404195
0/
#38404490
03
#40000000
0"
#40000812
0-
#40001020
0.
#45000000
1"
#45000766
1-
#45000988
1.
#45002876
02
#50000000
0"
#50000812
0-
#50001020
0.
#52480000
1!
#52480766
1,
#52483924
1/
#55000000
1"
#55000766
1-
#55000988
1.
#55002876
12
#55003350
13
#60000000
0"
#60000812
0-
#60001020
0.
#65000000
1"
#65000766
1-
#65000988
1.
#65002876
14
#67840000
0!
#67840812
0,
#67844195
0/
#67844490
03
#67844494
05
#67847939
1+
1$
#70000000
0"
#70000812
0-
#70001020
0.
#75000000
1"
#75000766
1-
#75000988
1.
#75002876
02
04
#75003416
15
#75006936
0+
0$
#80000000
0"
#80000812
0-
#80001020
0.
#85000000
1"
#85000766
1-
#85000988
1.
#90000000
0"
#90000812
0-
#90001020
0.
#95000000
1"
#95000766
1-
