Chapter3/practice/count1_3/simulation/qsim/count1_3.msim.vcd
$comment
	File created using the following command:
		vcd file count1_3.msim.vcd -direction
$end
$date
	Sun Apr 25 22:43:58 2021
$end
$version
	ModelSim Version 10.5b
$end
$timescale
	1ps
$end

$scope module count1_3_vlg_vec_tst $end
$var reg 8 ! NIN [7:0] $end
$var wire 1 " COUNT [3] $end
$var wire 1 # COUNT [2] $end
$var wire 1 $ COUNT [1] $end
$var wire 1 % COUNT [0] $end

$scope module i1 $end
$var wire 1 & gnd $end
$var wire 1 ' vcc $end
$var wire 1 ( unknown $end
$var tri1 1 ) devclrn $end
$var tri1 1 * devpor $end
$var tri1 1 + devoe $end
$var wire 1 , ~QUARTUS_CREATED_GND~I_combout $end
$var wire 1 - NIN[3]~input_o $end
$var wire 1 . NIN[2]~input_o $end
$var wire 1 / NIN[0]~input_o $end
$var wire 1 0 NIN[4]~input_o $end
$var wire 1 1 NIN[1]~input_o $end
$var wire 1 2 Add3~0_combout $end
$var wire 1 3 NIN[6]~input_o $end
$var wire 1 4 NIN[5]~input_o $end
$var wire 1 5 NIN[7]~input_o $end
$var wire 1 6 COUNT~0_combout $end
$var wire 1 7 Add3~1_combout $end
$var wire 1 8 COUNT~1_combout $end
$var wire 1 9 Add3~2_combout $end
$var wire 1 : COUNT~2_combout $end
$var wire 1 ; COUNT~3_combout $end
$upscope $end
$upscope $end
$enddefinitions $end
#0
$dumpvars
b10100000 !
0%
1$
0#
0"
0&
1'
x(
1)
1*
1+
0,
0-
0.
0/
00
01
02
03
14
15
06
17
18
09
0:
0;
$end
#10000000
b11100000 !
b11000000 !
b11001000 !
b11001001 !
1/
1-
04
13
07
1:
08
0$
1#
#20000000
b11001101 !
b11001111 !
b10001111 !
b10101111 !
b10100111 !
11
1.
0-
14
03
12
16
1%
#30000000
b100111 !
b110111 !
b110110 !
b10110 !
b11110 !
0/
1-
10
04
05
19
17
02
0:
18
1$
0#
1:
08
06
0%
0$
1#
#40000000
b10011110 !
b10111110 !
b10110110 !
0-
14
15
09
07
12
18
1$
08
16
1%
0$
#50000000
b10110010 !
b10110000 !
b11110000 !
b11110001 !
b1110001 !
b1111001 !
1/
01
0.
1-
13
05
#60000000
b1101001 !
b101001 !
b10101001 !
00
03
15
02
06
0%
#70000000
b10101101 !
b10101100 !
b10100100 !
b10110100 !
b110100 !
0/
1.
0-
10
05
0:
18
16
1%
1$
0#
#80000000
b110110 !
b110010 !
11
0.
#90000000
b10010 !
b10011 !
b11011 !
b1011 !
b10001011 !
b10001111 !
1/
1.
1-
00
04
15
19
17
1:
08
0$
1#
