LabSimulation/3.4.4Counter_other/simulation/qsim/Counter_other.msim.vcd
$comment
	File created using the following command:
		vcd file Counter_other.msim.vcd -direction
$end
$date
	Sun May 23 14:58:05 2021
$end
$version
	ModelSim Version 10.5b
$end
$timescale
	1ps
$end

$scope module Counter_other_vlg_vec_tst $end
$var reg 1 ! clk $end
$var reg 1 " clr $end
$var reg 1 # en $end
$var wire 1 $ Q [3] $end
$var wire 1 % Q [2] $end
$var wire 1 & Q [1] $end
$var wire 1 ' Q [0] $end
$var wire 1 ( cout $end

$scope module i1 $end
$var wire 1 ) gnd $end
$var wire 1 * vcc $end
$var wire 1 + unknown $end
$var tri1 1 , devclrn $end
$var tri1 1 - devpor $end
$var tri1 1 . devoe $end
$var wire 1 / Q[0]~output_o $end
$var wire 1 0 Q[1]~output_o $end
$var wire 1 1 Q[2]~output_o $end
$var wire 1 2 Q[3]~output_o $end
$var wire 1 3 cout~output_o $end
$var wire 1 4 clk~input_o $end
$var wire 1 5 clk~inputclkctrl_outclk $end
$var wire 1 6 clr~input_o $end
$var wire 1 7 clr~inputclkctrl_outclk $end
$var wire 1 8 en~input_o $end
$var wire 1 9 count.0111~q $end
$var wire 1 : count.0101~feeder_combout $end
$var wire 1 ; count.0101~q $end
$var wire 1 < count.0100~feeder_combout $end
$var wire 1 = count.0100~q $end
$var wire 1 > count.1100~q $end
$var wire 1 ? count.1101~q $end
$var wire 1 @ count.1111~feeder_combout $end
$var wire 1 A count.1111~q $end
$var wire 1 B count.1110~q $end
$var wire 1 C count.1010~feeder_combout $end
$var wire 1 D count.1010~q $end
$var wire 1 E count.1011~q $end
$var wire 1 F count.1001~q $end
$var wire 1 G count.1000~feeder_combout $end
$var wire 1 H count.1000~q $end
$var wire 1 I count.0000~0_combout $end
$var wire 1 J count.0000~q $end
$var wire 1 K count.0001~0_combout $end
$var wire 1 L count.0001~q $end
$var wire 1 M count.0011~q $end
$var wire 1 N count.0010~q $end
$var wire 1 O count.0110~q $end
$var wire 1 P WideOr3~0_combout $end
$var wire 1 Q WideOr2~0_combout $end
$var wire 1 R WideOr3~combout $end
$var wire 1 S WideOr2~1_combout $end
$var wire 1 T WideOr2~combout $end
$var wire 1 U WideOr1~0_combout $end
$var wire 1 V WideOr0~0_combout $end
$var wire 1 W WideOr1~combout $end
$var wire 1 X WideOr0~1_combout $end
$var wire 1 Y WideOr0~combout $end
$upscope $end
$upscope $end
$enddefinitions $end
#0
$dumpvars
0!
1"
1#
0'
0&
0%
0$
0(
0)
1*
x+
1,
1-
1.
0/
00
01
02
03
04
05
16
17
18
09
0:
0;
0<
0=
0>
0?
0@
0A
0B
0C
0D
0E
0F
0G
0H
1I
0J
1K
0L
0M
0N
0O
0P
0Q
1R
0S
1T
0U
0V
1W
0X
1Y
$end
#500000
1!
14
15
1L
1J
1S
1Q
0K
0R
1/
1'
#1000000
0!
04
05
#1500000
1!
14
15
1M
0L
0S
0T
10
1&
#2000000
0!
04
05
#2500000
1!
14
15
1N
0M
1P
1R
0/
0'
#3000000
0!
04
05
#3500000
1!
14
15
1O
0N
1X
1V
0W
11
1%
#4000000
0!
04
05
#4500000
1!
14
15
0O
19
0P
1:
0R
1/
1'
#5000000
0!
04
05
#5500000
1!
14
15
1;
09
1S
1<
0:
1T
00
0&
#6000000
0!
04
05
#6500000
1!
14
15
1=
0;
0Q
0S
0<
1R
0/
0'
#7000000
0!
04
05
#7500000
1!
14
15
1>
0=
0X
0Y
12
1$
#8000000
0!
04
05
#8500000
1!
14
15
1?
0>
1S
1Q
1@
0R
1/
1'
#9000000
0!
04
05
#9500000
1!
14
15
0?
1A
13
0S
1(
0@
0T
10
1&
#10000000
0!
04
05
#10500000
1!
14
15
1B
0A
03
1P
0(
1C
1R
0/
0'
#11000000
0!
04
05
#11500000
1!
14
15
1D
0B
1U
0C
1W
01
0%
#12000000
0!
04
05
#12500000
1!
14
15
1E
0D
0P
0R
1/
1'
#13000000
0!
04
05
#13500000
1!
14
15
1F
0E
1S
1G
1T
00
0&
#14000000
0!
04
05
#14500000
1!
14
15
1H
0F
0Q
0S
0I
0G
1R
0/
0'
#15000000
0!
04
05
#15500000
1!
14
15
0J
0H
0V
0U
1K
1I
1Y
02
0$
#16000000
0!
04
05
#16500000
1!
14
15
1L
1J
1S
1Q
0K
0R
1/
1'
#17000000
0!
04
05
#17500000
1!
14
15
1M
0L
0S
0T
10
1&
#18000000
0!
04
05
#18500000
1!
14
15
1N
0M
1P
1R
0/
0'
#19000000
0!
04
05
#19500000
1!
14
15
1O
0N
1X
1V
0W
11
1%
#20000000
0!
04
05
#20500000
1!
14
15
0O
19
0P
1:
0R
1/
1'
#21000000
0!
04
05
#21500000
1!
14
15
1;
09
1S
1<
0:
1T
00
0&
#22000000
0!
04
05
#22500000
1!
14
15
1=
0;
0Q
0S
0<
1R
0/
0'
#23000000
0!
04
05
#23500000
1!
14
15
1>
0=
0X
0Y
12
1$
#24000000
0!
04
05
#24500000
1!
14
15
1?
0>
1S
1Q
1@
0R
1/
1'
#25000000
0!
04
05
#25500000
1!
14
15
0?
1A
13
0S
1(
0@
0T
10
1&
#26000000
0!
04
05
#26500000
1!
14
15
1B
0A
03
1P
0(
1C
1R
0/
0'
#27000000
0!
04
05
#27500000
1!
14
15
1D
0B
1U
0C
1W
01
0%
#28000000
0!
04
05
#28500000
1!
14
15
1E
0D
0P
0R
1/
1'
#29000000
0!
04
05
#29500000
1!
14
15
1F
0E
1S
1G
1T
00
0&
#30000000
0!
04
05
#30500000
1!
14
15
1H
0F
0Q
0S
0I
0G
1R
0/
0'
#31000000
0!
04
05
#31500000
1!
14
15
0J
0H
0V
0U
1K
1I
1Y
02
0$
#32000000
0!
04
05
#32500000
1!
14
15
1L
1J
1S
1Q
0K
0R
1/
1'
#33000000
0!
04
05
#33500000
1!
14
15
1M
0L
0S
0T
10
1&
#34000000
0!
04
05
#34500000
1!
14
15
1N
0M
1P
1R
0/
0'
#35000000
0!
04
05
#35500000
1!
14
15
1O
0N
1X
1V
0W
11
1%
#36000000
0!
04
05
#36500000
1!
14
15
0O
19
0P
1:
0R
1/
1'
#37000000
0!
04
05
#37500000
1!
14
15
1;
09
1S
1<
0:
1T
00
0&
#38000000
0!
04
05
#38500000
1!
14
15
1=
0;
0Q
0S
0<
1R
0/
0'
#39000000
0!
04
05
#39500000
1!
14
15
1>
0=
0X
0Y
12
1$
#40000000
0!
04
05
#40500000
1!
14
15
1?
0>
1S
1Q
1@
0R
1/
1'
#41000000
0!
04
05
#41500000
1!
14
15
0?
1A
13
0S
1(
0@
0T
10
1&
#42000000
0!
04
05
#42500000
1!
14
15
1B
0A
03
1P
0(
1C
1R
0/
0'
#43000000
0!
04
05
#43500000
1!
14
15
1D
0B
1U
0C
1W
01
0%
#44000000
0!
04
05
#44500000
1!
14
15
1E
0D
0P
0R
1/
1'
#45000000
0!
04
05
#45500000
1!
14
15
1F
0E
1S
1G
1T
00
0&
#46000000
0!
04
05
#46500000
1!
14
15
1H
0F
0Q
0S
0I
0G
1R
0/
0'
#47000000
0!
04
05
#47500000
1!
14
15
0J
0H
0V
0U
1K
1I
1Y
02
0$
#48000000
0!
04
05
#48500000
1!
14
15
1L
1J
1S
1Q
0K
0R
1/
1'
#49000000
0!
04
05
#49500000
1!
14
15
1M
0L
0S
0T
10
1&
#50000000
0!
04
05
#50500000
1!
14
15
1N
0M
1P
1R
0/
0'
#51000000
0!
04
05
#51500000
1!
14
15
1O
0N
1X
1V
0W
11
1%
#52000000
0!
04
05
#52500000
1!
14
15
0O
19
0P
1:
0R
1/
1'
#53000000
0!
04
05
#53500000
1!
14
15
1;
09
1S
1<
0:
1T
00
0&
#54000000
0!
04
05
#54500000
1!
14
15
1=
0;
0Q
0S
0<
1R
0/
0'
#55000000
0!
04
05
#55500000
1!
14
15
1>
0=
0X
0Y
12
1$
#56000000
0!
04
05
#56500000
1!
14
15
1?
0>
1S
1Q
1@
0R
1/
1'
#57000000
0!
04
05
#57500000
1!
14
15
0?
1A
13
0S
1(
0@
0T
10
1&
#58000000
0!
04
05
#58500000
1!
14
15
1B
0A
03
1P
0(
1C
1R
0/
0'
#59000000
0!
04
05
#59500000
1!
14
15
1D
0B
1U
0C
1W
01
0%
#60000000
0!
04
05
#60500000
1!
14
15
1E
0D
0P
0R
1/
1'
#61000000
0!
04
05
#61500000
1!
14
15
1F
0E
1S
1G
1T
00
0&
#62000000
0!
04
05
#62500000
1!
14
15
1H
0F
0Q
0S
0I
0G
1R
0/
0'
#63000000
0!
04
05
#63500000
1!
14
15
0J
0H
0V
0U
1K
1I
1Y
02
0$
#64000000
0!
04
05
#64500000
1!
14
15
1L
1J
1S
1Q
0K
0R
1/
1'
#65000000
0!
04
05
#65500000
1!
14
15
1M
0L
0S
0T
10
1&
#66000000
0!
04
05
#66500000
1!
14
15
1N
0M
1P
1R
0/
0'
#67000000
0!
04
05
#67500000
1!
14
15
1O
0N
1X
1V
0W
11
1%
#68000000
0!
04
05
#68500000
1!
14
15
0O
19
0P
1:
0R
1/
1'
#69000000
0!
04
05
#69500000
1!
14
15
1;
09
1S
1<
0:
1T
00
0&
#70000000
0!
04
05
#70500000
1!
14
15
1=
0;
0Q
0S
0<
1R
0/
0'
#71000000
0!
04
05
#71500000
1!
14
15
1>
0=
0X
0Y
12
1$
#72000000
0!
04
05
#72500000
1!
14
15
1?
0>
1S
1Q
1@
0R
1/
1'
#73000000
0!
04
05
#73500000
1!
14
15
0?
1A
13
0S
1(
0@
0T
10
1&
#74000000
0!
04
05
#74500000
1!
14
15
1B
0A
03
1P
0(
1C
1R
0/
0'
#75000000
0!
04
05
#75500000
1!
14
15
1D
0B
1U
0C
1W
01
0%
#76000000
0!
04
05
#76500000
1!
14
15
1E
0D
0P
0R
1/
1'
#77000000
0!
04
05
#77500000
1!
14
15
1F
0E
1S
1G
1T
00
0&
#78000000
0!
04
05
#78500000
1!
14
15
1H
0F
0Q
0S
0I
0G
1R
0/
0'
#79000000
0!
04
05
#79500000
1!
14
15
0J
0H
0V
0U
1K
1I
1Y
02
0$
#80000000
0!
04
05
#80500000
1!
14
15
1L
1J
1S
1Q
0K
0R
1/
1'
#81000000
0!
04
05
#81500000
1!
14
15
1M
0L
0S
0T
10
1&
#82000000
0!
04
05
#82500000
1!
14
15
1N
0M
1P
1R
0/
0'
#83000000
0!
04
05
#83500000
1!
14
15
1O
0N
1X
1V
0W
11
1%
#84000000
0!
04
05
#84500000
1!
14
15
0O
19
0P
1:
0R
1/
1'
#85000000
0!
04
05
#85500000
1!
14
15
1;
09
1S
1<
0:
1T
00
0&
#86000000
0!
04
05
#86500000
1!
14
15
1=
0;
0Q
0S
0<
1R
0/
0'
#87000000
0!
04
05
#87500000
1!
14
15
1>
0=
0X
0Y
12
1$
#88000000
0!
04
05
#88500000
1!
14
15
1?
0>
1S
1Q
1@
0R
1/
1'
#89000000
0!
04
05
#89500000
1!
14
15
0?
1A
13
0S
1(
0@
0T
10
1&
#90000000
0!
04
05
#90500000
1!
14
15
1B
0A
03
1P
0(
1C
1R
0/
0'
#91000000
0!
04
05
#91500000
1!
14
15
1D
0B
1U
0C
1W
01
0%
#92000000
0!
04
05
#92500000
1!
14
15
1E
0D
0P
0R
1/
1'
#93000000
0!
04
05
#93500000
1!
14
15
1F
0E
1S
1G
1T
00
0&
#94000000
0!
04
05
#94500000
1!
14
15
1H
0F
0Q
0S
0I
0G
1R
0/
0'
#95000000
0!
04
05
#95500000
1!
14
15
0J
0H
0V
0U
1K
1I
1Y
02
0$
#96000000
0!
04
05
#96500000
1!
14
15
1L
1J
1S
1Q
0K
0R
1/
1'
#97000000
0!
04
05
#97500000
1!
14
15
1M
0L
0S
0T
10
1&
#98000000
0!
04
05
#98500000
1!
14
15
1N
0M
1P
1R
0/
0'
#99000000
0!
04
05
#99500000
1!
14
15
1O
0N
1X
1V
0W
11
1%
