LabSimulation/3.4.7KeyIn/simulation/qsim/KeyIn.msim.vcd
$comment
	File created using the following command:
		vcd file KeyIn.msim.vcd -direction
$end
$date
	Sun May 23 16:35:57 2021
$end
$version
	ModelSim Version 10.5b
$end
$timescale
	1ps
$end

$scope module KeyIn_vlg_vec_tst $end
$var reg 1 ! clk $end
$var reg 1 " keyin $end
$var wire 1 # keyout $end

$scope module i1 $end
$var wire 1 $ gnd $end
$var wire 1 % vcc $end
$var wire 1 & unknown $end
$var tri1 1 ' devclrn $end
$var tri1 1 ( devpor $end
$var tri1 1 ) devoe $end
$var wire 1 * keyout~output_o $end
$var wire 1 + clk~input_o $end
$var wire 1 , clk~inputclkctrl_outclk $end
$var wire 1 - keyin~input_o $end
$var wire 1 . ctb~3_combout $end
$var wire 1 / ctb~4_combout $end
$var wire 1 0 ctb~2_combout $end
$var wire 1 1 ctb~0_combout $end
$var wire 1 2 ctb~1_combout $end
$var wire 1 3 cta~0_combout $end
$var wire 1 4 cta~1_combout $end
$var wire 1 5 cta~2_combout $end
$var wire 1 6 Add0~0_combout $end
$var wire 1 7 cta~3_combout $end
$var wire 1 8 keyout~0_combout $end
$var wire 1 9 keyout~1_combout $end
$var wire 1 : keyout~2_combout $end
$var wire 1 ; keyout~reg0_q $end
$var wire 1 < cta [3] $end
$var wire 1 = cta [2] $end
$var wire 1 > cta [1] $end
$var wire 1 ? cta [0] $end
$var wire 1 @ ctb [3] $end
$var wire 1 A ctb [2] $end
$var wire 1 B ctb [1] $end
$var wire 1 C ctb [0] $end
$upscope $end
$upscope $end
$enddefinitions $end
#0
$dumpvars
0!
1"
0#
0$
1%
x&
1'
1(
1)
0*
0+
0,
1-
1.
0/
00
11
02
03
04
05
06
07
18
09
0:
0;
0?
0>
0=
0<
0C
0B
0A
0@
$end
#1000000
1!
1+
1,
1C
1/
0.
#2000000
0!
0+
0,
#3000000
1!
1+
1,
1B
0C
1.
#4000000
0!
0+
0,
#5000000
1!
1+
1,
1C
10
0/
0.
#6000000
0!
0+
0,
#7000000
1!
1+
1,
1A
0B
0C
1.
#8000000
0!
0+
0,
#9000000
1!
1+
1,
1C
19
1/
0.
1:
#10000000
0!
0+
0,
#10240000
0"
0-
13
00
0/
#11000000
1!
1+
1,
1?
0A
0C
1;
1*
1#
14
03
#11520000
1"
1-
04
1.
#12000000
0!
0+
0,
#12160000
0"
0-
14
0.
#13000000
1!
1+
1,
1>
0?
13
#13440000
1"
1-
04
03
1.
#14000000
0!
0+
0,
#14080000
0"
0-
14
13
0.
#15000000
1!
1+
1,
1?
15
04
03
#16000000
0!
0+
0,
#17000000
1!
1+
1,
1=
0>
0?
13
#18000000
0!
0+
0,
#19000000
1!
1+
1,
1?
08
14
03
0:
#20000000
0!
0+
0,
#21000000
1!
1+
1,
1>
0?
0;
0*
09
0#
13
#22000000
0!
0+
0,
#23000000
1!
1+
1,
1?
16
05
04
03
17
#24000000
0!
0+
0,
#25000000
1!
1+
1,
1<
0=
0>
0?
13
#25600000
1"
1-
07
03
1.
#26000000
0!
0+
0,
#27000000
1!
1+
1,
0<
1C
18
06
1/
0.
#27520000
0"
0-
13
0/
#28000000
0!
0+
0,
#28160000
1"
1-
03
1/
#29000000
1!
1+
1,
1B
0C
1.
#29440000
0"
0-
13
0/
0.
#30000000
0!
0+
0,
#30080000
1"
1-
03
1/
1.
#31000000
1!
1+
1,
1C
10
0/
0.
#32000000
0"
0!
0-
0+
0,
13
00
#32640000
1"
1-
03
10
#33000000
1!
1+
1,
1A
0B
0C
1.
#34000000
0!
0+
0,
#35000000
1!
1+
1,
1C
19
1/
0.
1:
#36000000
0!
0+
0,
#36480000
0"
0-
13
00
0/
#37000000
1!
1+
1,
1?
0A
0C
1;
1*
1#
14
03
#38000000
0!
0+
0,
#39000000
1!
1+
1,
1>
0?
13
#40000000
0!
0+
0,
#41000000
1!
1+
1,
1?
15
04
03
#42000000
0!
0+
0,
#43000000
1!
1+
1,
1=
0>
0?
13
#44000000
0!
0+
0,
#44800000
1"
1-
05
03
1.
#45000000
1!
1+
1,
0=
1C
1/
0.
#46000000
0!
0+
0,
#46720000
0"
0-
13
0/
#47000000
1!
1+
1,
1?
0C
14
03
#48000000
0!
0+
0,
#49000000
1!
1+
1,
1>
0?
13
#50000000
0!
0+
0,
#51000000
1!
1+
1,
1?
15
04
03
#52000000
0!
0+
0,
#53000000
1!
1+
1,
1=
0>
0?
13
#54000000
0!
0+
0,
#55000000
1!
1+
1,
1?
08
14
03
0:
#56000000
0!
0+
0,
#56320000
1"
1-
05
04
1.
#57000000
1!
1+
1,
0=
0?
1C
0;
0*
18
09
0#
1/
0.
#58000000
0!
0+
0,
#59000000
1!
1+
1,
1B
0C
1.
#60000000
0!
0+
0,
#61000000
1!
1+
1,
1C
10
0/
0.
#62000000
0!
0+
0,
#63000000
1!
1+
1,
1A
0B
0C
1.
#64000000
0!
0+
0,
#65000000
1!
1+
1,
1C
19
1/
0.
1:
#66000000
0!
0+
0,
#67000000
1!
1+
1,
1B
0C
1;
1*
01
1#
1.
#68000000
0!
0+
0,
#69000000
1!
1+
1,
1C
12
00
0/
0.
#70000000
0!
0+
0,
#71000000
1!
1+
1,
1@
0A
0B
0C
11
1.
#72000000
0!
0+
0,
#73000000
1!
1+
1,
1C
1/
0.
#74000000
0!
0+
0,
#75000000
1!
1+
1,
1B
0C
1.
#76000000
0!
0+
0,
#77000000
1!
1+
1,
1C
10
0/
0.
#78000000
0!
0+
0,
#79000000
1!
1+
1,
1A
0B
0C
1.
#80000000
0!
0+
0,
#81000000
1!
1+
1,
1C
1/
0.
#82000000
0!
0+
0,
#83000000
1!
1+
1,
1B
0C
01
1.
#84000000
0!
0+
0,
#85000000
1!
1+
1,
1C
02
00
0/
0.
#86000000
0!
0+
0,
#87000000
1!
1+
1,
0@
0A
0B
0C
11
1.
#88000000
0!
0+
0,
#89000000
1!
1+
1,
1C
1/
0.
#90000000
0!
0+
0,
#91000000
1!
1+
1,
1B
0C
1.
#92000000
0!
0+
0,
#93000000
1!
1+
1,
1C
10
0/
0.
#94000000
0!
0+
0,
#95000000
1!
1+
1,
1A
0B
0C
1.
#96000000
0!
0+
0,
#97000000
1!
1+
1,
1C
1/
0.
#98000000
0!
0+
0,
#99000000
1!
1+
1,
1B
0C
01
1.
