Chapter5/chap5.3/simulation/qsim/DFF3.msim.vcd
$comment
	File created using the following command:
		vcd file DFF3.msim.vcd -direction
$end
$date
	Sat Apr 03 18:41:04 2021
$end
$version
	ModelSim Version 10.5b
$end
$timescale
	1ps
$end

$scope module DFF3_vlg_vec_tst $end
$var reg 1 ! CLK $end
$var reg 1 " D $end
$var reg 1 # RST $end
$var wire 1 $ Q $end

$scope module i1 $end
$var wire 1 % gnd $end
$var wire 1 & vcc $end
$var wire 1 ' unknown $end
$var tri1 1 ( devclrn $end
$var tri1 1 ) devpor $end
$var tri1 1 * devoe $end
$var wire 1 + Q~output_o $end
$var wire 1 , CLK~input_o $end
$var wire 1 - D~input_o $end
$var wire 1 . RST~input_o $end
$var wire 1 / Q~0_combout $end
$var wire 1 0 Q~reg0_q $end
$upscope $end
$upscope $end
$enddefinitions $end
#0
$dumpvars
0!
0"
0#
0$
0%
1&
x'
1(
1)
1*
0+
0,
0-
0.
0/
00
$end
#1280000
1#
1.
#1500000
1!
1,
#2500000
1"
1-
#3000000
0!
0,
#4500000
1!
1,
#5000000
0"
0-
#6000000
0!
0,
#6400000
0#
0.
#7500000
1"
1!
1-
1,
1/
#9000000
0!
0,
#10000000
0"
0-
0/
#10500000
1!
1,
#12000000
0!
0,
#12500000
1"
1-
1/
#13500000
1!
1,
10
1+
1$
#15000000
0"
0!
0-
0,
0/
#16500000
1!
1,
00
0+
0$
#17500000
1"
1-
1/
#18000000
0!
0,
#19500000
1!
1,
10
1+
1$
#20000000
0"
0-
0/
#21000000
0!
0,
#22500000
1"
1!
1-
1,
1/
00
0+
0$
#24000000
0!
0,
#25000000
0"
0-
0/
#25500000
1!
1,
#27000000
0!
0,
#27500000
1"
1-
1/
#28500000
1!
1,
10
1+
1$
#30000000
0"
0!
0-
0,
0/
#31500000
1!
1,
00
0+
0$
#32500000
1"
1-
1/
#33000000
0!
0,
#34500000
1!
1,
10
1+
1$
#35000000
0"
0-
0/
#36000000
0!
0,
#37500000
1"
1!
1-
1,
1/
00
0+
0$
#39000000
0!
0,
#40000000
0"
0-
0/
#40500000
1!
1,
#42000000
0!
0,
#42500000
1"
1-
1/
#43500000
1!
1,
10
1+
1$
#45000000
0"
0!
0-
0,
0/
#46500000
1!
1,
00
0+
0$
#47500000
1"
1-
1/
#48000000
0!
0,
#49500000
1!
1,
10
1+
1$
#50000000
0"
0-
0/
#51000000
0!
0,
#52500000
1"
1!
1-
1,
1/
00
0+
0$
#54000000
0!
0,
#55000000
0"
0-
0/
#55500000
1!
1,
#57000000
0!
0,
#57500000
1"
1-
1/
#58500000
1!
1,
10
1+
1$
#60000000
0"
0!
0-
0,
0/
#61500000
1!
1,
00
0+
0$
#62500000
1"
1-
1/
#63000000
0!
0,
#64500000
1!
1,
10
1+
1$
#65000000
0"
0-
0/
#66000000
0!
0,
#67500000
1"
1!
1-
1,
1/
00
0+
0$
#69000000
0!
0,
#70000000
0"
0-
0/
#70500000
1!
1,
#72000000
0!
0,
#72500000
1"
1-
1/
#73500000
1!
1,
10
1+
1$
#75000000
0"
0!
0-
0,
0/
#76500000
1!
1,
00
0+
0$
#77500000
1"
1-
1/
#78000000
0!
0,
#79500000
1!
1,
10
1+
1$
#80000000
0"
0-
0/
#81000000
0!
0,
#82500000
1"
1!
1-
1,
1/
00
0+
0$
#84000000
0!
0,
#85000000
0"
0-
0/
#85500000
1!
1,
#87000000
0!
0,
#87500000
1"
1-
1/
#88500000
1!
1,
10
1+
1$
#90000000
0"
0!
0-
0,
0/
#91500000
1!
1,
00
0+
0$
#92500000
1"
1-
1/
#93000000
0!
0,
#94500000
1!
1,
10
1+
1$
#95000000
0"
0-
0/
#96000000
0!
0,
#97500000
1"
1!
1-
1,
1/
00
0+
0$
#99000000
0!
0,
