Chapter3/practice/count_1/simulation/qsim/count_1.msim.vcd
$comment
	File created using the following command:
		vcd file count_1.msim.vcd -direction
$end
$date
	Sun Apr 25 22:29:36 2021
$end
$version
	ModelSim Version 10.5b
$end
$timescale
	1ps
$end

$scope module count_1_vlg_vec_tst $end
$var reg 8 ! NIN [7:0] $end
$var wire 1 " COUNT [3] $end
$var wire 1 # COUNT [2] $end
$var wire 1 $ COUNT [1] $end
$var wire 1 % COUNT [0] $end

$scope module i1 $end
$var wire 1 & gnd $end
$var wire 1 ' vcc $end
$var wire 1 ( unknown $end
$var tri1 1 ) devclrn $end
$var tri1 1 * devpor $end
$var tri1 1 + devoe $end
$var wire 1 , NIN[7]~input_o $end
$var wire 1 - COUNT[0]~output_o $end
$var wire 1 . COUNT[1]~output_o $end
$var wire 1 / COUNT[2]~output_o $end
$var wire 1 0 COUNT[3]~output_o $end
$var wire 1 1 NIN[6]~input_o $end
$var wire 1 2 NIN[5]~input_o $end
$var wire 1 3 NIN[4]~input_o $end
$var wire 1 4 NIN[2]~input_o $end
$var wire 1 5 NIN[3]~input_o $end
$var wire 1 6 NIN[0]~input_o $end
$var wire 1 7 NIN[1]~input_o $end
$var wire 1 8 Add2~0_combout $end
$var wire 1 9 COUNT~0_combout $end
$var wire 1 : COUNT~1_combout $end
$var wire 1 ; Add2~1_combout $end
$var wire 1 < Add4~0_combout $end
$var wire 1 = COUNT~2_combout $end
$var wire 1 > COUNT~3_combout $end
$var wire 1 ? Add4~1_combout $end
$var wire 1 @ Add4~2_combout $end
$var wire 1 A COUNT~4_combout $end
$var wire 1 B COUNT~5_combout $end
$upscope $end
$upscope $end
$enddefinitions $end
#0
$dumpvars
b11101001 !
0%
0$
1#
0"
0&
1'
x(
1)
1*
1+
1,
0-
0.
1/
00
11
12
03
04
15
16
07
08
09
1:
1;
1<
0=
0>
0?
0@
1A
0B
$end
#10000000
b11100001 !
b11100000 !
06
05
0;
0<
0A
1=
1.
0/
0#
1$
#20000000
b10100000 !
b10000000 !
b10000010 !
b10001010 !
17
15
02
01
1;
0:
1<
0=
0.
0$
1=
1.
1$
#30000000
b1010 !
b1110 !
b1111 !
b1001111 !
b1000111 !
16
14
05
11
0,
18
19
1-
1:
1%
09
0-
0%
1A
0=
0.
1/
1#
0$
#40000000
b1010111 !
b1110111 !
b1110011 !
b1110010 !
b1111010 !
06
04
15
13
12
08
1?
0<
0:
1@
19
0A
1=
1.
0/
1-
1%
0#
1$
1A
0=
0.
1/
1#
0$
#50000000
b11111010 !
b10111010 !
b10101010 !
b10001010 !
b10001011 !
b10000011 !
16
05
03
02
01
1,
0?
1<
09
0-
0@
0%
1=
1.
1$
0A
0/
0#
#60000000
b10000001 !
b10000101 !
b10100101 !
b10100100 !
b10101100 !
06
07
14
15
12
19
1-
1%
#70000000
b11101100 !
b11111100 !
b11111101 !
16
13
11
18
1?
0<
1:
1@
09
0=
0.
0-
0%
0$
1A
1=
1.
1/
1#
1$
#80000000
b11111111 !
b11111011 !
b11011011 !
b11010011 !
b11000011 !
b11000010 !
06
17
04
05
03
02
0;
0?
1<
0@
0<
1B
0A
0=
0.
0/
10
1"
0#
0$
0B
1=
1.
00
0"
1$
#90000000
b1000010 !
b10 !
b110 !
b100110 !
b100111 !
16
14
12
01
0,
1;
1?
1<
0:
1@
0<
1A
0=
0.
1/
1#
0$
