chp3.2/simulation/qsim/mux41a.msim.vcd
$comment
	File created using the following command:
		vcd file mux41a.msim.vcd -direction
$end
$date
	Sun Mar 21 22:27:25 2021
$end
$version
	ModelSim Version 10.5b
$end
$timescale
	1ps
$end

$scope module mux41a_vlg_vec_tst $end
$var reg 1 ! a $end
$var reg 1 " b $end
$var reg 1 # c $end
$var reg 1 $ d $end
$var reg 1 % s0 $end
$var reg 1 & s1 $end
$var wire 1 ' y $end

$scope module i1 $end
$var wire 1 ( gnd $end
$var wire 1 ) vcc $end
$var wire 1 * unknown $end
$var tri1 1 + devclrn $end
$var tri1 1 , devpor $end
$var tri1 1 - devoe $end
$var wire 1 . y~output_o $end
$var wire 1 / s1~input_o $end
$var wire 1 0 c~input_o $end
$var wire 1 1 d~input_o $end
$var wire 1 2 a~input_o $end
$var wire 1 3 s0~input_o $end
$var wire 1 4 b~input_o $end
$var wire 1 5 Mux0~0_combout $end
$var wire 1 6 Mux0~1_combout $end
$upscope $end
$upscope $end
$enddefinitions $end
#0
$dumpvars
0!
0"
0#
0$
0%
0&
x'
0(
1)
x*
1+
1,
1-
x.
0/
00
01
02
03
04
x5
x6
$end
#4379
05
#5332
06
#9352
0.
0'
#250000
1$
#250766
11
#500000
1!
0$
#500766
12
#500812
01
#504980
15
#506006
16
#510192
1.
1'
#750000
1$
#750766
11
#1000000
0!
0$
#1000812
01
02
#1005191
05
#1006144
06
#1010164
0.
0'
#1250000
1$
#1250766
11
#1500000
1!
0$
#1500766
12
#1500812
01
#1504980
15
#1506006
16
#1510192
1.
1'
#1750000
1$
#1750766
11
#2000000
0!
0$
#2000812
01
02
#2005191
05
#2006144
06
#2010164
0.
0'
#2250000
1$
#2250766
11
#2500000
1#
1!
0$
#2500766
12
10
#2500812
01
#2504980
15
#2506006
16
#2510192
1.
1'
#2750000
1$
#2750766
11
#3000000
0!
0$
#3000812
01
02
#3005191
05
#3006144
06
#3010164
0.
0'
#3250000
1$
#3250766
11
#3500000
1!
0$
#3500766
12
#3500812
01
#3504980
15
#3506006
16
#3510192
1.
1'
#3750000
1$
#3750766
11
#4000000
0!
0$
#4000812
01
02
#4005191
05
#4006144
06
#4010164
0.
0'
#4250000
1$
#4250766
11
#4500000
1!
0$
#4500766
12
#4500812
01
#4504980
15
#4506006
16
#4510192
1.
1'
#4750000
1$
#4750766
11
#5000000
1%
0#
0!
0$
#5000766
13
#5000812
01
02
00
#5004435
05
#5005388
06
#5009408
0.
0'
#5250000
1$
#5250766
11
#5500000
1!
0$
#5500766
12
#5500812
01
#5750000
1$
#5750766
11
#6000000
0!
0$
#6000812
01
02
#6250000
1$
#6250766
11
#6500000
1!
0$
#6500766
12
#6500812
01
#6750000
1$
#6750766
11
#7000000
0!
0$
#7000812
01
02
#7250000
1$
#7250766
11
#7500000
1&
1#
1!
0$
#7500766
12
10
1/
#7500812
01
#7504325
15
#7504646
16
#7505329
06
#7750000
1$
#7750766
11
#7752280
16
#7756466
1.
1'
#8000000
0!
0$
#8000812
01
02
#8002450
06
#8006470
0.
0'
#8250000
1$
#8250766
11
#8252280
16
#8256466
1.
1'
#8500000
1!
0$
#8500766
12
#8500812
01
#8502450
06
#8506470
0.
0'
#8750000
1$
#8750766
11
#8752280
16
#8756466
1.
1'
#9000000
0!
0$
#9000812
01
02
#9002450
06
#9006470
0.
0'
#9250000
1$
#9250766
11
#9252280
16
#9256466
1.
1'
#9500000
1!
0$
#9500766
12
#9500812
01
#9502450
06
#9506470
0.
0'
#9750000
1$
#9750766
11
#9752280
16
#9756466
1.
1'
#10000000
1"
0%
0#
0!
0$
#10000766
14
#10000812
01
02
00
03
#10002450
06
#10004688
05
#10006470
0.
0'
#10250000
1$
#10250766
11
#10500000
1!
0$
#10500766
12
#10500812
01
#10750000
1$
#10750766
11
#11000000
0!
0$
#11000812
01
02
#11250000
1$
#11250766
11
#11500000
1!
0$
#11500766
12
#11500812
01
#11750000
1$
#11750766
11
#12000000
0!
0$
#12000812
01
02
#12250000
1$
#12250766
11
#12500000
1#
1!
0$
#12500766
12
10
#12500812
01
#12504646
16
#12508832
1.
1'
#12750000
1$
#12750766
11
#13000000
0!
0$
#13000812
01
02
#13250000
1$
#13250766
11
#13500000
1!
0$
#13500766
12
#13500812
01
#13750000
1$
#13750766
11
#14000000
0!
0$
#14000812
01
02
#14250000
1$
#14250766
11
#14500000
1!
0$
#14500766
12
#14500812
01
#14750000
1$
#14750766
11
#15000000
0&
1%
0#
0!
0$
#15000766
13
#15000812
01
02
00
0/
#15004596
15
#15004909
06
#15005622
16
#15250000
1$
#15250766
11
#15500000
1!
0$
#15500766
12
#15500812
01
#15750000
1$
#15750766
11
#16000000
0!
0$
#16000812
01
02
#16250000
1$
#16250766
11
#16500000
1!
0$
#16500766
12
#16500812
01
#16750000
1$
#16750766
11
#17000000
0!
0$
#17000812
01
02
#17250000
1$
#17250766
11
#17500000
1#
1!
0$
#17500766
12
10
#17500812
01
#17750000
1$
#17750766
11
#18000000
0!
0$
#18000812
01
02
#18250000
1$
#18250766
11
#18500000
1!
0$
#18500766
12
#18500812
01
#18750000
1$
#18750766
11
#19000000
0!
0$
#19000812
01
02
#19250000
1$
#19250766
11
#19500000
1!
0$
#19500766
12
#19500812
01
#19750000
1$
#19750766
11
#20000000
0"
0%
0#
0!
0$
#20000812
01
02
00
03
04
#20005191
05
#20006144
06
#20010164
0.
0'
#20250000
1$
#20250766
11
#20500000
1!
0$
#20500766
12
#20500812
01
#20504980
15
#20506006
16
#20510192
1.
1'
#20750000
1$
#20750766
11
#21000000
0!
0$
#21000812
01
02
#21005191
05
#21006144
06
#21010164
0.
0'
#21250000
1$
#21250766
11
#21500000
1!
0$
#21500766
12
#21500812
01
#21504980
15
#21506006
16
#21510192
1.
1'
#21750000
1$
#21750766
11
#22000000
0!
0$
#22000812
01
02
#22005191
05
#22006144
06
#22010164
0.
0'
#22250000
1$
#22250766
11
#22500000
1&
1#
1!
0$
#22500766
12
10
1/
#22500812
01
#22504646
16
#22508832
1.
1'
#22750000
1$
#22750766
11
#23000000
0!
0$
#23000812
01
02
#23250000
1$
#23250766
11
#23500000
1!
0$
#23500766
12
#23500812
01
#23750000
1$
#23750766
11
#24000000
0!
0$
#24000812
01
02
#24250000
1$
#24250766
11
#24500000
1!
0$
#24500766
12
#24500812
01
#24750000
1$
#24750766
11
#25000000
1%
0#
0!
0$
#25000766
13
#25000812
01
02
00
#25004446
15
#25004909
06
#25008929
0.
0'
#25250000
1$
#25250766
11
#25252280
16
#25256466
1.
1'
#25500000
1!
0$
#25500766
12
#25500812
01
#25502450
06
#25506470
0.
0'
#25750000
1$
#25750766
11
#25752280
16
#25756466
1.
1'
#26000000
0!
0$
#26000812
01
02
#26002450
06
#26006470
0.
0'
#26250000
1$
#26250766
11
#26252280
16
#26256466
1.
1'
#26500000
1!
0$
#26500766
12
#26500812
01
#26502450
06
#26506470
0.
0'
#26750000
1$
#26750766
11
#26752280
16
#26756466
1.
1'
#27000000
0!
0$
#27000812
01
02
#27002450
06
#27006470
0.
0'
#27250000
1$
#27250766
11
#27252280
16
#27256466
1.
1'
#27500000
1#
1!
0$
#27500766
12
10
#27500812
01
#27502450
06
#27506470
0.
0'
#27750000
1$
#27750766
11
#27752280
16
#27756466
1.
1'
#28000000
0!
0$
#28000812
01
02
#28002450
06
#28006470
0.
0'
#28250000
1$
#28250766
11
#28252280
16
#28256466
1.
1'
#28500000
1!
0$
#28500766
12
#28500812
01
#28502450
06
#28506470
0.
0'
#28750000
1$
#28750766
11
#28752280
16
#28756466
1.
1'
#29000000
0!
0$
#29000812
01
02
#29002450
06
#29006470
0.
0'
#29250000
1$
#29250766
11
#29252280
16
#29256466
1.
1'
#29500000
1!
0$
#29500766
12
#29500812
01
#29502450
06
#29506470
0.
0'
#29750000
1$
#29750766
11
#29752280
16
#29756466
1.
1'
#30000000
1"
0&
0%
0#
0!
0$
#30000766
14
#30000812
01
02
00
03
0/
#30002450
06
#30004889
16
#30005191
05
#30006144
06
#30010164
0.
0'
#30250000
1$
#30250766
11
#30500000
1!
0$
#30500766
12
#30500812
01
#30504980
15
#30506006
16
#30510192
1.
1'
#30750000
1$
#30750766
11
#31000000
0!
0$
#31000812
01
02
#31005191
05
#31006144
06
#31010164
0.
0'
#31250000
1$
#31250766
11
#31500000
1!
0$
#31500766
12
#31500812
01
#31504980
15
#31506006
16
#31510192
1.
1'
#31750000
1$
#31750766
11
#32000000
0!
0$
#32000812
01
02
#32005191
05
#32006144
06
#32010164
0.
0'
#32250000
1$
#32250766
11
#32500000
1#
1!
0$
#32500766
12
10
#32500812
01
#32504980
15
#32506006
16
#32510192
1.
1'
#32750000
1$
#32750766
11
#33000000
0!
0$
#33000812
01
02
#33005191
05
#33006144
06
#33010164
0.
0'
#33250000
1$
#33250766
11
#33500000
1!
0$
#33500766
12
#33500812
01
#33504980
15
#33506006
16
#33510192
1.
1'
#33750000
1$
#33750766
11
#34000000
0!
0$
#34000812
01
02
#34005191
05
#34006144
06
#34010164
0.
0'
#34250000
1$
#34250766
11
#34500000
1!
0$
#34500766
12
#34500812
01
#34504980
15
#34506006
16
#34510192
1.
1'
#34750000
1$
#34750766
11
#35000000
1%
0#
0!
0$
#35000766
13
#35000812
01
02
00
#35250000
1$
#35250766
11
#35500000
1!
0$
#35500766
12
#35500812
01
#35750000
1$
#35750766
11
#36000000
0!
0$
#36000812
01
02
#36250000
1$
#36250766
11
#36500000
1!
0$
#36500766
12
#36500812
01
#36750000
1$
#36750766
11
#37000000
0!
0$
#37000812
01
02
#37250000
1$
#37250766
11
#37500000
1&
1#
1!
0$
#37500766
12
10
1/
#37500812
01
#37504638
06
#37508658
0.
0'
#37750000
1$
#37750766
11
#37752280
16
#37756466
1.
1'
#38000000
0!
0$
#38000812
01
02
#38002450
06
#38006470
0.
0'
#38250000
1$
#38250766
11
#38252280
16
#38256466
1.
1'
#38500000
1!
0$
#38500766
12
#38500812
01
#38502450
06
#38506470
0.
0'
#38750000
1$
#38750766
11
#38752280
16
#38756466
1.
1'
#39000000
0!
0$
#39000812
01
02
#39002450
06
#39006470
0.
0'
#39250000
1$
#39250766
11
#39252280
16
#39256466
1.
1'
#39500000
1!
0$
#39500766
12
#39500812
01
#39502450
06
#39506470
0.
0'
#39750000
1$
#39750766
11
#39752280
16
#39756466
1.
1'
#40000000
0"
0%
0#
0!
0$
#40000812
01
02
00
03
04
#40002450
06
#40004688
05
#40006470
0.
0'
#40250000
1$
#40250766
11
#40500000
1!
0$
#40500766
12
#40500812
01
#40750000
1$
#40750766
11
#41000000
0!
0$
#41000812
01
02
#41250000
1$
#41250766
11
#41500000
1!
0$
#41500766
12
#41500812
01
#41750000
1$
#41750766
11
#42000000
0!
0$
#42000812
01
02
#42250000
1$
#42250766
11
#42500000
1#
1!
0$
#42500766
12
10
#42500812
01
#42504646
16
#42508832
1.
1'
#42750000
1$
#42750766
11
#43000000
0!
0$
#43000812
01
02
#43250000
1$
#43250766
11
#43500000
1!
0$
#43500766
12
#43500812
01
#43750000
1$
#43750766
11
#44000000
0!
0$
#44000812
01
02
#44250000
1$
#44250766
11
#44500000
1!
0$
#44500766
12
#44500812
01
#44750000
1$
#44750766
11
#45000000
0&
1%
0#
0!
0$
#45000766
13
#45000812
01
02
00
0/
#45004909
06
#45008929
0.
0'
#45250000
1$
#45250766
11
#45500000
1!
0$
#45500766
12
#45500812
01
#45750000
1$
#45750766
11
#46000000
0!
0$
#46000812
01
02
#46250000
1$
#46250766
11
#46500000
1!
0$
#46500766
12
#46500812
01
#46750000
1$
#46750766
11
#47000000
0!
0$
#47000812
01
02
#47250000
1$
#47250766
11
#47500000
1#
1!
0$
#47500766
12
10
#47500812
01
#47750000
1$
#47750766
11
#48000000
0!
0$
#48000812
01
02
#48250000
1$
#48250766
11
#48500000
1!
0$
#48500766
12
#48500812
01
#48750000
1$
#48750766
11
#49000000
0!
0$
#49000812
01
02
#49250000
1$
#49250766
11
#49500000
1!
0$
#49500766
12
#49500812
01
#49750000
1$
#49750766
11
#50000000
1"
0%
0#
0!
0$
#50000766
14
#50000812
01
02
00
03
#50004699
15
#50005191
05
#50250000
1$
#50250766
11
#50500000
1!
0$
#50500766
12
#50500812
01
#50504980
15
#50506006
16
#50510192
1.
1'
#50750000
1$
#50750766
11
#51000000
0!
0$
#51000812
01
02
#51005191
05
#51006144
06
#51010164
0.
0'
#51250000
1$
#51250766
11
#51500000
1!
0$
#51500766
12
#51500812
01
#51504980
15
#51506006
16
#51510192
1.
1'
#51750000
1$
#51750766
11
#52000000
0!
0$
#52000812
01
02
#52005191
05
#52006144
06
#52010164
0.
0'
#52250000
1$
#52250766
11
#52500000
1&
1#
1!
0$
#52500766
12
10
1/
#52500812
01
#52504646
16
#52508832
1.
1'
#52750000
1$
#52750766
11
#53000000
0!
0$
#53000812
01
02
#53250000
1$
#53250766
11
#53500000
1!
0$
#53500766
12
#53500812
01
#53750000
1$
#53750766
11
#54000000
0!
0$
#54000812
01
02
#54250000
1$
#54250766
11
#54500000
1!
0$
#54500766
12
#54500812
01
#54750000
1$
#54750766
11
#55000000
1%
0#
0!
0$
#55000766
13
#55000812
01
02
00
#55004446
15
#55004909
06
#55008929
0.
0'
#55250000
1$
#55250766
11
#55252280
16
#55256466
1.
1'
#55500000
1!
0$
#55500766
12
#55500812
01
#55502450
06
#55506470
0.
0'
#55750000
1$
#55750766
11
#55752280
16
#55756466
1.
1'
#56000000
0!
0$
#56000812
01
02
#56002450
06
#56006470
0.
0'
#56250000
1$
#56250766
11
#56252280
16
#56256466
1.
1'
#56500000
1!
0$
#56500766
12
#56500812
01
#56502450
06
#56506470
0.
0'
#56750000
1$
#56750766
11
#56752280
16
#56756466
1.
1'
#57000000
0!
0$
#57000812
01
02
#57002450
06
#57006470
0.
0'
#57250000
1$
#57250766
11
#57252280
16
#57256466
1.
1'
#57500000
1#
1!
0$
#57500766
12
10
#57500812
01
#57502450
06
#57506470
0.
0'
#57750000
1$
#57750766
11
#57752280
16
#57756466
1.
1'
#58000000
0!
0$
#58000812
01
02
#58002450
06
#58006470
0.
0'
#58250000
1$
#58250766
11
#58252280
16
#58256466
1.
1'
#58500000
1!
0$
#58500766
12
#58500812
01
#58502450
06
#58506470
0.
0'
#58750000
1$
#58750766
11
#58752280
16
#58756466
1.
1'
#59000000
0!
0$
#59000812
01
02
#59002450
06
#59006470
0.
0'
#59250000
1$
#59250766
11
#59252280
16
#59256466
1.
1'
#59500000
1!
0$
#59500766
12
#59500812
01
#59502450
06
#59506470
0.
0'
#59750000
1$
#59750766
11
#59752280
16
#59756466
1.
1'
#60000000
0"
0&
0%
0#
0!
0$
#60000812
01
02
00
03
0/
04
#60002450
06
#60004889
16
#60005191
05
#60006144
06
#60010164
0.
0'
#60250000
1$
#60250766
11
#60500000
1!
0$
#60500766
12
#60500812
01
#60504980
15
#60506006
16
#60510192
1.
1'
#60750000
1$
#60750766
11
#61000000
0!
0$
#61000812
01
02
#61005191
05
#61006144
06
#61010164
0.
0'
#61250000
1$
#61250766
11
#61500000
1!
0$
#61500766
12
#61500812
01
#61504980
15
#61506006
16
#61510192
1.
1'
#61750000
1$
#61750766
11
#62000000
0!
0$
#62000812
01
02
#62005191
05
#62006144
06
#62010164
0.
0'
#62250000
1$
#62250766
11
#62500000
1#
1!
0$
#62500766
12
10
#62500812
01
#62504980
15
#62506006
16
#62510192
1.
1'
#62750000
1$
#62750766
11
#63000000
0!
0$
#63000812
01
02
#63005191
05
#63006144
06
#63010164
0.
0'
#63250000
1$
#63250766
11
#63500000
1!
0$
#63500766
12
#63500812
01
#63504980
15
#63506006
16
#63510192
1.
1'
#63750000
1$
#63750766
11
#64000000
0!
0$
#64000812
01
02
#64005191
05
#64006144
06
#64010164
0.
0'
#64250000
1$
#64250766
11
#64500000
1!
0$
#64500766
12
#64500812
01
#64504980
15
#64506006
16
#64510192
1.
1'
#64750000
1$
#64750766
11
#65000000
1%
0#
0!
0$
#65000766
13
#65000812
01
02
00
#65004435
05
#65005388
06
#65009408
0.
0'
#65250000
1$
#65250766
11
#65500000
1!
0$
#65500766
12
#65500812
01
#65750000
1$
#65750766
11
#66000000
0!
0$
#66000812
01
02
#66250000
1$
#66250766
11
#66500000
1!
0$
#66500766
12
#66500812
01
#66750000
1$
#66750766
11
#67000000
0!
0$
#67000812
01
02
#67250000
1$
#67250766
11
#67500000
1&
1#
1!
0$
#67500766
12
10
1/
#67500812
01
#67504325
15
#67504646
16
#67505329
06
#67750000
1$
#67750766
11
#67752280
16
#67756466
1.
1'
#68000000
0!
0$
#68000812
01
02
#68002450
06
#68006470
0.
0'
#68250000
1$
#68250766
11
#68252280
16
#68256466
1.
1'
#68500000
1!
0$
#68500766
12
#68500812
01
#68502450
06
#68506470
0.
0'
#68750000
1$
#68750766
11
#68752280
16
#68756466
1.
1'
#69000000
0!
0$
#69000812
01
02
#69002450
06
#69006470
0.
0'
#69250000
1$
#69250766
11
#69252280
16
#69256466
1.
1'
#69500000
1!
0$
#69500766
12
#69500812
01
#69502450
06
#69506470
0.
0'
#69750000
1$
#69750766
11
#69752280
16
#69756466
1.
1'
#70000000
1"
0%
0#
0!
0$
#70000766
14
#70000812
01
02
00
03
#70002450
06
#70004688
05
#70006470
0.
0'
#70250000
1$
#70250766
11
#70500000
1!
0$
#70500766
12
#70500812
01
#70750000
1$
#70750766
11
#71000000
0!
0$
#71000812
01
02
#71250000
1$
#71250766
11
#71500000
1!
0$
#71500766
12
#71500812
01
#71750000
1$
#71750766
11
#72000000
0!
0$
#72000812
01
02
#72250000
1$
#72250766
11
#72500000
1#
1!
0$
#72500766
12
10
#72500812
01
#72504646
16
#72508832
1.
1'
#72750000
1$
#72750766
11
#73000000
0!
0$
#73000812
01
02
#73250000
1$
#73250766
11
#73500000
1!
0$
#73500766
12
#73500812
01
#73750000
1$
#73750766
11
#74000000
0!
0$
#74000812
01
02
#74250000
1$
#74250766
11
#74500000
1!
0$
#74500766
12
#74500812
01
#74750000
1$
#74750766
11
#75000000
0&
1%
0#
0!
0$
#75000766
13
#75000812
01
02
00
0/
#75004596
15
#75004909
06
#75005622
16
#75250000
1$
#75250766
11
#75500000
1!
0$
#75500766
12
#75500812
01
#75750000
1$
#75750766
11
#76000000
0!
0$
#76000812
01
02
#76250000
1$
#76250766
11
#76500000
1!
0$
#76500766
12
#76500812
01
#76750000
1$
#76750766
11
#77000000
0!
0$
#77000812
01
02
#77250000
1$
#77250766
11
#77500000
1#
1!
0$
#77500766
12
10
#77500812
01
#77750000
1$
#77750766
11
#78000000
0!
0$
#78000812
01
02
#78250000
1$
#78250766
11
#78500000
1!
0$
#78500766
12
#78500812
01
#78750000
1$
#78750766
11
#79000000
0!
0$
#79000812
01
02
#79250000
1$
#79250766
11
#79500000
1!
0$
#79500766
12
#79500812
01
#79750000
1$
#79750766
11
#80000000
0"
0%
0#
0!
0$
#80000812
01
02
00
03
04
#80005191
05
#80006144
06
#80010164
0.
0'
#80250000
1$
#80250766
11
#80500000
1!
0$
#80500766
12
#80500812
01
#80504980
15
#80506006
16
#80510192
1.
1'
#80750000
1$
#80750766
11
#81000000
0!
0$
#81000812
01
02
#81005191
05
#81006144
06
#81010164
0.
0'
#81250000
1$
#81250766
11
#81500000
1!
0$
#81500766
12
#81500812
01
#81504980
15
#81506006
16
#81510192
1.
1'
#81750000
1$
#81750766
11
#82000000
0!
0$
#82000812
01
02
#82005191
05
#82006144
06
#82010164
0.
0'
#82250000
1$
#82250766
11
#82500000
1&
1#
1!
0$
#82500766
12
10
1/
#82500812
01
#82504646
16
#82508832
1.
1'
#82750000
1$
#82750766
11
#83000000
0!
0$
#83000812
01
02
#83250000
1$
#83250766
11
#83500000
1!
0$
#83500766
12
#83500812
01
#83750000
1$
#83750766
11
#84000000
0!
0$
#84000812
01
02
#84250000
1$
#84250766
11
#84500000
1!
0$
#84500766
12
#84500812
01
#84750000
1$
#84750766
11
#85000000
1%
0#
0!
0$
#85000766
13
#85000812
01
02
00
#85004446
15
#85004909
06
#85008929
0.
0'
#85250000
1$
#85250766
11
#85252280
16
#85256466
1.
1'
#85500000
1!
0$
#85500766
12
#85500812
01
#85502450
06
#85506470
0.
0'
#85750000
1$
#85750766
11
#85752280
16
#85756466
1.
1'
#86000000
0!
0$
#86000812
01
02
#86002450
06
#86006470
0.
0'
#86250000
1$
#86250766
11
#86252280
16
#86256466
1.
1'
#86500000
1!
0$
#86500766
12
#86500812
01
#86502450
06
#86506470
0.
0'
#86750000
1$
#86750766
11
#86752280
16
#86756466
1.
1'
#87000000
0!
0$
#87000812
01
02
#87002450
06
#87006470
0.
0'
#87250000
1$
#87250766
11
#87252280
16
#87256466
1.
1'
#87500000
1#
1!
0$
#87500766
12
10
#87500812
01
#87502450
06
#87506470
0.
0'
#87750000
1$
#87750766
11
#87752280
16
#87756466
1.
1'
#88000000
0!
0$
#88000812
01
02
#88002450
06
#88006470
0.
0'
#88250000
1$
#88250766
11
#88252280
16
#88256466
1.
1'
#88500000
1!
0$
#88500766
12
#88500812
01
#88502450
06
#88506470
0.
0'
#88750000
1$
#88750766
11
#88752280
16
#88756466
1.
1'
#89000000
0!
0$
#89000812
01
02
#89002450
06
#89006470
0.
0'
#89250000
1$
#89250766
11
#89252280
16
#89256466
1.
1'
#89500000
1!
0$
#89500766
12
#89500812
01
#89502450
06
#89506470
0.
0'
#89750000
1$
#89750766
11
#89752280
16
#89756466
1.
1'
#90000000
1"
0&
0%
0#
0!
0$
#90000766
14
#90000812
01
02
00
03
0/
#90002450
06
#90004889
16
#90005191
05
#90006144
06
#90010164
0.
0'
#90250000
1$
#90250766
11
#90500000
1!
0$
#90500766
12
#90500812
01
#90504980
15
#90506006
16
#90510192
1.
1'
#90750000
1$
#90750766
11
#91000000
0!
0$
#91000812
01
02
#91005191
05
#91006144
06
#91010164
0.
0'
#91250000
1$
#91250766
11
#91500000
1!
0$
#91500766
12
#91500812
01
#91504980
15
#91506006
16
#91510192
1.
1'
#91750000
1$
#91750766
11
#92000000
0!
0$
#92000812
01
02
#92005191
05
#92006144
06
#92010164
0.
0'
#92250000
1$
#92250766
11
#92500000
1#
1!
0$
#92500766
12
10
#92500812
01
#92504980
15
#92506006
16
#92510192
1.
1'
#92750000
1$
#92750766
11
#93000000
0!
0$
#93000812
01
02
#93005191
05
#93006144
06
#93010164
0.
0'
#93250000
1$
#93250766
11
#93500000
1!
0$
#93500766
12
#93500812
01
#93504980
15
#93506006
16
#93510192
1.
1'
#93750000
1$
#93750766
11
#94000000
0!
0$
#94000812
01
02
#94005191
05
#94006144
06
#94010164
0.
0'
#94250000
1$
#94250766
11
#94500000
1!
0$
#94500766
12
#94500812
01
#94504980
15
#94506006
16
#94510192
1.
1'
#94750000
1$
#94750766
11
#95000000
1%
0#
0!
0$
#95000766
13
#95000812
01
02
00
#95250000
1$
#95250766
11
#95500000
1!
0$
#95500766
12
#95500812
01
#95750000
1$
#95750766
11
#96000000
0!
0$
#96000812
01
02
#96250000
1$
#96250766
11
#96500000
1!
0$
#96500766
12
#96500812
01
#96750000
1$
#96750766
11
#97000000
0!
0$
#97000812
01
02
#97250000
1$
#97250766
11
#97500000
1&
1#
1!
0$
#97500766
12
10
1/
#97500812
01
#97504638
06
#97508658
0.
0'
#97750000
1$
#97750766
11
#97752280
16
#97756466
1.
1'
#98000000
0!
0$
#98000812
01
02
#98002450
06
#98006470
0.
0'
#98250000
1$
#98250766
11
#98252280
16
#98256466
1.
1'
#98500000
1!
0$
#98500766
12
#98500812
01
#98502450
06
#98506470
0.
0'
#98750000
1$
#98750766
11
#98752280
16
#98756466
1.
1'
#99000000
0!
0$
#99000812
01
02
#99002450
06
#99006470
0.
0'
#99250000
1$
#99250766
11
#99252280
16
#99256466
1.
1'
#99500000
1!
0$
#99500766
12
#99500812
01
#99502450
06
#99506470
0.
0'
#99750000
1$
#99750766
11
#99752280
16
#99756466
1.
1'
