Chapter3/chp3.6/simulation/qsim/f_adder.msim.vcd
$comment
	File created using the following command:
		vcd file f_adder.msim.vcd -direction
$end
$date
	Mon Apr 05 17:00:09 2021
$end
$version
	ModelSim Version 10.5b
$end
$timescale
	1ps
$end

$scope module f_adder_vlg_vec_tst $end
$var reg 1 ! ain $end
$var reg 1 " bin $end
$var reg 1 # cin $end
$var wire 1 $ cout $end
$var wire 1 % sum $end

$scope module i1 $end
$var wire 1 & gnd $end
$var wire 1 ' vcc $end
$var wire 1 ( unknown $end
$var tri1 1 ) devclrn $end
$var tri1 1 * devpor $end
$var tri1 1 + devoe $end
$var wire 1 , cout~output_o $end
$var wire 1 - sum~output_o $end
$var wire 1 . bin~input_o $end
$var wire 1 / ain~input_o $end
$var wire 1 0 cin~input_o $end
$var wire 1 1 U3~0_combout $end
$var wire 1 2 U2|SO~0_combout $end
$upscope $end
$upscope $end
$enddefinitions $end
#0
$dumpvars
0!
0"
0#
x$
x%
0&
1'
x(
1)
1*
1+
x,
x-
0.
0/
00
x1
x2
$end
#4273
01
#4330
02
#8041
0,
0$
#8280
0-
0%
#1500000
1"
#1500766
1.
#1504914
12
#1509016
1-
1%
#2500000
1!
#2500766
1/
#2504315
02
#2504326
11
#2508217
1,
1$
#2508265
0-
0%
#3000000
0"
#3000812
0.
#3005085
01
#3005122
12
#3008853
0,
0$
#3009224
1-
1%
#4500000
1"
#4500766
1.
#4504896
11
#4504928
02
#4508787
1,
1$
#4508878
0-
0%
#5000000
0!
#5000812
0/
#5004555
01
#5004566
12
#5008323
0,
0$
#5008668
1-
1%
#6000000
0"
#6000812
0.
#6005136
02
#6009086
0-
0%
#7500000
1!
1"
#7500766
1.
1/
#7504326
12
#7504896
11
#7504928
02
#7508787
1,
1$
#9000000
0"
#9000812
0.
#9005085
01
#9005122
12
#9008853
0,
0$
#9009224
1-
1%
#10000000
0!
#10000812
0/
#10004555
02
#10008505
0-
0%
#10500000
1"
#10500766
1.
#10504914
12
#10509016
1-
1%
#12000000
0"
#12000812
0.
#12005136
02
#12009086
0-
0%
#12500000
1!
#12500766
1/
#12504326
12
#12508428
1-
1%
#13500000
1"
#13500766
1.
#13504896
11
#13504928
02
#13508787
1,
1$
#13508878
0-
0%
#15000000
0!
0"
#15000812
0.
0/
#15004555
01
#15004566
12
#15005136
02
#15008323
0,
0$
#16500000
1"
#16500766
1.
#16504914
12
#16509016
1-
1%
#17500000
1!
#17500766
1/
#17504315
02
#17504326
11
#17508217
1,
1$
#17508265
0-
0%
#18000000
0"
#18000812
0.
#18005085
01
#18005122
12
#18008853
0,
0$
#18009224
1-
1%
#19500000
1"
#19500766
1.
#19504896
11
#19504928
02
#19508787
1,
1$
#19508878
0-
0%
#20000000
0!
#20000812
0/
#20004555
01
#20004566
12
#20008323
0,
0$
#20008668
1-
1%
#21000000
0"
#21000812
0.
#21005136
02
#21009086
0-
0%
#21760000
1#
#21760766
10
#21764966
12
#21769068
1-
1%
#22500000
1!
1"
#22500766
1.
1/
#22504315
02
#22504326
11
#22504914
12
#22508217
1,
1$
#24000000
0"
#24000812
0.
#24005136
02
#24009086
0-
0%
#25000000
0!
#25000812
0/
#25004555
01
#25004566
12
#25008323
0,
0$
#25008668
1-
1%
#25500000
1"
#25500766
1.
#25504896
11
#25504928
02
#25508787
1,
1$
#25508878
0-
0%
#27000000
0"
#27000812
0.
#27005085
01
#27005122
12
#27008853
0,
0$
#27009224
1-
1%
#27500000
1!
#27500766
1/
#27504315
02
#27504326
11
#27508217
1,
1$
#27508265
0-
0%
#28500000
1"
#28500766
1.
#28504914
12
#28509016
1-
1%
#30000000
0!
0"
#30000812
0.
0/
#30004555
02
#30005085
01
#30005122
12
#30008853
0,
0$
#31500000
1"
#31500766
1.
#31504896
11
#31504928
02
#31508787
1,
1$
#31508878
0-
0%
#32500000
1!
#32500766
1/
#32504326
12
#32508428
1-
1%
#33000000
0"
#33000812
0.
#33005136
02
#33009086
0-
0%
#34500000
1"
#34500766
1.
#34504914
12
#34509016
1-
1%
#35000000
0!
#35000812
0/
#35004555
02
#35008505
0-
0%
#36000000
0"
#36000812
0.
#36005085
01
#36005122
12
#36008853
0,
0$
#36009224
1-
1%
#37500000
1!
1"
#37500766
1.
1/
#37504315
02
#37504326
11
#37504914
12
#37508217
1,
1$
#39000000
0"
#39000812
0.
#39005136
02
#39009086
0-
0%
#40000000
0!
#40000812
0/
#40004555
01
#40004566
12
#40008323
0,
0$
#40008668
1-
1%
#40500000
1"
#40500766
1.
#40504896
11
#40504928
02
#40508787
1,
1$
#40508878
0-
0%
#42000000
0"
#42000812
0.
#42005085
01
#42005122
12
#42008853
0,
0$
#42009224
1-
1%
#42500000
1!
#42500766
1/
#42504315
02
#42504326
11
#42508217
1,
1$
#42508265
0-
0%
#43500000
1"
#43500766
1.
#43504914
12
#43509016
1-
1%
#45000000
0!
0"
#45000812
0.
0/
#45004555
02
#45005085
01
#45005122
12
#45008853
0,
0$
#46500000
1"
#46500766
1.
#46504896
11
#46504928
02
#46508787
1,
1$
#46508878
0-
0%
#47500000
1!
#47500766
1/
#47504326
12
#47508428
1-
1%
#48000000
0"
#48000812
0.
#48005136
02
#48009086
0-
0%
#49500000
1"
#49500766
1.
#49504914
12
#49509016
1-
1%
#50000000
0!
#50000812
0/
#50004555
02
#50008505
0-
0%
#51000000
0"
#51000812
0.
#51005085
01
#51005122
12
#51008853
0,
0$
#51009224
1-
1%
#52500000
1!
1"
#52500766
1.
1/
#52504315
02
#52504326
11
#52504914
12
#52508217
1,
1$
#54000000
0"
#54000812
0.
#54005136
02
#54009086
0-
0%
#55000000
0!
#55000812
0/
#55004555
01
#55004566
12
#55008323
0,
0$
#55008668
1-
1%
#55500000
1"
#55500766
1.
#55504896
11
#55504928
02
#55508787
1,
1$
#55508878
0-
0%
#57000000
0"
#57000812
0.
#57005085
01
#57005122
12
#57008853
0,
0$
#57009224
1-
1%
#57500000
1!
#57500766
1/
#57504315
02
#57504326
11
#57508217
1,
1$
#57508265
0-
0%
#58500000
1"
#58500766
1.
#58504914
12
#58509016
1-
1%
#60000000
0!
0"
#60000812
0.
0/
#60004555
02
#60005085
01
#60005122
12
#60008853
0,
0$
#61500000
1"
#61500766
1.
#61504896
11
#61504928
02
#61508787
1,
1$
#61508878
0-
0%
#62500000
1!
#62500766
1/
#62504326
12
#62508428
1-
1%
#63000000
0"
#63000812
0.
#63005136
02
#63009086
0-
0%
#64500000
1"
#64500766
1.
#64504914
12
#64509016
1-
1%
#65000000
0!
#65000812
0/
#65004555
02
#65008505
0-
0%
#66000000
0"
#66000812
0.
#66005085
01
#66005122
12
#66008853
0,
0$
#66009224
1-
1%
#67500000
1!
1"
#67500766
1.
1/
#67504315
02
#67504326
11
#67504914
12
#67508217
1,
1$
#69000000
0"
#69000812
0.
#69005136
02
#69009086
0-
0%
#70000000
0!
#70000812
0/
#70004555
01
#70004566
12
#70008323
0,
0$
#70008668
1-
1%
#70500000
1"
#70500766
1.
#70504896
11
#70504928
02
#70508787
1,
1$
#70508878
0-
0%
#72000000
0"
#72000812
0.
#72005085
01
#72005122
12
#72008853
0,
0$
#72009224
1-
1%
#72500000
1!
#72500766
1/
#72504315
02
#72504326
11
#72508217
1,
1$
#72508265
0-
0%
#73500000
1"
#73500766
1.
#73504914
12
#73509016
1-
1%
#75000000
0!
0"
#75000812
0.
0/
#75004555
02
#75005085
01
#75005122
12
#75008853
0,
0$
#76500000
1"
#76500766
1.
#76504896
11
#76504928
02
#76508787
1,
1$
#76508878
0-
0%
#77500000
1!
#77500766
1/
#77504326
12
#77508428
1-
1%
#78000000
0"
#78000812
0.
#78005136
02
#78009086
0-
0%
#79500000
1"
#79500766
1.
#79504914
12
#79509016
1-
1%
#80000000
0!
#80000812
0/
#80004555
02
#80008505
0-
0%
#81000000
0"
#81000812
0.
#81005085
01
#81005122
12
#81008853
0,
0$
#81009224
1-
1%
#82500000
1!
1"
#82500766
1.
1/
#82504315
02
#82504326
11
#82504914
12
#82508217
1,
1$
#84000000
0"
#84000812
0.
#84005136
02
#84009086
0-
0%
#85000000
0!
#85000812
0/
#85004555
01
#85004566
12
#85008323
0,
0$
#85008668
1-
1%
#85500000
1"
#85500766
1.
#85504896
11
#85504928
02
#85508787
1,
1$
#85508878
0-
0%
#87000000
0"
#87000812
0.
#87005085
01
#87005122
12
#87008853
0,
0$
#87009224
1-
1%
#87500000
1!
#87500766
1/
#87504315
02
#87504326
11
#87508217
1,
1$
#87508265
0-
0%
#88500000
1"
#88500766
1.
#88504914
12
#88509016
1-
1%
#90000000
0!
0"
#90000812
0.
0/
#90004555
02
#90005085
01
#90005122
12
#90008853
0,
0$
#91500000
1"
#91500766
1.
#91504896
11
#91504928
02
#91508787
1,
1$
#91508878
0-
0%
#92500000
1!
#92500766
1/
#92504326
12
#92508428
1-
1%
#93000000
0"
#93000812
0.
#93005136
02
#93009086
0-
0%
#93440000
0#
#93440812
00
#93445143
01
#93445164
12
#93448911
0,
0$
#93449266
1-
1%
#94500000
1"
#94500766
1.
#94504896
11
#94504928
02
#94508787
1,
1$
#94508878
0-
0%
#95000000
0!
#95000812
0/
#95004555
01
#95004566
12
#95008323
0,
0$
#95008668
1-
1%
#96000000
0"
#96000812
0.
#96005136
02
#96009086
0-
0%
#97500000
1!
1"
#97500766
1.
1/
#97504326
12
#97504896
11
#97504928
02
#97508787
1,
1$
#99000000
0"
#99000812
0.
#99005085
01
#99005122
12
#99008853
0,
0$
#99009224
1-
1%
