Chapter3/chp3.13/simulation/qsim/test1.msim.vcd
$comment
	File created using the following command:
		vcd file test1.msim.vcd -direction
$end
$date
	Mon Apr 05 21:01:26 2021
$end
$version
	ModelSim Version 10.5b
$end
$timescale
	1ps
$end

$scope module test1_vlg_vec_tst $end
$var reg 4 ! A [3:0] $end
$var reg 4 " B [3:0] $end
$var reg 4 # C [3:0] $end
$var reg 4 $ D [3:0] $end
$var wire 1 % C0 $end
$var wire 1 & R1 $end
$var wire 1 ' R2 $end
$var wire 1 ( RAB [3] $end
$var wire 1 ) RAB [2] $end
$var wire 1 * RAB [1] $end
$var wire 1 + RAB [0] $end
$var wire 1 , RCD [3] $end
$var wire 1 - RCD [2] $end
$var wire 1 . RCD [1] $end
$var wire 1 / RCD [0] $end
$var wire 1 0 RM1 [7] $end
$var wire 1 1 RM1 [6] $end
$var wire 1 2 RM1 [5] $end
$var wire 1 3 RM1 [4] $end
$var wire 1 4 RM1 [3] $end
$var wire 1 5 RM1 [2] $end
$var wire 1 6 RM1 [1] $end
$var wire 1 7 RM1 [0] $end
$var wire 1 8 RM2 [7] $end
$var wire 1 9 RM2 [6] $end
$var wire 1 : RM2 [5] $end
$var wire 1 ; RM2 [4] $end
$var wire 1 < RM2 [3] $end
$var wire 1 = RM2 [2] $end
$var wire 1 > RM2 [1] $end
$var wire 1 ? RM2 [0] $end
$var wire 1 @ S [3] $end
$var wire 1 A S [2] $end
$var wire 1 B S [1] $end
$var wire 1 C S [0] $end

$scope module i1 $end
$var wire 1 D gnd $end
$var wire 1 E vcc $end
$var wire 1 F unknown $end
$var tri1 1 G devclrn $end
$var tri1 1 H devpor $end
$var tri1 1 I devoe $end
$var wire 1 J RCD[0]~output_o $end
$var wire 1 K RCD[1]~output_o $end
$var wire 1 L RCD[2]~output_o $end
$var wire 1 M RCD[3]~output_o $end
$var wire 1 N RAB[0]~output_o $end
$var wire 1 O RAB[1]~output_o $end
$var wire 1 P RAB[2]~output_o $end
$var wire 1 Q RAB[3]~output_o $end
$var wire 1 R RM1[0]~output_o $end
$var wire 1 S RM1[1]~output_o $end
$var wire 1 T RM1[2]~output_o $end
$var wire 1 U RM1[3]~output_o $end
$var wire 1 V RM1[4]~output_o $end
$var wire 1 W RM1[5]~output_o $end
$var wire 1 X RM1[6]~output_o $end
$var wire 1 Y RM1[7]~output_o $end
$var wire 1 Z RM2[0]~output_o $end
$var wire 1 [ RM2[1]~output_o $end
$var wire 1 \ RM2[2]~output_o $end
$var wire 1 ] RM2[3]~output_o $end
$var wire 1 ^ RM2[4]~output_o $end
$var wire 1 _ RM2[5]~output_o $end
$var wire 1 ` RM2[6]~output_o $end
$var wire 1 a RM2[7]~output_o $end
$var wire 1 b S[0]~output_o $end
$var wire 1 c S[1]~output_o $end
$var wire 1 d S[2]~output_o $end
$var wire 1 e S[3]~output_o $end
$var wire 1 f C0~output_o $end
$var wire 1 g R1~output_o $end
$var wire 1 h R2~output_o $end
$var wire 1 i D[0]~input_o $end
$var wire 1 j C[0]~input_o $end
$var wire 1 k Add0~0_combout $end
$var wire 1 l D[1]~input_o $end
$var wire 1 m C[1]~input_o $end
$var wire 1 n Add0~1 $end
$var wire 1 o Add0~2_combout $end
$var wire 1 p D[2]~input_o $end
$var wire 1 q C[2]~input_o $end
$var wire 1 r Add0~3 $end
$var wire 1 s Add0~4_combout $end
$var wire 1 t C[3]~input_o $end
$var wire 1 u D[3]~input_o $end
$var wire 1 v Add0~5 $end
$var wire 1 w Add0~6_combout $end
$var wire 1 x B[0]~input_o $end
$var wire 1 y A[0]~input_o $end
$var wire 1 z Add1~0_combout $end
$var wire 1 { B[1]~input_o $end
$var wire 1 | A[1]~input_o $end
$var wire 1 } Add1~1 $end
$var wire 1 ~ Add1~2_combout $end
$var wire 1 !! A[2]~input_o $end
$var wire 1 "! B[2]~input_o $end
$var wire 1 #! Add1~3 $end
$var wire 1 $! Add1~4_combout $end
$var wire 1 %! B[3]~input_o $end
$var wire 1 &! A[3]~input_o $end
$var wire 1 '! Add1~5 $end
$var wire 1 (! Add1~6_combout $end
$var wire 1 )! Mult0|auto_generated|op_3~0_combout $end
$var wire 1 *! Mult0|auto_generated|op_3~1 $end
$var wire 1 +! Mult0|auto_generated|op_3~2_combout $end
$var wire 1 ,! Mult0|auto_generated|op_1~0_combout $end
$var wire 1 -! Mult0|auto_generated|op_3~3 $end
$var wire 1 .! Mult0|auto_generated|op_3~4_combout $end
$var wire 1 /! Mult0|auto_generated|cs2a[1]~0_combout $end
$var wire 1 0! Mult0|auto_generated|op_1~1 $end
$var wire 1 1! Mult0|auto_generated|op_1~2_combout $end
$var wire 1 2! Mult0|auto_generated|op_3~5 $end
$var wire 1 3! Mult0|auto_generated|op_3~6_combout $end
$var wire 1 4! Mult0|auto_generated|op_1~3 $end
$var wire 1 5! Mult0|auto_generated|op_1~4_combout $end
$var wire 1 6! Mult0|auto_generated|op_3~7 $end
$var wire 1 7! Mult0|auto_generated|op_3~8_combout $end
$var wire 1 8! Mult0|auto_generated|op_1~5 $end
$var wire 1 9! Mult0|auto_generated|op_1~6_combout $end
$var wire 1 :! Mult0|auto_generated|op_3~9 $end
$var wire 1 ;! Mult0|auto_generated|op_3~10_combout $end
$var wire 1 <! Mult0|auto_generated|op_1~7 $end
$var wire 1 =! Mult0|auto_generated|op_1~8_combout $end
$var wire 1 >! Mult0|auto_generated|op_3~11 $end
$var wire 1 ?! Mult0|auto_generated|op_3~12_combout $end
$var wire 1 @! Mult0|auto_generated|op_1~9 $end
$var wire 1 A! Mult0|auto_generated|op_1~10_combout $end
$var wire 1 B! Mult0|auto_generated|op_3~13 $end
$var wire 1 C! Mult0|auto_generated|op_3~14_combout $end
$var wire 1 D! Mult1|auto_generated|add6_result[0]~0_combout $end
$var wire 1 E! Mult1|auto_generated|add6_result[0]~1 $end
$var wire 1 F! Mult1|auto_generated|add6_result[1]~2_combout $end
$var wire 1 G! Mult1|auto_generated|cs3a[1]~0_combout $end
$var wire 1 H! Mult1|auto_generated|add10_result[0]~0_combout $end
$var wire 1 I! Mult1|auto_generated|add6_result[1]~3 $end
$var wire 1 J! Mult1|auto_generated|add6_result[2]~4_combout $end
$var wire 1 K! Mult1|auto_generated|add10_result[0]~1 $end
$var wire 1 L! Mult1|auto_generated|add10_result[1]~2_combout $end
$var wire 1 M! Mult1|auto_generated|add6_result[2]~5 $end
$var wire 1 N! Mult1|auto_generated|add6_result[3]~6_combout $end
$var wire 1 O! Mult1|auto_generated|add10_result[1]~3 $end
$var wire 1 P! Mult1|auto_generated|add10_result[2]~4_combout $end
$var wire 1 Q! Mult1|auto_generated|add6_result[3]~7 $end
$var wire 1 R! Mult1|auto_generated|add6_result[4]~8_combout $end
$var wire 1 S! Mult1|auto_generated|add10_result[2]~5 $end
$var wire 1 T! Mult1|auto_generated|add10_result[3]~6_combout $end
$var wire 1 U! Mult1|auto_generated|add6_result[4]~9 $end
$var wire 1 V! Mult1|auto_generated|add6_result[5]~10_combout $end
$var wire 1 W! Mult1|auto_generated|add10_result[3]~7 $end
$var wire 1 X! Mult1|auto_generated|add10_result[4]~8_combout $end
$var wire 1 Y! Mult1|auto_generated|add6_result[5]~11 $end
$var wire 1 Z! Mult1|auto_generated|add6_result[6]~12_combout $end
$var wire 1 [! Mult1|auto_generated|add6_result[6]~13 $end
$var wire 1 \! Mult1|auto_generated|add6_result[7]~14_combout $end
$var wire 1 ]! Add2~0_combout $end
$var wire 1 ^! Add2~1 $end
$var wire 1 _! Add2~2_combout $end
$var wire 1 `! Add2~3 $end
$var wire 1 a! Add2~4_combout $end
$var wire 1 b! Add2~5 $end
$var wire 1 c! Add2~6_combout $end
$var wire 1 d! Add2~7 $end
$var wire 1 e! Add2~8_combout $end
$var wire 1 f! LessThan0~0_combout $end
$var wire 1 g! LessThan0~1_combout $end
$var wire 1 h! LessThan0~2_combout $end
$var wire 1 i! LessThan1~0_combout $end
$var wire 1 j! LessThan1~1_combout $end
$var wire 1 k! LessThan1~2_combout $end
$var wire 1 l! Mult1|auto_generated|le5a [4] $end
$var wire 1 m! Mult1|auto_generated|le5a [3] $end
$var wire 1 n! Mult1|auto_generated|le5a [2] $end
$var wire 1 o! Mult1|auto_generated|le5a [1] $end
$var wire 1 p! Mult1|auto_generated|le5a [0] $end
$var wire 1 q! Mult0|auto_generated|le4a [5] $end
$var wire 1 r! Mult0|auto_generated|le4a [4] $end
$var wire 1 s! Mult0|auto_generated|le4a [3] $end
$var wire 1 t! Mult0|auto_generated|le4a [2] $end
$var wire 1 u! Mult0|auto_generated|le4a [1] $end
$var wire 1 v! Mult0|auto_generated|le4a [0] $end
$var wire 1 w! Mult1|auto_generated|le4a [4] $end
$var wire 1 x! Mult1|auto_generated|le4a [3] $end
$var wire 1 y! Mult1|auto_generated|le4a [2] $end
$var wire 1 z! Mult1|auto_generated|le4a [1] $end
$var wire 1 {! Mult1|auto_generated|le4a [0] $end
$var wire 1 |! Mult0|auto_generated|le3a [5] $end
$var wire 1 }! Mult0|auto_generated|le3a [4] $end
$var wire 1 ~! Mult0|auto_generated|le3a [3] $end
$var wire 1 !" Mult0|auto_generated|le3a [2] $end
$var wire 1 "" Mult0|auto_generated|le3a [1] $end
$var wire 1 #" Mult0|auto_generated|le3a [0] $end
$var wire 1 $" Mult0|auto_generated|le5a [4] $end
$var wire 1 %" Mult0|auto_generated|le5a [3] $end
$var wire 1 &" Mult0|auto_generated|le5a [2] $end
$var wire 1 '" Mult0|auto_generated|le5a [1] $end
$var wire 1 (" Mult0|auto_generated|le5a [0] $end
$var wire 1 )" Mult1|auto_generated|le2a [4] $end
$var wire 1 *" Mult1|auto_generated|le2a [3] $end
$var wire 1 +" Mult1|auto_generated|le2a [2] $end
$var wire 1 ," Mult1|auto_generated|le2a [1] $end
$var wire 1 -" Mult1|auto_generated|le2a [0] $end
$upscope $end
$upscope $end
$enddefinitions $end
#0
$dumpvars
b10 !
b100 "
b10 #
b100 $
x%
x&
x'
x+
x*
x)
x(
x/
x.
x-
x,
x7
x6
x5
x4
x3
x2
x1
x0
x?
x>
x=
x<
x;
x:
x9
x8
xC
xB
xA
x@
0D
1E
xF
1G
1H
1I
xJ
xK
xL
xM
xN
xO
xP
xQ
xR
xS
xT
xU
xV
xW
xX
xY
xZ
x[
x\
x]
x^
x_
x`
xa
xb
xc
xd
xe
xf
xg
xh
0i
0j
xk
0l
1m
xn
xo
1p
0q
xr
xs
0t
0u
xv
xw
0x
0y
xz
0{
1|
x}
x~
0!!
1"!
x#!
x$!
0%!
0&!
x'!
x(!
x)!
x*!
x+!
x,!
x-!
x.!
x/!
x0!
x1!
x2!
x3!
x4!
x5!
x6!
x7!
x8!
x9!
x:!
x;!
x<!
x=!
x>!
x?!
x@!
xA!
xB!
xC!
xD!
xE!
xF!
xG!
xH!
xI!
xJ!
xK!
xL!
xM!
xN!
xO!
xP!
xQ!
xR!
xS!
xT!
xU!
xV!
xW!
xX!
xY!
xZ!
x[!
x\!
x]!
x^!
x_!
x`!
xa!
xb!
xc!
xd!
xe!
xf!
xg!
xh!
xi!
xj!
xk!
xp!
xo!
xn!
xm!
xl!
xv!
xu!
xt!
xs!
xr!
xq!
x{!
xz!
xy!
xx!
xw!
x#"
x""
x!"
x~!
x}!
x|!
x("
x'"
x&"
x%"
z$"
x-"
x,"
x+"
x*"
x)"
$end
#4039
0|!
#4095
0~!
#4098
0!"
#4099
0}!
#4149
0%"
#4217
1G!
#4321
0&"
#4323
0("
#4337
0""
#4355
0*!
#4428
1-!
#4467
0n
0]!
#4478
0#"
#4511
1^!
#4512
0`!
#4514
0-"
#4532
0+"
#4534
0,"
#4536
0)"
#4539
0*"
#4540
1r
#4599
1g!
#4613
0v
#4639
0b!
#4640
0f!
#4681
0E!
#4684
0n!
0j!
#4696
1/!
#4706
0k
#4712
1d!
#4747
0l!
#4754
1I!
#4794
0o!
#4804
0K!
#4813
0}
#4826
0p!
#4848
1i!
#4877
1O!
#4886
1#!
#4900
0m!
#4913
0'"
#4951
0w!
#4959
0'!
#5033
1z!
#5074
1o
#5097
0r!
0k!
#5117
0q!
#5118
1_!
#5119
1a!
#5130
0v!
#5135
0w
#5147
1s
#5173
0z
#5246
1c!
#5252
00!
#5296
0{!
#5307
0+!
#5314
0y!
#5319
1e!
0x!
#5351
1h!
#5353
14!
#5420
1~
#5426
08!
#5493
1$!
#5499
1<!
#5536
0(!
#5572
0@!
#5668
0H!
#5700
0P!
#5720
0)!
#5757
0D!
#5775
0F!
#5778
1S!
#5829
01!
#5851
0W!
#5883
0L!
#6011
0t!
#6028
02!
#6033
1u!
#6204
0M!
#6258
0=!
#6277
1Q!
#6349
1A!
#6355
0T!
#6362
0,!
#6378
0s!
#6427
0J!
#6434
0U!
#6458
1X!
#6507
1Y!
#6701
16!
#6774
0:!
#6811
1N!
#6847
1>!
#6854
0R!
#6990
0B!
#7121
0.!
#7159
0V!
#7215
0Z!
#7221
05!
#7295
1[!
#7379
13!
#7424
0?!
#7567
0C!
#7606
09!
#7872
0\!
#8137
07!
#8571
0;!
#9092
1L
1-
#9206
0b
0C
#9468
1c
1B
#9503
0M
0,
#9723
0S
06
#9730
0R
07
#9772
0N
0+
#9886
1P
1)
#9906
1K
1.
#9907
1g
1&
#9917
0Q
0(
#10250
1O
1*
#10520
1e
1@
#10574
1d
1A
#10585
0Z
0?
#10743
0[
0>
#10758
1f
1%
#10826
0J
0/
#11206
0^
0;
#11415
0\
0=
#11455
0h
0'
#11494
0T
05
#11857
0`
09
#11905
0X
01
#11973
0Y
00
#12007
1]
1<
#12029
0_
0:
#12171
0V
03
#12228
1U
14
#12455
0a
08
#14714
0W
02
#10000000
b11 !
b101 "
b11 #
b101 $
#10000764
1y
1x
1i
#10000766
1j
#10004880
1v!
#10004980
1""
#10004981
1#"
#10005016
1{!
#10005393
1n
#10005399
1o!
#10005400
1p!
#10005466
0r
#10005539
1v
#10005846
1.!
#10005848
1}
#10005921
0#!
#10005938
1+!
#10005970
0o
#10005986
1J!
#10005994
1'!
#10006043
0s
#10006146
1w
#10006286
1)!
#10006343
1D!
#10006401
1F!
#10006425
0~
#10006498
0$!
#10006601
1(!
#10009867
0L
0-
#10010392
1T
15
#10010460
1R
17
#10010563
0K
0.
#10010572
1S
16
#10010715
1M
1,
#10010732
0P
0)
#10011026
0O
0*
#10011178
1Q
1(
#10011249
1\
1=
#10011377
1Z
1?
#10011613
1[
1>
#20000000
b111 !
b101 !
b111 "
b111 #
b101 #
b111 $
b100 !
b110 "
b100 #
b110 $
#20000764
1!!
1q
#20000766
1{
1l
#20000811
0y
0x
0m
0i
#20000812
0|
0j
#20002366
0z!
#20002370
0i!
#20002372
0o!
#20002967
1~
#20003038
1#!
#20003111
0'!
#20003338
0N!
#20003353
0F!
#20003645
1$!
#20003688
0(!
#20004447
1t!
#20004650
0a!
#20004664
1|!
#20004683
0/!
#20004690
0g!
#20004706
1~!
#20004710
1}!
#20004724
0G!
#20004742
1b!
#20004815
0d!
#20004819
0#"
#20004822
1q!
#20004824
1r!
#20004826
1&"
#20004877
1s
#20004940
1'"
#20005021
0)!
#20005031
1o
#20005041
1,"
#20005065
0_!
#20005098
1C!
#20005113
1*!
#20005184
1*"
#20005186
0-!
#20005241
0~!
#20005259
12!
#20005272
0{!
#20005279
0n
#20005289
1#"
#20005319
0c!
#20005332
06!
#20005335
0D!
#20005352
1r
#20005359
0#!
#20005392
0e!
#20005411
1o!
#20005413
1m!
#20005414
1l!
#20005415
1E!
#20005434
0~
1?!
#20005447
0h!
#20005455
1;!
#20005459
1z!
#20005468
0t!
#20005482
1'!
#20005506
0u!
#20005516
1!"
#20005542
0'"
#20005554
1_!
#20005597
0,"
#20005600
1f!
#20005606
0m!
#20005624
0}
#20005630
1n!
#20005645
1`!
#20005690
0+!
#20005697
1#!
#20005718
0b!
#20005763
0.!
#20005790
1u!
1t!
#20005791
1d!
#20005836
03!
#20005924
19!
#20005929
0s
#20005938
1x!
#20005939
17!
#20006012
0z!
#20006017
1g!
#20006033
18!
#20006089
1(!
#20006109
1,!
#20006146
0A!
#20006180
1@!
#20006217
0J!
#20006231
1~
#20006252
1a!
#20006274
0$!
#20006317
0S!
#20006325
1c!
#20006368
0I!
#20006369
1P!
#20006390
1W!
#20006398
1e!
#20006433
1N!
#20006626
1H!
#20006769
1h!
#20006787
1A!
#20006807
0,!
#20006836
0>!
#20006863
1.!
#20006899
10!
#20006909
1B!
#20006911
0;!
#20006924
1T!
#20006967
0X!
#20006984
0N!
#20007125
1R!
#20007413
0?!
#20007473
1M!
#20007506
11!
#20007564
0C!
#20007566
0.!
#20007627
0Y!
#20007797
1O
1*
#20008080
1N!
#20008259
0]
0<
#20008282
13!
#20008321
0[
0>
#20009031
0R
07
#20009863
1K
1.
#20010106
0S
06
#20010133
1V
13
#20010163
0Z
0?
#20011205
0\
0=
#20011669
1^
1;
#20011939
0T
05
#20013276
1]
1<
#30000000
b101 !
b111 "
b101 #
b111 $
#30000764
1y
1x
1i
#30000766
1j
#30004786
0!"
#30004832
0u!
#30004880
1("
#30004959
0#"
#30004961
1~!
#30005317
1,"
#30005378
0p!
#30005380
0n!
#30005393
1n
#30005400
1m!
#30005466
0r
#30005735
1z!
#30005830
07!
#30005848
1}
#30005921
0#!
#30005929
1:!
#30005940
00!
#30005970
0o
#30005973
1,!
#30006073
1s
#30006092
03!
#30006145
0*!
#30006177
1)!
#30006218
1-!
#30006257
0E!
#30006290
1D!
#30006330
1I!
#30006364
0H!
#30006403
0M!
#30006404
1L!
#30006425
0~
#30006528
1$!
#30006536
1;!
#30006752
1+!
#30006864
1F!
#30007107
0Q!
#30007180
1U!
#30007182
0N!
#30007684
0R!
#30007787
1V!
#30009864
0V
03
#30010018
1L
1-
#30010351
1R
17
#30010563
0K
0.
#30010695
0U
04
#30010921
1P
1)
#30011026
0O
0*
#30011324
1Z
1?
#30011386
1S
16
#30012036
0^
0;
#30012076
1[
1>
#30012103
0]
0<
#30012711
1W
12
#30012835
1_
1:
#40000000
b1111 "
b1011 "
b1111 $
b1011 $
b111 !
b1001 "
b111 #
b1001 $
b110 !
b1000 "
b110 #
b1000 $
#40000764
1%!
1u
1m
#40000766
1|
#40000811
0x
0p
0i
0y
#40000812
0"!
0{
0l
0j
#40002247
0o!
#40002405
0,"
#40002420
1G!
#40002538
0$!
#40002557
1j!
#40002573
0*"
#40002815
1~
#40002888
1y!
#40002974
1k!
#40003228
0F!
#40003231
1{!
#40003353
0x!
#40003909
1R!
#40004201
1J!
#40004575
0V!
#40004851
0|!
#40004907
0~!
#40004911
0}!
#40004928
1/!
#40005007
0G!
#40005076
0r!
#40005077
0q!
#40005082
0&"
#40005090
1u!
#40005135
0("
0v!
#40005148
0""
#40005164
1)"
#40005166
1-"
#40005219
0)!
#40005224
0`!
#40005269
0t!
#40005273
0c!
#40005279
0n
#40005297
1b!
#40005317
1C!
#40005334
1H!
#40005352
1r
#40005404
0f!
#40005405
0(!
#40005425
0v
#40005459
0y!
#40005499
1'"
#40005542
0z!
#40005549
0D!
#40005582
1w!
#40005598
1,"
#40005605
0B!
#40005624
0}
#40005648
0m!
#40005650
0l!
#40005656
1?!
#40005660
1i!
#40005668
1&"
#40005676
0g!
#40005679
0;!
#40005693
1v!
1q!
#40005694
1r!
#40005697
1#!
#40005719
0u!
#40005740
0/!
#40005770
0'!
#40005886
1o
#40005887
1s!
#40005904
1c!
#40006014
08!
#40006016
1z!
#40006033
02!
#40006040
0:!
#40006068
0J!
#40006087
01!
#40006088
1.!
#40006095
17!
#40006106
16!
#40006113
1>!
#40006118
0+!
#40006181
1M!
#40006182
0C!
#40006304
1$!
#40006377
1(!
#40006418
0R!
#40006544
1u!
#40006549
0[!
#40006601
1Z!
#40006603
0P!
#40006631
0L!
#40006641
0.!
#40006647
1;!
#40006681
1S!
#40006683
07!
#40006690
0?!
#40006691
0s!
#40006740
12!
#40006754
0W!
#40006772
0P
0)
#40006788
1N!
#40007156
1\!
#40007258
0T!
#40007337
0U!
#40007347
13!
#40007361
1X!
#40007392
1R!
#40007410
1Y!
#40007435
0N!
#40007645
1O
1*
#40007825
06!
#40007900
03!
#40008196
0[
0>
#40008432
17!
#40008453
1^
1;
#40009229
0R
07
#40009445
0_
0:
#40009491
1h
1'
#40010377
0Z
0?
#40010534
0S
06
#40010697
1P
1)
#40010718
1K
1.
#40011496
1`
19
#40011893
1a
18
#40012626
1V
13
#50000000
b111 !
b1001 "
b111 #
b1001 $
#50000764
1y
1x
1i
#50000766
1j
#50004797
1!"
#50004832
0u!
#50004880
1("
#50004980
1""
#50004981
1#"
#50005316
0,"
#50005393
1n
#50005399
1o!
#50005400
1p!
#50005402
1n!
#50005466
0r
#50005539
1v
#50005731
0z!
#50005830
07!
#50005848
1}
#50005921
0#!
#50005929
1:!
#50005938
1+!
#50005970
0o
#50005994
1'!
#50006002
0>!
#50006043
0s
#50006082
13!
#50006088
0,!
#50006116
0w
#50006153
16!
#50006180
10!
#50006226
0:!
#50006286
1)!
#50006299
1>!
#50006343
1D!
#50006401
1F!
#50006422
0H!
#50006425
0~
#50006498
0$!
#50006502
1K!
#50006571
0(!
#50006693
1N!
#50006760
17!
#50006764
1Q!
#50006787
11!
#50006816
02!
#50006867
1.!
#50007109
1L!
#50007150
0M!
#50007201
1J!
#50007341
0R!
#50009867
0L
0-
#50010460
1R
17
#50010484
0M
0,
#50010563
0K
0.
#50010572
1S
16
#50010732
0P
0)
#50010931
1U
14
#50010952
0Q
0(
#50011026
0O
0*
#50011377
1Z
1?
#50011413
1T
15
#50011613
1[
1>
#50011693
0^
0;
#50011889
1]
1<
#50012464
1\
1=
#60000000
b1111 !
b1111 #
b1011 !
b1011 #
b1001 !
b1011 "
b1001 #
b1011 $
b1000 !
b1010 "
b1000 #
b1010 $
#60000764
1t
#60000766
1&!
1{
1l
#60000811
0!!
0y
0q
0m
0x
0i
#60000812
0|
0j
#60002370
0i!
#60002372
0o!
#60002379
1+"
#60002967
1~
#60003038
1#!
#60003111
0'!
#60003134
1y!
#60003353
0F!
#60003645
1$!
#60003718
1(!
#60004155
1R!
#60004650
1%"
#60004664
1|!
#60004685
1w
#60004692
0h!
#60004705
1/!
#60004710
1}!
#60004742
1s!
#60004746
1G!
#60004819
0#"
#60004884
0d!
#60004933
0a!
#60004952
0c!
#60005021
0)!
#60005031
1o
#60005034
0-"
#60005038
0!"
#60005039
0}!
#60005044
0v
#60005054
0+"
#60005057
0)"
#60005065
0_!
#60005067
0(!
#60005095
1s
#60005098
1C!
#60005113
1*!
#60005132
0&"
#60005135
0("
#60005186
0-!
#60005216
1x!
#60005217
1~!
#60005259
12!
#60005279
0n
#60005289
1#"
#60005332
06!
#60005335
0D!
#60005352
1r
#60005359
0#!
#60005382
0>!
#60005405
1:!
#60005411
1o!
#60005415
1E!
#60005434
0~
#60005455
1B!
#60005461
0e!
#60005472
0w!
#60005477
1t!
#60005495
0j!
#60005516
1!"
#60005534
1z!
#60005542
0'"
#60005544
1u!
#60005554
1_!
#60005572
0x!
#60005600
1f!
#60005621
0w
#60005624
0}
#60005628
1m!
#60005645
1`!
#60005678
0s!
#60005685
0A!
#60005690
0+!
#60005697
1#!
#60005718
0b!
#60005763
0.!
#60005791
1d!
#60005836
03!
#60005908
0k!
#60005929
0s
#60005978
0<!
#60006017
1g!
#60006040
0:!
#60006231
1~
#60006252
1a!
#60006274
0$!
#60006325
1c!
#60006368
0I!
#60006391
04!
#60006398
1e!
#60006441
1M!
#60006443
0Q!
#60006457
01!
#60006464
18!
0Z!
#60006516
1U!
#60006540
1[!
#60006577
1<!
#60006587
0O!
#60006617
0;!
#60006650
0@!
#60006652
0L!
#60006769
1h!
#60006945
0J!
#60007020
0R!
#60007117
0\!
#60007123
1V!
#60007184
1=!
#60007194
1P!
#60007257
1A!
#60007456
0N!
#60007797
1O
1*
#60007939
1?!
#60007950
1R!
#60008034
0C!
#60008321
0[
0>
#60008699
1^
1;
#60009031
0R
07
#60009863
1K
1.
#60010106
0S
06
#60010136
0T
05
#60010163
0Z
0?
#60010439
0U
04
#60011106
0`
09
#60011700
0a
08
#60011933
0\
0=
#60012171
1_
1:
#60012266
0h
0'
#60012377
0]
0<
#60012564
1X
11
#60012760
0W
02
#70000000
b1001 !
b1011 "
b1001 #
b1011 $
#70000764
1y
1x
1i
#70000766
1j
#70004795
1}!
#70004869
0v!
#70004880
1("
#70004959
0#"
#70004985
0~!
#70004994
0{!
#70005378
0p!
0m!
#70005393
1n
#70005466
0r
#70005767
02!
#70005822
1.!
#70005830
07!
#70005840
16!
#70005848
1}
#70005902
0M!
#70005921
0#!
#70005957
1J!
#70005970
0o
#70005975
1Q!
#70006025
15!
#70006073
1s
#70006145
0*!
#70006151
11!
#70006177
1)!
#70006218
1-!
#70006243
14!
#70006257
0E!
#70006290
1D!
#70006330
1I!
#70006341
1L!
#70006374
13!
#70006425
0~
#70006432
1O!
#70006447
17!
#70006509
1N!
#70006528
1$!
#70006552
0R!
#70006752
1+!
#70006795
0.!
#70006820
05!
#70006854
06!
#70006864
1F!
#70006907
0J!
#70006929
03!
#70007009
0P!
#70007044
0Q!
#70007072
1:!
#70007119
0N!
#70007679
1;!
#70007736
07!
#70010018
1L
1-
#70010351
1R
17
#70010563
0K
0.
#70010904
0^
0;
#70010921
1P
1)
#70011026
0O
0*
#70011324
1Z
1?
#70011386
1S
16
#70011770
0V
03
#70012076
1[
1>
#70013854
1W
12
#80000000
b1111 "
b1111 $
b1011 !
b1101 "
b1011 #
b1101 $
b1010 !
b1100 "
b1010 #
b1100 $
#80000764
1p
1m
#80000766
1"!
1|
#80000811
0x
0i
0y
#80000812
0{
0l
0j
#80002237
0z!
#80002247
0o!
#80002287
0G!
#80002295
1,"
#80002297
1-"
#80002409
0$!
#80002444
1+"
#80002447
1)"
#80002449
1*"
#80002522
1'!
#80002713
1z!
#80002815
1~
#80002865
1w!
#80003052
1{!
#80003129
1(!
#80003203
1x!
#80003228
0F!
#80003832
0[!
#80003884
1Z!
#80004022
1J!
#80004432
0Y!
#80004439
1\!
#80004505
1[!
#80004507
0V!
#80004851
0|!
#80004906
0/!
#80004910
0!"
#80005009
0Z!
#80005029
1G!
#80005039
0}!
#80005082
0\!
#80005135
0("
#80005146
1v!
#80005148
0""
#80005219
0)!
#80005224
0`!
#80005279
0n
#80005317
1C!
#80005326
0-"
#80005339
0s
#80005344
0+"
#80005346
0,"
#80005348
0)"
#80005351
0*"
#80005352
1r
#80005363
1'"
#80005404
0f!
#80005460
1/!
#80005549
0D!
#80005624
0}
#80005632
0n!
#80005636
0?!
#80005660
1i!
#80005679
0;!
#80005691
0t!
#80005697
1#!
#80005761
0z!
#80005763
0w!
#80005770
0'!
#80005843
1s!
#80005886
1o
#80005959
1s
#80006040
0:!
#80006064
00!
#80006095
17!
#80006097
1,!
#80006112
1.!
#80006113
1>!
#80006118
0+!
#80006131
0x!
#80006142
08!
#80006186
0B!
#80006193
15!
#80006232
1t!
#80006251
0u!
#80006304
1$!
#80006347
0(!
#80006433
0s!
#80006560
0K!
#80006592
1H!
#80006641
01!
#80006643
0P
0)
#80006647
1;!
#80006720
1?!
#80006723
1N!
#80006739
1Z!
#80006763
0C!
#80006794
1Q!
#80006831
0.!
#80006867
0U!
#80006944
12!
#80007127
07!
#80007137
0L!
#80007240
1:!
#80007313
0>!
#80007326
0J!
#80007386
1B!
#80007401
1R!
#80007414
1Y!
#80007439
1M!
#80007501
13!
#80007572
16!
#80007645
0:!
1O
1*
#80007718
1>!
#80007791
0B!
#80007991
0Z!
#80008179
17!
#80008196
0[
0>
#80009229
0R
07
#80009377
0_
0:
#80010377
0Z
0?
#80010534
0S
06
#80010697
1P
1)
#80010718
1K
1.
#80011919
1]
1<
#80011945
1^
1;
#80012350
1U
14
#80012373
1V
13
#90000000
b1011 !
b1101 "
b1011 #
b1101 $
#90000764
1y
1x
1i
#90000766
1j
#90004869
0v!
#90004880
1("
#90004961
1~!
#90004980
1""
#90004981
1#"
#90004994
0{!
#90005393
1n
#90005399
1o!
#90005400
1p!
1m!
#90005401
1l!
#90005466
0r
#90005539
1v
#90005767
02!
#90005822
1.!
#90005830
07!
#90005848
1}
#90005902
0M!
#90005921
0#!
#90005929
1:!
#90005938
1+!
#90005957
1J!
#90005970
0o
#90005994
1'!
#90006002
0>!
#90006043
0s
#90006075
1B!
#90006146
1w
#90006187
11!
#90006286
1)!
#90006304
0S!
#90006343
1D!
#90006344
03!
#90006356
1P!
#90006377
1W!
#90006401
1F!
#90006404
1L!
#90006425
0~
#90006479
0N!
#90006498
0$!
#90006506
0;!
#90006579
0?!
#90006601
1(!
#90006682
1C!
#90006911
1T!
#90006954
0X!
#90006963
13!
#90007094
0R!
#90007180
1N!
#90007193
1U!
#90007266
0Y!
#90009864
0V
03
#90009867
0L
0-
#90010368
1T
15
#90010460
1R
17
#90010563
0K
0.
#90010572
1S
16
#90010715
1M
1,
#90010732
0P
0)
#90011026
0O
0*
#90011060
0X
01
#90011178
1Q
1(
#90011220
1\
1=
#90011295
1Y
10
#90011377
1Z
1?
#90011446
0^
0;
#90011613
1[
1>
#90012649
0W
02
