chp3.17/simulation/qsim/MULT4B_repeat.msim.vcd
$comment
	File created using the following command:
		vcd file MULT4B_repeat.msim.vcd -direction
$end
$date
	Mon Mar 29 22:57:55 2021
$end
$version
	ModelSim Version 10.5b
$end
$timescale
	1ps
$end

$scope module MULT4B_repeat_vlg_vec_tst $end
$var reg 4 ! A [4:1] $end
$var reg 4 " B [4:1] $end
$var wire 1 # R [8] $end
$var wire 1 $ R [7] $end
$var wire 1 % R [6] $end
$var wire 1 & R [5] $end
$var wire 1 ' R [4] $end
$var wire 1 ( R [3] $end
$var wire 1 ) R [2] $end
$var wire 1 * R [1] $end

$scope module i1 $end
$var wire 1 + gnd $end
$var wire 1 , vcc $end
$var wire 1 - unknown $end
$var tri1 1 . devclrn $end
$var tri1 1 / devpor $end
$var tri1 1 0 devoe $end
$var wire 1 1 R[1]~output_o $end
$var wire 1 2 R[2]~output_o $end
$var wire 1 3 R[3]~output_o $end
$var wire 1 4 R[4]~output_o $end
$var wire 1 5 R[5]~output_o $end
$var wire 1 6 R[6]~output_o $end
$var wire 1 7 R[7]~output_o $end
$var wire 1 8 R[8]~output_o $end
$var wire 1 9 A[1]~input_o $end
$var wire 1 : B[1]~input_o $end
$var wire 1 ; R~0_combout $end
$var wire 1 < B[2]~input_o $end
$var wire 1 = A[2]~input_o $end
$var wire 1 > R~1_combout $end
$var wire 1 ? Add0~6_combout $end
$var wire 1 @ Add0~18_combout $end
$var wire 1 A A[3]~input_o $end
$var wire 1 B R~2_combout $end
$var wire 1 C Add0~7 $end
$var wire 1 D Add0~8_combout $end
$var wire 1 E Add0~19_combout $end
$var wire 1 F Add1~4_combout $end
$var wire 1 G B[3]~input_o $end
$var wire 1 H Add1~6_combout $end
$var wire 1 I A[4]~input_o $end
$var wire 1 J R~3_combout $end
$var wire 1 K Add0~9 $end
$var wire 1 L Add0~10_combout $end
$var wire 1 M Add0~20_combout $end
$var wire 1 N Add1~5 $end
$var wire 1 O Add1~7_combout $end
$var wire 1 P Add1~9_combout $end
$var wire 1 Q Add2~2_combout $end
$var wire 1 R B[4]~input_o $end
$var wire 1 S Add2~4_combout $end
$var wire 1 T Add0~11 $end
$var wire 1 U Add0~12_combout $end
$var wire 1 V Add0~14_combout $end
$var wire 1 W Add1~8 $end
$var wire 1 X Add1~10_combout $end
$var wire 1 Y Add1~17_combout $end
$var wire 1 Z Add2~3 $end
$var wire 1 [ Add2~5_combout $end
$var wire 1 \ Add2~7_combout $end
$var wire 1 ] Add0~13 $end
$var wire 1 ^ Add0~15_combout $end
$var wire 1 _ Add0~17_combout $end
$var wire 1 ` Add1~11 $end
$var wire 1 a Add1~12_combout $end
$var wire 1 b Add1~18_combout $end
$var wire 1 c Add2~6 $end
$var wire 1 d Add2~8_combout $end
$var wire 1 e Add2~10_combout $end
$var wire 1 f Add1~13 $end
$var wire 1 g Add1~14_combout $end
$var wire 1 h Add1~16_combout $end
$var wire 1 i Add2~9 $end
$var wire 1 j Add2~11_combout $end
$var wire 1 k Add2~16_combout $end
$var wire 1 l Add2~12 $end
$var wire 1 m Add2~13_combout $end
$var wire 1 n Add2~15_combout $end
$upscope $end
$upscope $end
$enddefinitions $end
#0
$dumpvars
b1001 !
b0 "
x*
x)
x(
x'
x&
x%
x$
x#
0+
1,
x-
1.
1/
10
x1
x2
x3
x4
x5
x6
x7
x8
19
0:
x;
0<
0=
x>
x?
x@
0A
xB
xC
xD
xE
xF
0G
xH
1I
xJ
xK
xL
xM
xN
xO
xP
xQ
0R
xS
xT
xU
xV
xW
xX
xY
xZ
x[
x\
x]
x^
x_
x`
xa
xb
xc
xd
xe
xf
xg
xh
xi
xj
xk
xl
xm
xn
$end
#4562
0V
0_
#4751
0n
#4770
0>
#4875
0;
#4932
0@
#4944
0h
#5125
0B
#5148
0Y
#5166
0k
#5169
0b
#5193
0M
#5194
0J
#5352
0E
#5531
0C
#5559
1?
#5587
0\
#5611
1K
#5691
0T
#5712
0`
#5771
1]
#5792
1f
#5812
0e
#5816
0P
#5941
0i
#5952
0H
#6021
1l
#6090
1c
#6139
0N
#6144
1W
#6167
1F
#6175
0D
#6180
0L
#6260
0S
#6355
1U
#6376
1a
#6408
0^
#6429
0g
#6590
0Z
#6605
1j
#6618
1Q
#6658
0m
#6727
0d
#6776
0O
#6781
0X
#7227
0[
#8610
01
0*
#8850
08
0#
#9211
07
0$
#9232
02
0)
#9655
05
0&
#9896
06
0%
#10219
03
0(
#10329
04
0'
#10000000
b1101 !
b1 "
#10000791
1A
#10000811
1:
#10005297
1;
#10005450
1d
#10005598
1J
1M
#10005706
1X
#10005708
1L
#10005764
1E
#10005766
1B
#10006211
1P
#10006366
1H
#10006420
1O
#10006532
0L
#10006596
0F
#10006624
1T
#10006645
1S
#10006672
1N
#10006704
0]
#10006743
1D
#10006752
0W
#10006832
1`
#10006912
0f
#10007026
0Q
#10007102
1Z
#10007261
0U
#10007309
0O
#10007368
1^
#10007389
0X
#10007469
0a
#10007576
1g
#10007766
1[
#10009029
11
1*
#10010661
13
1(
#10010730
14
1'
#20000000
b101 !
b11 "
b1 !
b10 "
#20000801
1<
#20000811
0A
#20000831
0I
0:
#20004937
1b
1_
#20005358
1@
#20005381
0M
#20005529
1e
#20005706
0;
#20005936
0B
#20005949
0j
#20006004
0P
#20006025
0J
#20006071
0`
#20006073
0T
#20006109
1X
#20006111
1L
#20006151
1f
#20006252
1O
#20006278
1]
#20006332
1W
#20006448
0S
#20006532
1M
#20006735
1a
#20006778
0Z
#20006788
0g
#20006806
1Q
#20006915
0^
#20006969
0X
#20006986
0D
#20007011
0L
#20007145
1P
#20007270
0W
#20007370
0O
#20007415
0[
#20007435
0M
#20007516
0_
#20007579
1S
#20007610
0E
#20007875
0b
#20007934
1X
#20007960
0Q
#20008036
1Z
#20008058
0P
#20008210
0H
#20008306
1O
#20008386
1W
#20008397
0N
#20008425
1F
#20008502
0S
#20008518
0e
#20008554
0a
#20008700
1[
#20008712
0d
#20008832
0Z
#20008860
1Q
#20009023
0X
#20009034
0O
#20009441
01
0*
#20009469
0[
#20009682
12
1)
#20012477
03
0(
#20012571
04
0'
#30000000
b11 !
b1011 !
b11 "
#30000791
1=
#30000811
1I
1:
#30005126
1[
#30005297
1;
#30005385
1O
#30005387
1D
#30005521
1j
#30005728
1J
#30005767
1U
1>
#30005792
1a
#30005961
1E
#30006374
1V
#30006376
1Y
#30006563
1H
#30006570
0?
#30006634
1L
#30006646
1C
#30006726
0K
#30006793
0F
#30006806
1T
1\
#30006869
1N
#30006886
0]
#30006949
0W
#30006992
0@
#30007055
1M
#30007095
0c
#30007194
0[
#30007283
0D
#30007363
0L
#30007443
0U
#30007550
1^
#30007665
1`
#30007668
1P
#30007745
0f
#30007759
1d
#30007787
0M
#30007907
0E
#30008060
0V
#30008061
0Y
#30008102
1S
#30008144
1_
#30008302
0a
#30008409
1g
#30008410
0P
#30008457
1b
#30008483
0Q
#30008500
0\
#30008507
0H
#30008559
1Z
#30008674
0O
#30008694
0N
#30008722
1F
#30008774
1W
#30008854
0`
0S
#30009029
11
1*
#30009049
1e
#30009184
0Z
#30009212
1Q
#30009241
0d
#30009264
1c
#30009358
1O
#30009848
1[
#30009928
1d
#30011292
02
0)
#30013155
16
1%
#40000000
b1010 !
b111 "
b101 "
b1000 !
b0 !
b100 "
#40000791
1G
#40000811
0=
#40000821
0<
#40000831
0I
0:
#40000851
09
#40005324
1h
#40005325
1k
#40005375
0b
#40005383
0_
#40005495
1P
#40005509
1H
#40005580
0;
#40005581
0>
#40005584
0[
#40005810
1D
#40005819
0O
#40005892
1K
#40005929
1S
#40005972
0T
#40006018
0e
#40006025
0J
#40006061
0C
#40006166
0F
#40006212
0d
#40006278
1]
#40006282
1f
#40006636
0P
#40006698
0D
#40006915
0^
#40006919
0g
#40007080
0S
#40007166
0H
#40007504
0Q
#40007536
0h
#40007537
0k
#40008390
0j
#40009315
01
0*
#40010102
06
0%
#50000000
b100 !
b110 !
b101 "
#50000791
1A
1=
#50000811
1:
#50005126
1[
#50005385
1O
#50005387
1D
#50005450
1d
#50005584
1@
#50005706
1X
#50005708
1L
#50005764
1E
#50005766
1B
#50005767
1>
#50006140
1P
#50006458
1Y
#50006504
1?
#50006530
1F
#50006574
1S
#50006659
0K
#50006739
1T
#50006759
0D
#50006888
1\
#50006889
1Q
#50007177
0c
#50007257
1i
#50007276
0[
#50007296
0L
#50007403
1U
#50007439
1H
#50007814
0d
#50007921
1j
#50009908
12
1)
#50010659
14
1'
#50010978
15
1&
#50011734
13
1(
#60000000
b111 "
b110 "
#60000801
1<
#60000831
0:
#60004938
1V
#60004982
0E
#60005863
0F
#60006137
0X
#60006229
1`
#60006233
0>
0B
#60006863
0H
#60006893
1a
#60006951
0Y
#60007088
0?
#60007267
1D
#60007347
1K
#60007390
0\
#60007427
0T
#60007468
1b
#60007510
0@
#60007811
1[
#60007841
1E
#60007893
1c
#60008011
1L
#60008060
1e
#60008064
0U
#60008432
1M
#60008607
1F
#60008681
0V
#60009170
0W
#60009270
0O
#60009516
1H
#60010087
0P
#60010531
0S
#60010955
0Q
#60011458
05
0&
#60011810
02
0)
#60012166
16
1%
#60014600
04
0'
#70000000
b111 !
b11 !
b111 "
#70000811
0A
1:
#70000831
19
#70005297
1;
#70005474
1Q
#70005694
1?
#70005767
1>
#70005774
0F
#70005826
0i
#70005836
1N
#70005870
1d
#70006071
0`
#70006109
1X
#70006113
1@
#70006138
0L
#70006463
0j
#70006500
1O
#70006562
0M
#70006570
0?
#70006646
1C
#70006708
0a
#70006726
0K
#70006774
0H
#70006861
1Y
#70006992
0@
#70007255
1P
#70007283
0D
#70007290
0b
#70007291
1\
#70007390
1L
#70007449
0O
#70007580
0c
#70007679
0[
#70007689
1S
#70007811
1M
#70007907
0E
#70007933
0e
#70008070
0Q
#70008146
1Z
#70008266
0P
#70008633
1O
#70008694
0N
#70008710
0S
#70008722
1F
#70008810
1[
#70009029
11
1*
#70009040
0Z
#70009068
1Q
#70009331
0O
#70009388
1P
#70009631
1H
#70009677
0[
#70009822
1S
#70010148
0P
#70010203
0Q
#70010279
1Z
#70010592
0S
#70010922
0Z
#70010950
1Q
#70011381
15
1&
#70012017
06
0%
#80000000
b1111 "
b1011 "
b1011 !
b1001 !
b1001 "
b1000 "
#80000801
1R
#80000811
0G
1I
0=
#80000821
0<
#80000831
0:
#80005515
1S
#80005521
1j
#80005536
0\
#80005551
1e
#80005568
1[
#80005581
0>
#80005648
1c
#80005706
0;
#80005767
1U
#80005792
1a
#80005808
1O
#80005810
1D
#80005890
1W
#80005892
1K
#80005911
0H
#80005916
1P
#80005959
0Y
#80006024
0M
#80006145
1\
#80006254
1k
#80006285
0d
#80006342
0C
#80006370
1?
#80006527
0X
#80006529
0L
#80006647
0P
#80006708
0e
#80006731
0Q
#80006807
1Z
#80006911
0O
#80006979
0D
#80007421
0Z
#80007449
1Q
#80007585
0S
#80008058
0[
#80008179
1S
#80008681
0\
#80009441
01
0*
#80009600
14
1'
#80010178
03
0(
#80010323
17
1$
#80012749
05
0&
#90000000
b1000 !
b1100 !
b1110 !
b1001 "
#90000791
1A
1=
#90000811
1:
#90000851
09
#90005126
1[
#90005385
1O
#90005387
1D
#90005450
1d
#90005584
1@
#90005598
1J
1M
#90005703
1\
#90005706
1X
#90005708
1L
#90005764
1E
#90005766
1B
#90005767
1>
#90005870
1e
#90005971
0Q
#90006211
1P
#90006336
0W
#90006366
1H
#90006416
1`
#90006436
0O
#90006496
0f
#90006532
0L
#90006624
1T
#90006659
0K
#90006704
0]
#90006759
0D
#90006825
0S
#90006960
1Q
#90006973
0X
#90007053
0a
#90007160
1g
#90007261
0U
#90007323
1L
#90007368
1^
#90007690
1S
#90009793
15
1&
#90009908
12
1)
#90009976
16
1%
#90010661
13
1(
