Chapter5/chap5.1/simulation/qsim/DFF1.msim.vcd
$comment
	File created using the following command:
		vcd file DFF1.msim.vcd -direction
$end
$date
	Sat Apr 03 17:45:16 2021
$end
$version
	ModelSim Version 10.5b
$end
$timescale
	1ps
$end

$scope module DFF1_vlg_vec_tst $end
$var reg 1 ! CLK $end
$var reg 1 " D $end
$var wire 1 # Q $end

$scope module i1 $end
$var wire 1 $ gnd $end
$var wire 1 % vcc $end
$var wire 1 & unknown $end
$var tri1 1 ' devclrn $end
$var tri1 1 ( devpor $end
$var tri1 1 ) devoe $end
$var wire 1 * Q~output_o $end
$var wire 1 + CLK~input_o $end
$var wire 1 , D~input_o $end
$var wire 1 - Q~reg0feeder_combout $end
$var wire 1 . Q~reg0_q $end
$upscope $end
$upscope $end
$enddefinitions $end
#0
$dumpvars
0!
0"
x#
0$
1%
x&
1'
1(
1)
x*
0+
0,
x-
0.
$end
#3314
0-
#4025
0*
0#
#1500000
1"
#1500665
1,
#1503715
1-
#2500000
1!
#2500655
1+
#2502450
1.
#2506467
1*
1#
#3000000
0"
#3000781
0,
#3004095
0-
#4500000
1"
#4500665
1,
#4503715
1-
#5000000
0!
#5000771
0+
#6000000
0"
#6000781
0,
#6004095
0-
#7500000
1!
1"
#7500655
1+
#7500665
1,
#7502450
0.
#7503715
1-
#7506475
0*
0#
#9000000
0"
#9000781
0,
#9004095
0-
#10000000
0!
#10000771
0+
#10500000
1"
#10500665
1,
#10503715
1-
#12000000
0"
#12000781
0,
#12004095
0-
#12500000
1!
#12500655
1+
#13500000
1"
#13500665
1,
#13503715
1-
#15000000
0!
0"
#15000771
0+
#15000781
0,
#15004095
0-
#16500000
1"
#16500665
1,
#16503715
1-
#17500000
1!
#17500655
1+
#17502450
1.
#17506467
1*
1#
#18000000
0"
#18000781
0,
#18004095
0-
#19500000
1"
#19500665
1,
#19503715
1-
#20000000
0!
#20000771
0+
#21000000
0"
#21000781
0,
#21004095
0-
#22500000
1!
1"
#22500655
1+
#22500665
1,
#22502450
0.
#22503715
1-
#22506475
0*
0#
#24000000
0"
#24000781
0,
#24004095
0-
#25000000
0!
#25000771
0+
#25500000
1"
#25500665
1,
#25503715
1-
#27000000
0"
#27000781
0,
#27004095
0-
#27500000
1!
#27500655
1+
#28500000
1"
#28500665
1,
#28503715
1-
#30000000
0!
0"
#30000771
0+
#30000781
0,
#30004095
0-
#31500000
1"
#31500665
1,
#31503715
1-
#32500000
1!
#32500655
1+
#32502450
1.
#32506467
1*
1#
#33000000
0"
#33000781
0,
#33004095
0-
#34500000
1"
#34500665
1,
#34503715
1-
#35000000
0!
#35000771
0+
#36000000
0"
#36000781
0,
#36004095
0-
#37500000
1!
1"
#37500655
1+
#37500665
1,
#37502450
0.
#37503715
1-
#37506475
0*
0#
#39000000
0"
#39000781
0,
#39004095
0-
#40000000
0!
#40000771
0+
#40500000
1"
#40500665
1,
#40503715
1-
#42000000
0"
#42000781
0,
#42004095
0-
#42500000
1!
#42500655
1+
#43500000
1"
#43500665
1,
#43503715
1-
#45000000
0!
0"
#45000771
0+
#45000781
0,
#45004095
0-
#46500000
1"
#46500665
1,
#46503715
1-
#47500000
1!
#47500655
1+
#47502450
1.
#47506467
1*
1#
#48000000
0"
#48000781
0,
#48004095
0-
#49500000
1"
#49500665
1,
#49503715
1-
#50000000
0!
#50000771
0+
#51000000
0"
#51000781
0,
#51004095
0-
#52500000
1!
1"
#52500655
1+
#52500665
1,
#52502450
0.
#52503715
1-
#52506475
0*
0#
#54000000
0"
#54000781
0,
#54004095
0-
#55000000
0!
#55000771
0+
#55500000
1"
#55500665
1,
#55503715
1-
#57000000
0"
#57000781
0,
#57004095
0-
#57500000
1!
#57500655
1+
#58500000
1"
#58500665
1,
#58503715
1-
#60000000
0!
0"
#60000771
0+
#60000781
0,
#60004095
0-
#61500000
1"
#61500665
1,
#61503715
1-
#62500000
1!
#62500655
1+
#62502450
1.
#62506467
1*
1#
#63000000
0"
#63000781
0,
#63004095
0-
#64500000
1"
#64500665
1,
#64503715
1-
#65000000
0!
#65000771
0+
#66000000
0"
#66000781
0,
#66004095
0-
#67500000
1!
1"
#67500655
1+
#67500665
1,
#67502450
0.
#67503715
1-
#67506475
0*
0#
#69000000
0"
#69000781
0,
#69004095
0-
#70000000
0!
#70000771
0+
#70500000
1"
#70500665
1,
#70503715
1-
#72000000
0"
#72000781
0,
#72004095
0-
#72500000
1!
#72500655
1+
#73500000
1"
#73500665
1,
#73503715
1-
#75000000
0!
0"
#75000771
0+
#75000781
0,
#75004095
0-
#76500000
1"
#76500665
1,
#76503715
1-
#77500000
1!
#77500655
1+
#77502450
1.
#77506467
1*
1#
#78000000
0"
#78000781
0,
#78004095
0-
#79500000
1"
#79500665
1,
#79503715
1-
#80000000
0!
#80000771
0+
#81000000
0"
#81000781
0,
#81004095
0-
#82500000
1!
1"
#82500655
1+
#82500665
1,
#82502450
0.
#82503715
1-
#82506475
0*
0#
#84000000
0"
#84000781
0,
#84004095
0-
#85000000
0!
#85000771
0+
#85500000
1"
#85500665
1,
#85503715
1-
#87000000
0"
#87000781
0,
#87004095
0-
#87500000
1!
#87500655
1+
#88500000
1"
#88500665
1,
#88503715
1-
#90000000
0!
0"
#90000771
0+
#90000781
0,
#90004095
0-
#91500000
1"
#91500665
1,
#91503715
1-
#92500000
1!
#92500655
1+
#92502450
1.
#92506467
1*
1#
#93000000
0"
#93000781
0,
#93004095
0-
#94500000
1"
#94500665
1,
#94503715
1-
#95000000
0!
#95000771
0+
#96000000
0"
#96000781
0,
#96004095
0-
#97500000
1!
1"
#97500655
1+
#97500665
1,
#97502450
0.
#97503715
1-
#97506475
0*
0#
#99000000
0"
#99000781
0,
#99004095
0-
