Chapter5/chap5.10/simulation/qsim/LATCH3.msim.vcd
$comment
	File created using the following command:
		vcd file LATCH3.msim.vcd -direction
$end
$date
	Thu Apr 08 15:15:19 2021
$end
$version
	ModelSim Version 10.5b
$end
$timescale
	1ps
$end

$scope module LATCH3_vlg_vec_tst $end
$var reg 1 ! CLK $end
$var reg 1 " D $end
$var reg 1 # RST $end
$var wire 1 $ Q $end

$scope module i1 $end
$var wire 1 % gnd $end
$var wire 1 & vcc $end
$var wire 1 ' unknown $end
$var tri1 1 ( devclrn $end
$var tri1 1 ) devpor $end
$var tri1 1 * devoe $end
$var wire 1 + Q~output_o $end
$var wire 1 , RST~input_o $end
$var wire 1 - D~input_o $end
$var wire 1 . CLK~input_o $end
$var wire 1 / Q$latch~combout $end
$upscope $end
$upscope $end
$enddefinitions $end
#0
$dumpvars
1!
1"
1#
x$
0%
1&
x'
1(
1)
1*
x+
1,
1-
1.
x/
$end
#3439
1/
#8827
1+
1$
#1280000
0#
#1280812
0,
#1282476
0/
#1287857
0+
0$
#2500000
0"
#2500812
0-
#5000000
1"
#5000766
1-
#7500000
0"
#7500812
0-
#10000000
1"
#10000766
1-
#11520000
1#
#11520766
1,
#11522309
1/
#11527697
1+
1$
#12500000
0"
#12500812
0-
#12504495
0/
#12509876
0+
0$
#15000000
1"
#15000766
1-
#15004205
1/
#15009593
1+
1$
#17500000
0"
#17500812
0-
#17504495
0/
#17509876
0+
0$
#20000000
1"
#20000766
1-
#20004205
1/
#20009593
1+
1$
#22500000
0"
#22500812
0-
#22504495
0/
#22509876
0+
0$
#24320000
0!
#24320812
0.
#25000000
1"
#25000766
1-
#27500000
0"
#27500812
0-
#30000000
1"
#30000766
1-
#32500000
0"
#32500812
0-
#35000000
1"
#35000766
1-
#37120000
1!
#37120766
1.
#37122128
1/
#37127516
1+
1$
#37500000
0"
#37500812
0-
#37504495
0/
#37509876
0+
0$
#40000000
1"
#40000766
1-
#40004205
1/
#40009593
1+
1$
#42500000
0"
#42500812
0-
#42504495
0/
#42509876
0+
0$
#45000000
1"
#45000766
1-
#45004205
1/
#45009593
1+
1$
#47500000
0"
#47500812
0-
#47504495
0/
#47509876
0+
0$
#50000000
1"
#50000766
1-
#50004205
1/
#50009593
1+
1$
#52500000
0"
#52500812
0-
#52504495
0/
#52509876
0+
0$
#55000000
1"
#55000766
1-
#55004205
1/
#55009593
1+
1$
#57500000
0"
#57500812
0-
#57504495
0/
#57509876
0+
0$
#60000000
1"
#60000766
1-
#60004205
1/
#60009593
1+
1$
#62500000
0"
#62500812
0-
#62504495
0/
#62509876
0+
0$
#65000000
1"
#65000766
1-
#65004205
1/
#65009593
1+
1$
#67500000
0"
#67500812
0-
#67504495
0/
#67509876
0+
0$
#70000000
1"
#70000766
1-
#70004205
1/
#70009593
1+
1$
#72500000
0"
#72500812
0-
#72504495
0/
#72509876
0+
0$
#75000000
1"
#75000766
1-
#75004205
1/
#75009593
1+
1$
#77500000
0"
#77500812
0-
#77504495
0/
#77509876
0+
0$
#80000000
1"
#80000766
1-
#80004205
1/
#80009593
1+
1$
#82500000
0"
#82500812
0-
#82504495
0/
#82509876
0+
0$
#85000000
1"
#85000766
1-
#85004205
1/
#85009593
1+
1$
#87500000
0"
#87500812
0-
#87504495
0/
#87509876
0+
0$
#90000000
1"
#90000766
1-
#90004205
1/
#90009593
1+
1$
#92500000
0"
#92500812
0-
#92504495
0/
#92509876
0+
0$
#95000000
1"
#95000766
1-
#95004205
1/
#95009593
1+
1$
#97500000
0"
#97500812
0-
#97504495
0/
#97509876
0+
0$
