LabSimulation/FSM/FSM_demo5/simulation/qsim/FSM_demo5.msim.vcd
$comment
	File created using the following command:
		vcd file FSM_demo5.msim.vcd -direction
$end
$date
	Mon Jun 07 13:46:00 2021
$end
$version
	ModelSim Version 10.5b
$end
$timescale
	1ps
$end

$scope module FSM_demo5_vlg_vec_tst $end
$var reg 1 ! a $end
$var reg 1 " clk $end
$var reg 1 # rst $end
$var wire 1 $ z $end

$scope module i1 $end
$var wire 1 % gnd $end
$var wire 1 & vcc $end
$var wire 1 ' unknown $end
$var tri1 1 ( devclrn $end
$var tri1 1 ) devpor $end
$var tri1 1 * devoe $end
$var wire 1 + z~output_o $end
$var wire 1 , clk~input_o $end
$var wire 1 - clk~inputclkctrl_outclk $end
$var wire 1 . a~input_o $end
$var wire 1 / Mux0~0_combout $end
$var wire 1 0 rst~input_o $end
$var wire 1 1 rst~inputclkctrl_outclk $end
$var wire 1 2 Mux1~0_combout $end
$var wire 1 3 next_state[0]~0_combout $end
$var wire 1 4 current_state [2] $end
$var wire 1 5 current_state [1] $end
$var wire 1 6 current_state [0] $end
$upscope $end
$upscope $end
$enddefinitions $end
#0
$dumpvars
0!
0"
1#
x$
0%
1&
x'
1(
1)
1*
x+
0,
x-
0.
x/
10
x1
x2
x3
06
05
04
$end
#208
0-
#222
11
#533
03
#536
0/
#3569
0+
0$
#3760
02
#3840000
1!
#3840766
1.
#3844263
12
#5000000
1"
#5000766
1,
#5000988
1-
#5002876
15
#5003357
1/
#5003358
02
#10000000
0"
#10000812
0,
#10001020
0-
#15000000
1"
#15000766
1,
#15000988
1-
#15002876
14
05
#17920000
0!
#17920812
0.
#17924491
13
#17924514
0/
#20000000
0"
#20000812
0,
#20001020
0-
#25000000
1"
#25000766
1,
#25000988
1-
#25002876
04
16
#25003358
03
#25006475
1+
1$
#30000000
0"
#30000812
0,
#30001020
0-
#34560000
1!
#34560766
1.
#34564263
12
#35000000
1"
#35000766
1,
#35000988
1-
#35002876
15
06
#35003358
02
#35003790
1/
#35006445
0+
0$
#40000000
0"
#40000812
0,
#40001020
0-
#45000000
1"
#45000766
1,
#45000988
1-
#45002876
14
05
#48640000
0!
#48640812
0.
#48644491
13
#48644514
0/
#50000000
0"
#50000812
0,
#50001020
0-
#55000000
1"
#55000766
1,
#55000988
1-
#55002876
04
16
#55003358
03
#55006475
1+
1$
#60000000
0"
#60000812
0,
#60001020
0-
#65000000
1"
#65000766
1,
#65000988
1-
#65002876
06
#65006445
0+
0$
#70000000
0"
#70000812
0,
#70001020
0-
#75000000
1"
#75000766
1,
#75000988
1-
#80000000
0"
#80000812
0,
#80001020
0-
#85000000
1"
#85000766
1,
#85000988
1-
#90000000
0"
#90000812
0,
#90001020
0-
#95000000
1"
#95000766
1,
