chp3.18/simulation/qsim/MULT4B_while.msim.vcd
$comment
	File created using the following command:
		vcd file MULT4B_while.msim.vcd -direction
$end
$date
	Mon Mar 29 23:15:32 2021
$end
$version
	ModelSim Version 10.5b
$end
$timescale
	1ps
$end

$scope module MULT4B_while_vlg_vec_tst $end
$var reg 4 ! A [4:1] $end
$var reg 4 " B [4:1] $end
$var wire 1 # R [8] $end
$var wire 1 $ R [7] $end
$var wire 1 % R [6] $end
$var wire 1 & R [5] $end
$var wire 1 ' R [4] $end
$var wire 1 ( R [3] $end
$var wire 1 ) R [2] $end
$var wire 1 * R [1] $end

$scope module i1 $end
$var wire 1 + gnd $end
$var wire 1 , vcc $end
$var wire 1 - unknown $end
$var tri1 1 . devclrn $end
$var tri1 1 / devpor $end
$var tri1 1 0 devoe $end
$var wire 1 1 R[1]~output_o $end
$var wire 1 2 R[2]~output_o $end
$var wire 1 3 R[3]~output_o $end
$var wire 1 4 R[4]~output_o $end
$var wire 1 5 R[5]~output_o $end
$var wire 1 6 R[6]~output_o $end
$var wire 1 7 R[7]~output_o $end
$var wire 1 8 R[8]~output_o $end
$var wire 1 9 A[1]~input_o $end
$var wire 1 : B[1]~input_o $end
$var wire 1 ; R~0_combout $end
$var wire 1 < B[2]~input_o $end
$var wire 1 = A[2]~input_o $end
$var wire 1 > R~1_combout $end
$var wire 1 ? Add0~6_combout $end
$var wire 1 @ Add0~18_combout $end
$var wire 1 A A[3]~input_o $end
$var wire 1 B R~2_combout $end
$var wire 1 C Add0~7 $end
$var wire 1 D Add0~8_combout $end
$var wire 1 E Add0~19_combout $end
$var wire 1 F Add1~4_combout $end
$var wire 1 G B[3]~input_o $end
$var wire 1 H Add1~6_combout $end
$var wire 1 I A[4]~input_o $end
$var wire 1 J R~3_combout $end
$var wire 1 K Add0~9 $end
$var wire 1 L Add0~10_combout $end
$var wire 1 M Add0~20_combout $end
$var wire 1 N Add1~5 $end
$var wire 1 O Add1~7_combout $end
$var wire 1 P Add1~9_combout $end
$var wire 1 Q Add2~2_combout $end
$var wire 1 R B[4]~input_o $end
$var wire 1 S Add2~4_combout $end
$var wire 1 T Add0~11 $end
$var wire 1 U Add0~12_combout $end
$var wire 1 V Add0~14_combout $end
$var wire 1 W Add1~8 $end
$var wire 1 X Add1~10_combout $end
$var wire 1 Y Add1~17_combout $end
$var wire 1 Z Add2~3 $end
$var wire 1 [ Add2~5_combout $end
$var wire 1 \ Add2~7_combout $end
$var wire 1 ] Add0~13 $end
$var wire 1 ^ Add0~15_combout $end
$var wire 1 _ Add0~17_combout $end
$var wire 1 ` Add1~11 $end
$var wire 1 a Add1~12_combout $end
$var wire 1 b Add1~18_combout $end
$var wire 1 c Add2~6 $end
$var wire 1 d Add2~8_combout $end
$var wire 1 e Add2~10_combout $end
$var wire 1 f Add1~13 $end
$var wire 1 g Add1~14_combout $end
$var wire 1 h Add1~16_combout $end
$var wire 1 i Add2~9 $end
$var wire 1 j Add2~11_combout $end
$var wire 1 k Add2~16_combout $end
$var wire 1 l Add2~12 $end
$var wire 1 m Add2~13_combout $end
$var wire 1 n Add2~15_combout $end
$upscope $end
$upscope $end
$enddefinitions $end
#0
$dumpvars
b0 !
b100 "
x*
x)
x(
x'
x&
x%
x$
x#
0+
1,
x-
1.
1/
10
x1
x2
x3
x4
x5
x6
x7
x8
09
0:
x;
0<
0=
x>
x?
x@
0A
xB
xC
xD
xE
xF
1G
xH
0I
xJ
xK
xL
xM
xN
xO
xP
xQ
0R
xS
xT
xU
xV
xW
xX
xY
xZ
x[
x\
x]
x^
x_
x`
xa
xb
xc
xd
xe
xf
xg
xh
xi
xj
xk
xl
xm
xn
$end
#4562
0V
0_
#4729
0;
#4751
0n
#4770
0>
#4932
0@
#5018
0Z
#5098
1c
#5125
0B
#5178
0i
#5193
0M
#5194
0J
#5210
0C
#5213
0N
#5258
1l
#5290
1K
#5293
1W
#5352
0E
#5370
0T
#5447
1]
#5625
0?
#5664
1f
#5712
0`
#5895
0m
#5930
0X
#6007
0U
#6080
0O
#6084
0^
#6175
0D
#6180
0L
#6233
0F
#6301
0g
#6349
0a
#6744
0Y
#6897
0P
#6918
0h
#6919
0k
#6931
0b
#7183
0\
#7233
0H
#7341
0S
#7574
0e
#7615
0[
#7765
0Q
#7768
0d
#7772
0j
#8464
01
0*
#8850
08
0#
#9232
02
0)
#10964
07
0$
#11251
05
0&
#11410
04
0'
#11500
03
0(
#11658
06
0%
#10000000
b1 !
b1100 "
b1110 "
b1111 "
#10000801
1R
1<
#10000811
1:
#10000831
19
#10005297
1;
#10005474
1Q
#10005694
1?
#10005698
1F
#10006113
1@
#10006204
1S
#10006607
1H
#10009029
11
1*
#10010289
14
1'
#10010437
12
1)
#10010902
13
1(
#20000000
b11 !
b10 !
b111 "
b110 "
#20000791
1=
#20000821
0R
#20000831
0:
#20000851
09
#20005126
1[
#20005159
1>
#20005385
1O
#20005387
1D
#20005580
0;
#20005961
1E
#20005971
0Q
#20005998
0S
#20006140
1P
#20006166
0F
#20006233
0>
#20006574
1S
#20006727
1F
#20006889
1Q
#20007088
0?
#20007166
0H
#20007510
0@
#20007636
1H
#20009315
01
0*
#20011810
02
0)
#30000000
b11 !
b111 "
#30000811
1:
#30000831
19
#30005297
1;
#30005550
0Q
#30005612
1Z
#30005692
0c
#30005694
1?
#30005767
1>
#30005774
0F
#30005836
1N
#30005916
0W
#30006113
1@
#30006249
0[
#30006356
1d
#30006473
0O
#30006570
0?
#30006580
1X
#30006646
1C
#30006726
0K
#30006774
0H
#30006992
0@
#30007283
0D
#30007290
0P
#30007332
1Y
#30007390
1L
#30007734
0S
#30007762
1\
#30007811
1M
#30007907
0E
#30008064
0Z
#30008092
1Q
#30008633
1O
#30008694
0N
#30008722
1F
#30009029
11
1*
#30009331
0O
#30009388
1P
#30009631
1H
#30009822
1S
#30010148
0P
#30010203
0Q
#30010279
1Z
#30010592
0S
#30010922
0Z
#30010950
1Q
#30011803
04
0'
#30011852
15
1&
#40000000
b111 !
b11 "
b101 !
b1011 "
b100 !
b1010 "
#40000791
1A
#40000801
1R
#40000811
0=
0G
#40000831
0:
#40000851
09
#40005478
0d
#40005515
1S
#40005524
1B
#40005536
0\
#40005551
1e
#40005568
1[
#40005570
1i
#40005580
0;
#40005581
0>
#40005648
1c
#40005728
0i
#40005733
0X
#40005735
0L
#40005808
1O
#40005810
1D
#40005838
1`
#40005840
1T
#40005890
1W
#40005892
1K
#40005901
0e
#40005911
0H
#40005916
1P
#40005959
0Y
#40005970
0`
#40005971
0Q
#40005972
0T
#40006061
0C
#40006145
1\
#40006159
0M
#40006166
0F
#40006233
0B
#40006312
1d
#40006384
1E
#40006554
1X
#40006556
1L
#40006665
1Q
#40006732
1e
#40006782
0P
#40006825
0S
#40006830
0[
#40006977
1M
#40006986
1H
#40007046
0O
#40007150
1F
#40007283
0D
#40007395
1S
#40007453
0\
#40007590
1P
#40007650
0Q
#40007799
1O
#40007907
0E
#40008339
1Q
#40008504
0S
#40008507
0H
#40008788
0F
#40009069
1S
#40009315
01
0*
#40009600
14
1'
#40010838
16
1%
#40011521
05
0&
#40012774
03
0(
#50000000
b1000 "
b1100 "
b100 "
b101 !
#50000791
1G
#50000821
0R
0<
#50000831
19
#50005493
1Y
#50005550
0Q
#50005612
1Z
#50005694
1?
#50005698
1F
#50005799
0M
#50005923
1\
#50005990
0e
#50006212
0c
#50006292
1i
#50006607
1H
#50006686
0O
#50006849
0d
#50006956
1j
#50007503
0P
#50007947
0S
#50008277
0Z
#50008305
1Q
#50008357
1c
#50008437
0i
#50008941
1[
#50009021
1d
#50009074
0j
#50010013
15
1&
#50010074
06
0%
#50010902
13
1(
#50012016
04
0'
#60000000
b111 !
b0 "
b110 !
#60000791
1=
#60000811
0G
#60000851
09
#60005042
0c
#60005122
1i
#60005142
0[
#60005385
1O
#60005387
1D
#60005679
0d
#60005786
1j
#60005911
0H
#60005959
0Y
#60005971
0Q
#60006163
0?
#60006166
0F
#60006398
0\
#60006819
1[
#60006901
1c
#60006981
0i
#60007565
1d
#60007618
0j
#60010178
03
0(
#60010466
05
0&
#70000000
b1 "
b1001 "
b1101 "
b111 !
#70000791
1G
#70000801
1R
#70000811
1:
#70000831
19
#70005297
1;
#70005474
1Q
#70005493
1Y
#70005495
1P
#70005513
1\
#70005551
1e
#70005584
1@
#70005694
1?
#70005698
1F
#70005764
1E
#70005766
1B
#70005767
1>
#70006204
1S
#70006212
0c
#70006292
1i
#70006310
0Q
#70006311
0[
#70006386
1Z
#70006570
0?
#70006596
0F
#70006607
1H
#70006646
1C
#70006659
0K
#70006672
1N
#70006739
1T
#70006752
0W
#70006832
1`
#70006849
0d
#70006934
0\
#70006956
1j
#70007050
1[
#70007164
0S
#70007272
0e
#70007296
0L
#70007309
0O
#70007389
0X
#70007403
1U
#70007496
1a
#70007596
0H
#70007627
1\
#70007689
1k
#70008071
1b
#70008126
0P
#70008203
0Y
#70008828
1d
#70008900
0Z
#70008928
1Q
#70008980
1c
#70009029
11
1*
#70009248
1e
#70009603
15
1&
#70009617
0d
#70009658
1S
#70009908
12
1)
#70010040
0e
#70011758
17
1$
#70013743
14
1'
#80000000
b1111 !
b1011 !
b1001 !
b1000 !
#80000811
1I
0A
0=
#80000851
09
#80005433
0l
#80005532
0j
#80005580
0;
#80005581
0>
#80005584
0[
#80005700
0]
#80005704
0f
#80005728
1J
1M
#80005743
0@
#80005792
0U
#80005803
0a
#80005808
1O
#80005821
0D
#80005826
0i
#80005870
1d
#80005890
1W
#80005906
1l
#80005936
0B
#80005971
0Q
#80006061
0C
#80006064
0N
#80006071
0`
#80006073
0T
#80006090
1F
#80006111
1L
#80006141
1K
#80006151
1f
#80006153
1]
#80006163
0E
#80006207
0\
#80006290
1e
#80006385
0b
#80006390
0k
#80006490
1j
#80006563
1P
#80006735
1a
#80006737
1U
#80006825
0S
#80006999
1H
#80007044
0F
#80007222
0d
#80007223
1k
#80007310
1b
#80007312
1Q
#80007645
0e
#80008042
1S
#80008044
0H
#80008067
1d
#80008487
1e
#80009315
01
0*
#80010043
02
0)
#80010275
05
0&
#80012593
16
1%
#90000000
b101 "
b1001 !
#90000821
0R
#90000831
19
#90005098
1;
#90005550
0Q
#90005612
1Z
#90005694
1?
#90005698
1F
#90005987
0k
#90006276
1[
#90006607
1H
#90008830
11
1*
#90010032
07
0$
#90010902
13
1(
