Chapter3/chp3.12/simulation/qsim/ADDER8B.msim.vcd
$comment
	File created using the following command:
		vcd file ADDER8B.msim.vcd -direction
$end
$date
	Mon Apr 05 17:26:53 2021
$end
$version
	ModelSim Version 10.5b
$end
$timescale
	1ps
$end

$scope module ADDER8B_vlg_vec_tst $end
$var reg 8 ! A [7:0] $end
$var reg 8 " B [7:0] $end
$var reg 1 # CIN $end
$var wire 1 $ COUT $end
$var wire 1 % DOUT [7] $end
$var wire 1 & DOUT [6] $end
$var wire 1 ' DOUT [5] $end
$var wire 1 ( DOUT [4] $end
$var wire 1 ) DOUT [3] $end
$var wire 1 * DOUT [2] $end
$var wire 1 + DOUT [1] $end
$var wire 1 , DOUT [0] $end

$scope module i1 $end
$var wire 1 - gnd $end
$var wire 1 . vcc $end
$var wire 1 / unknown $end
$var tri1 1 0 devclrn $end
$var tri1 1 1 devpor $end
$var tri1 1 2 devoe $end
$var wire 1 3 COUT~output_o $end
$var wire 1 4 DOUT[0]~output_o $end
$var wire 1 5 DOUT[1]~output_o $end
$var wire 1 6 DOUT[2]~output_o $end
$var wire 1 7 DOUT[3]~output_o $end
$var wire 1 8 DOUT[4]~output_o $end
$var wire 1 9 DOUT[5]~output_o $end
$var wire 1 : DOUT[6]~output_o $end
$var wire 1 ; DOUT[7]~output_o $end
$var wire 1 < A[7]~input_o $end
$var wire 1 = B[7]~input_o $end
$var wire 1 > A[6]~input_o $end
$var wire 1 ? B[6]~input_o $end
$var wire 1 @ B[5]~input_o $end
$var wire 1 A A[5]~input_o $end
$var wire 1 B B[4]~input_o $end
$var wire 1 C A[4]~input_o $end
$var wire 1 D B[3]~input_o $end
$var wire 1 E A[3]~input_o $end
$var wire 1 F A[2]~input_o $end
$var wire 1 G B[2]~input_o $end
$var wire 1 H A[1]~input_o $end
$var wire 1 I B[1]~input_o $end
$var wire 1 J A[0]~input_o $end
$var wire 1 K B[0]~input_o $end
$var wire 1 L CIN~input_o $end
$var wire 1 M Add0~1_cout $end
$var wire 1 N Add0~3 $end
$var wire 1 O Add0~5 $end
$var wire 1 P Add0~7 $end
$var wire 1 Q Add0~9 $end
$var wire 1 R Add0~11 $end
$var wire 1 S Add0~13 $end
$var wire 1 T Add0~15 $end
$var wire 1 U Add0~17 $end
$var wire 1 V Add0~18_combout $end
$var wire 1 W Add0~2_combout $end
$var wire 1 X Add0~4_combout $end
$var wire 1 Y Add0~6_combout $end
$var wire 1 Z Add0~8_combout $end
$var wire 1 [ Add0~10_combout $end
$var wire 1 \ Add0~12_combout $end
$var wire 1 ] Add0~14_combout $end
$var wire 1 ^ Add0~16_combout $end
$upscope $end
$upscope $end
$enddefinitions $end
#0
$dumpvars
b11100000 !
b10111 "
0#
0$
1,
1+
1*
0)
1(
1'
1&
1%
0-
1.
x/
10
11
12
03
14
15
16
07
18
19
1:
1;
1<
0=
1>
0?
0@
1A
1B
0C
0D
0E
0F
1G
0H
1I
0J
1K
0L
0M
1N
0O
1P
0Q
1R
0S
1T
0U
0V
1W
1X
1Y
0Z
1[
1\
1]
1^
$end
#5000000
b11000000 !
b11000100 !
b11000110 !
b11000111 !
1J
1H
1F
0A
0N
1O
0P
0W
0X
0Y
0\
09
06
05
04
0,
0+
0*
0'
1X
1Y
1Z
17
16
15
1+
1*
1)
#10000000
b11010111 !
b11011111 !
b111 "
b1111 "
b1110 "
b11111111 !
b11111011 !
b11111010 !
0K
1D
0B
0J
0F
1E
1C
1A
1N
1Q
0Y
1\
19
06
0R
0*
1'
0X
0[
08
05
1S
0+
0(
0\
09
0T
0'
0]
0:
1U
0&
0^
0;
0%
1V
13
1$
#10240000
1#
1L
1M
1W
14
1,
#15000000
b10111010 !
b10111000 !
b10101000 !
b10101100 !
b10101101 !
1J
0H
1F
0C
0>
0N
0O
1R
1T
0W
1X
1Y
1[
1]
1:
18
16
15
04
1O
0S
0U
0,
1+
1*
1(
1&
0X
0Y
1\
1^
1;
19
06
05
0+
0*
1'
1%
1Y
0]
0V
03
0:
16
1*
0&
0$
#20000000
b10001110 "
b10001010 "
b10100101 !
b10000010 "
b10000101 !
b10000111 !
b10010111 !
b10010110 !
0J
1H
0E
1C
0A
0G
0D
1=
1N
0Q
0R
1U
1W
1X
0[
0\
0Y
0^
0;
06
09
08
15
14
1R
1,
1+
0(
0'
0*
0%
0X
1[
1\
1V
13
19
18
05
0+
1(
1'
1$
0\
09
0'
#20480000
0#
0L
0M
0W
04
0,
#25000000
b11010110 !
b11010010 !
b11011010 !
b11011011 !
1J
0F
1E
1>
1P
1Q
1W
1Y
0Z
1]
1:
07
16
14
0Q
0R
1,
1*
0)
1&
1Z
0[
08
17
1R
1)
0(
1[
1\
19
18
1(
1'
0\
09
0'
#30000000
b11000010 "
b11000011 "
b1000011 "
b1000111 "
b10011011 !
b10011111 !
b10010111 !
1F
0E
0>
1K
1G
1?
0=
0P
0N
0U
0Z
0W
1^
1;
04
07
0)
0,
1%
1Z
1X
0V
03
15
17
1)
1+
0$
#35000000
b10111 !
b10101 !
0H
0<
0X
0^
0;
05
0+
0%
#40000000
b1010111 "
b10111 "
b10010111 "
b1010101 !
b1011101 !
b11011101 !
b11011111 !
1H
1E
1>
1<
1B
0?
1=
1Q
1U
0R
1X
0Z
0[
08
07
15
1+
0)
0(
1[
1V
1\
19
13
18
1(
1$
1'
#45000000
b11001111 !
b11001110 !
b11000110 !
b1000110 !
0J
0E
0C
0<
1N
0Q
0U
1W
1Z
0[
1^
1;
08
17
14
1R
1,
1)
0(
1%
0X
1[
0V
03
18
05
0+
1(
0$
0\
09
0'
#50000000
b10110111 "
b10110101 "
b1000010 !
b10100101 "
b11100101 "
b1000000 !
b1010000 !
b1011000 !
0H
0F
1E
1C
0I
0B
1@
1?
0O
1Q
0T
0Y
0Z
1\
0]
0:
19
07
06
1P
0R
1U
0*
0)
1'
0&
1Y
0[
0^
0;
08
16
0Q
1S
1*
0(
0%
1Z
0\
1V
13
09
17
1R
1)
0'
1$
1[
1]
1:
18
0S
1(
1&
1\
19
1'
0]
0:
0&
#55000000
b11000 !
b11001 !
b10011001 !
1J
0>
1<
0N
1T
0W
1]
1^
1;
1:
04
0,
1&
1%
1X
0^
0;
15
1+
0%
#60000000
b11101101 "
b10111001 !
b11101100 "
b11101000 "
b11101010 "
b10101010 "
b10110001 !
b11110001 !
b1110001 !
0E
1A
1>
0<
0K
1I
0G
1D
0?
1S
0U
1N
1O
0\
1^
1W
0X
0Y
06
05
14
1;
09
0T
0O
0'
1%
1,
0+
0*
0]
0V
1X
1Y
16
15
03
0:
1U
0&
0$
1+
1*
0^
0Y
06
0;
0%
0*
1V
13
1$
#65000000
b1110101 !
b1110111 !
b1100111 !
b1101111 !
b101111 !
b10101111 !
1H
1F
1E
0C
0>
1<
1O
1Q
1T
0X
1Y
0Z
0[
1]
1^
1;
1:
08
07
16
05
0P
0+
1*
0)
0(
1&
1%
0Y
1[
0^
0;
18
06
0*
1(
0%
1Z
17
1)
#70000000
b10001010 "
b10011010 "
b10010010 "
b10001111 !
b11010010 "
b10000111 !
b11000111 !
b1000111 !
0E
0A
1>
0<
0D
1B
0@
1?
0Q
0S
0T
0U
0R
1^
0[
08
1;
1R
1U
1%
0(
1[
0]
0^
0V
1\
19
03
0;
0:
18
1(
0&
0%
0$
1'
0\
1V
13
09
0'
1$
#75000000
b1000011 !
b1000001 !
b1 !
b10000001 !
0H
0F
0>
1<
0O
1P
1T
1X
1Y
1]
1^
1;
1:
16
15
1+
1*
1&
1%
0Y
0Z
0^
0;
07
06
0*
0)
0%
#80000000
b1010010 "
b10000000 !
b1010000 "
b10010000 !
b1110000 "
b1100000 "
b1101000 "
b10110000 !
b101000 "
b10110100 !
b11110100 !
0J
1F
1C
1A
1>
0I
1D
0B
1@
0?
0=
1S
0U
0W
1Y
0X
1Z
1^
1;
17
05
16
04
0T
0,
1*
0+
1)
1%
0]
0V
03
0:
1U
0&
0$
0^
0;
0%
1V
13
1$
#85000000
b11110101 !
b11100101 !
b11000101 !
b11000001 !
1J
0F
0C
0A
0S
1W
0Y
0[
1\
19
08
06
14
1T
1,
0*
0(
1'
1]
1:
0U
1&
1^
1;
1%
0V
03
0$
#90000000
b11000011 !
b10101000 "
b10101010 "
b10001010 "
b10011010 "
b11010011 !
1I
1B
0@
1=
1H
1C
1O
0R
1U
0\
0^
0;
09
0'
0%
1Y
1\
1V
13
19
16
1*
1'
1$
#95000000
b11011011 !
b11011010 !
b11111010 !
0J
1E
1A
1Q
1S
0W
0Z
0\
09
07
04
0T
0,
0)
0'
1[
0]
0:
18
1(
0&
1^
1;
1%
