chp_3.15.2/simulation/qsim/MULT4B_down.msim.vcd
$comment
	File created using the following command:
		vcd file MULT4B_down.msim.vcd -direction
$end
$date
	Mon Mar 29 22:22:08 2021
$end
$version
	ModelSim Version 10.5b
$end
$timescale
	1ps
$end

$scope module MULT4B_down_vlg_vec_tst $end
$var reg 4 ! A [4:1] $end
$var reg 4 " B [4:1] $end
$var wire 1 # R [8] $end
$var wire 1 $ R [7] $end
$var wire 1 % R [6] $end
$var wire 1 & R [5] $end
$var wire 1 ' R [4] $end
$var wire 1 ( R [3] $end
$var wire 1 ) R [2] $end
$var wire 1 * R [1] $end

$scope module i1 $end
$var wire 1 + gnd $end
$var wire 1 , vcc $end
$var wire 1 - unknown $end
$var tri1 1 . devclrn $end
$var tri1 1 / devpor $end
$var tri1 1 0 devoe $end
$var wire 1 1 R[1]~output_o $end
$var wire 1 2 R[2]~output_o $end
$var wire 1 3 R[3]~output_o $end
$var wire 1 4 R[4]~output_o $end
$var wire 1 5 R[5]~output_o $end
$var wire 1 6 R[6]~output_o $end
$var wire 1 7 R[7]~output_o $end
$var wire 1 8 R[8]~output_o $end
$var wire 1 9 B[1]~input_o $end
$var wire 1 : A[1]~input_o $end
$var wire 1 ; R~0_combout $end
$var wire 1 < A[2]~input_o $end
$var wire 1 = R~1_combout $end
$var wire 1 > Add0~6_combout $end
$var wire 1 ? B[2]~input_o $end
$var wire 1 @ Add0~18_combout $end
$var wire 1 A A[3]~input_o $end
$var wire 1 B R~2_combout $end
$var wire 1 C Add0~7 $end
$var wire 1 D Add0~8_combout $end
$var wire 1 E Add0~19_combout $end
$var wire 1 F Add1~4_combout $end
$var wire 1 G B[3]~input_o $end
$var wire 1 H Add1~6_combout $end
$var wire 1 I A[4]~input_o $end
$var wire 1 J R~3_combout $end
$var wire 1 K Add0~9 $end
$var wire 1 L Add0~10_combout $end
$var wire 1 M Add0~20_combout $end
$var wire 1 N Add1~5 $end
$var wire 1 O Add1~7_combout $end
$var wire 1 P Add1~9_combout $end
$var wire 1 Q Add2~2_combout $end
$var wire 1 R B[4]~input_o $end
$var wire 1 S Add2~4_combout $end
$var wire 1 T Add0~11 $end
$var wire 1 U Add0~12_combout $end
$var wire 1 V Add0~14_combout $end
$var wire 1 W Add1~8 $end
$var wire 1 X Add1~10_combout $end
$var wire 1 Y Add1~17_combout $end
$var wire 1 Z Add2~3 $end
$var wire 1 [ Add2~5_combout $end
$var wire 1 \ Add2~7_combout $end
$var wire 1 ] Add0~13 $end
$var wire 1 ^ Add0~15_combout $end
$var wire 1 _ Add0~17_combout $end
$var wire 1 ` Add1~11 $end
$var wire 1 a Add1~12_combout $end
$var wire 1 b Add1~18_combout $end
$var wire 1 c Add2~6 $end
$var wire 1 d Add2~8_combout $end
$var wire 1 e Add2~10_combout $end
$var wire 1 f Add1~13 $end
$var wire 1 g Add1~14_combout $end
$var wire 1 h Add1~16_combout $end
$var wire 1 i Add2~9 $end
$var wire 1 j Add2~11_combout $end
$var wire 1 k Add2~16_combout $end
$var wire 1 l Add2~12 $end
$var wire 1 m Add2~13_combout $end
$var wire 1 n Add2~15_combout $end
$upscope $end
$upscope $end
$enddefinitions $end
#0
$dumpvars
b0 !
b1 "
x*
x)
x(
x'
x&
x%
x$
x#
0+
1,
x-
1.
1/
10
x1
x2
x3
x4
x5
x6
x7
x8
19
0:
x;
0<
x=
x>
0?
x@
0A
xB
xC
xD
xE
xF
0G
xH
0I
xJ
xK
xL
xM
xN
xO
xP
xQ
0R
xS
xT
xU
xV
xW
xX
xY
xZ
x[
x\
x]
x^
x_
x`
xa
xb
xc
xd
xe
xf
xg
xh
xi
xj
xk
xl
xm
xn
$end
#3972
0J
#4138
1]
#4141
0B
#4315
0M
#4317
0@
#4353
0Z
#4358
0h
#4373
0=
#4423
1c
#4433
0N
#4435
0C
#4453
0n
#4493
0i
#4503
1W
#4505
1K
#4536
0;
#4563
1l
#4573
0`
#4599
0_
#4631
0V
#4643
1f
#4647
0T
#4660
0E
#4669
0^
0b
#4788
0k
#4863
0Y
#5036
0L
#5076
0D
#5094
0m
#5099
0>
#5105
0j
#5174
0g
#5178
0U
#5259
0\
#5388
0d
#5409
0e
#5411
0F
#5477
0O
#5508
0P
#5618
0[
#5785
0X
#5838
0a
#5875
0H
#5904
0S
#6247
0Q
#8090
08
0#
#8113
01
0*
#8698
02
0)
#9001
07
0$
#9372
06
0%
#10127
04
0'
#10206
05
0&
#11872
03
0(
#10000000
b1 !
b1001 "
b1000 "
#10000684
1:
1R
#10000799
09
#10004803
1Q
#10004875
1F
#10004880
1>
#10005459
1S
#10009749
14
1'
#20000000
b11 !
b1100 "
b10 !
b1101 "
#20000684
1<
1G
19
#20000799
0:
#20004617
1;
#20004623
1H
#20004774
1=
#20004967
1@
#20005120
1O
#20005123
1D
#20005126
1[
#20005208
0Q
#20005288
0F
#20005335
0;
#20005782
1\
#20005902
0S
#20006233
1P
#20006418
0H
#20006899
1Q
#20007555
1S
#20009360
12
1)
#20010786
15
1&
#30000000
b1111 "
b1011 "
b11 !
#30000684
1?
1:
#30000799
0G
#30004830
0Q
#30004875
1F
#30004907
0>
#30004914
1Z
#30004955
1E
#30004984
0c
#30004991
1C
#30005001
1;
#30005061
0K
#30005157
0P
#30005441
0@
#30005445
0[
#30005522
0D
#30005524
0S
#30005537
1d
#30005614
1L
#30005661
0F
#30005757
1N
#30005827
0W
#30005846
0Z
#30005870
1Q
#30005905
1e
#30005916
1c
#30006112
1M
#30006138
0\
#30006149
1H
#30006255
0E
#30006288
0O
#30006380
1X
#30006399
1[
#30006447
0d
#30006526
1S
#30006828
0e
#30006956
0N
#30006980
1F
#30007055
1\
#30007271
1P
#30007470
0H
#30007963
0Q
#30008059
1Z
#30008129
0c
#30008590
0[
#30008646
11
1*
#30008657
0S
#30008682
1d
#30009050
1e
#30009283
0\
#30009822
02
0)
#30012880
04
0'
#30013057
16
1%
#30014230
05
0&
#40000000
b111 !
b101 !
b1001 "
b1101 "
b100 !
#40000684
1G
#40000685
1A
#40000799
0<
0:
0?
#40004541
1B
#40004623
1H
#40004691
0d
#40004703
0X
#40004706
0L
#40004709
0P
#40004794
1i
#40004806
1`
#40004809
1T
#40005072
0e
#40005152
0Z
#40005172
0=
#40005202
1Y
#40005234
0C
#40005243
0M
#40005263
1>
#40005288
0F
#40005304
1K
#40005335
0;
#40005347
1j
#40005359
1a
#40005362
1U
#40005374
0T
#40005433
1E
#40005530
1O
#40005611
1W
#40005612
1c
#40005681
0`
#40005682
0i
#40005787
1D
#40005857
1L
#40005898
0>
#40005905
0U
#40005907
0Y
#40005910
1[
#40006003
1k
#40006113
1F
#40006164
1X
#40006165
1d
#40006212
0a
#40006213
0j
#40006360
1b
#40006405
0O
#40006418
0H
#40006533
1e
#40006566
1\
#40006643
1P
#40006662
0[
#40006907
0k
#40007029
0d
#40007148
1i
#40007215
0b
#40007228
1H
#40007309
1Q
#40007315
1Y
#40007355
0\
#40007410
0e
#40007540
0P
#40007701
1j
#40007907
0i
#40007945
1d
#40007965
1S
#40008023
1[
#40008279
0Q
#40008313
1e
#40008357
1k
#40008438
0j
#40008679
1\
#40008912
01
0*
#40008973
0S
#40009035
06
0%
#40009132
0k
#40010594
13
1(
#40012320
16
1%
#40013683
15
1&
#50000000
b101 "
b100 "
b110 "
b101 !
#50000684
1?
1:
#50000799
0R
09
#50004477
0E
#50004481
0B
#50004665
1M
#50004803
1Q
#50004880
1>
#50004955
1E
#50005090
0e
#50005377
1@
#50005416
0D
#50005661
0F
#50005757
1N
#50005827
0W
#50005897
1`
#50006149
0E
#50006358
0X
#50006450
1a
#50006791
0H
#50006850
0N
#50006874
1F
#50006920
1W
#50006990
0`
#50007403
1O
#50007451
1b
#50007473
1X
#50007521
0a
#50007562
0Y
#50007958
0\
#50007989
1H
#50008120
0d
#50008130
1e
#50008239
1i
#50008317
0[
#50008516
1P
#50008524
0b
#50008624
1Y
#50008792
1j
#50008895
1S
#50009003
1\
#50009053
06
0%
#50009208
0Q
#50009216
0i
#50009254
1d
#50009264
0e
#50009304
1Z
#50009374
0c
#50009444
1i
#50009770
12
1)
#50009905
0d
#50013185
14
1'
#60000000
b111 !
b10 "
b110 !
#60000684
1<
#60000799
0:
0G
#60005055
0W
#60005063
0H
#60005120
0O
#60005123
1D
#60005125
1`
#60005126
1[
#60005152
0Z
#60005181
1Q
#60005288
0F
#60005290
0>
#60005586
0X
#60005662
0Y
#60005678
1a
#60005683
0[
#60005778
1E
#60005824
0@
#60006058
0\
#60006417
1[
#60006458
1F
#60006498
1c
#60006568
0i
#60006972
1H
#60007051
1d
#60007099
0j
#60010205
02
0)
#60011005
05
0&
#70000000
b1010 "
b1011 "
b1111 "
b111 !
#70000684
1R
1G
19
1:
#70004082
1B
#70004341
1=
#70004658
1e
#70004666
1\
#70004709
0P
#70004723
1b
#70004830
0Q
#70004902
0F
#70004914
1Z
#70004922
0K
#70004984
0c
#70004986
1N
#70004992
1T
0D
#70005001
1;
#70005120
1C
#70005398
0Z
#70005422
1Q
#70005453
0L
#70005468
1c
#70005511
1i
#70005524
0S
#70005539
1O
#70005545
1U
#70005673
1D
#70005725
0E
#70005990
0M
#70005999
0d
#70006032
0H
#70006064
1j
#70006078
1S
#70006328
1E
#70006380
0e
#70006426
0N
#70006450
1F
#70006558
1V
#70006652
1P
#70006720
1k
#70007034
0F
#70007130
1N
#70007344
0Q
#70007440
1Z
#70007510
0c
#70007661
0O
#70007691
1X
#70007971
0[
#70008038
0S
#70008063
1d
#70008431
1e
#70008646
11
1*
#70008664
0\
#70008796
0P
#70008842
1Y
#70009485
0Z
#70009509
1Q
#70009670
15
1&
#70010165
1S
#70011035
17
1$
#70012029
03
0(
#70012438
16
1%
#70013611
05
0&
#80000000
b1111 !
b1011 !
b1101 "
b1001 !
b1100 "
b1000 "
b1000 !
#80000684
1I
#80000799
0<
0:
0G
0?
09
#80000801
0A
#80004367
0]
#80004368
0f
#80004424
0U
#80004433
0a
#80004481
0B
#80004698
0l
#80004756
0=
#80004763
0j
#80004920
1^
#80004921
1g
#80005014
0;
#80005078
0T
1H
#80005082
0d
#80005112
0X
#80005124
1L
#80005148
1]
#80005153
0b
#80005208
0Q
#80005232
0N
#80005234
0C
#80005251
1m
#80005261
1F
#80005430
0V
#80005457
0k
#80005459
0E
#80005463
0e
#80005534
1[
#80005611
1W
#80005612
1c
#80005613
1K
#80005631
1U
#80005662
0Y
#80005679
0^
#80005681
0`
#80005751
1f
1n
#80005765
0D
#80005845
0i
#80005902
0S
#80005915
1l
#80006144
0L
#80006190
1\
#80006210
0F
#80006234
1a
#80006282
0g
#80006398
1j
#80006417
0[
#80006446
0m
#80006674
0H
#80006980
0n
#80007054
1k
#80007110
0\
#80008591
01
0*
#80009426
06
0%
#80010125
04
0'
#90000000
b1001 "
b1101 "
b1001 !
#90000684
1G
19
1:
#90004081
1J
#90004387
1M
#90004723
1b
#90004751
1L
#90004803
1Q
#90004875
1F
#90004880
1>
#90005001
1;
#90005403
1d
#90005459
1S
#90005510
1O
#90005771
1e
#90005990
1H
#90006623
1P
#90007315
0Q
#90007411
1Z
#90007964
1[
#90008009
0S
#90008620
1\
#90008646
11
1*
#90009778
16
1%
#90011961
13
1(
#90013624
15
1&
