Chapter3/chp3.14/simulation/qsim/BCD_ADDER.msim.vcd
$comment
	File created using the following command:
		vcd file BCD_ADDER.msim.vcd -direction
$end
$date
	Mon Apr 05 22:00:23 2021
$end
$version
	ModelSim Version 10.5b
$end
$timescale
	1ps
$end

$scope module BCD_ADDER_vlg_vec_tst $end
$var reg 8 ! A [7:0] $end
$var reg 8 " B [7:0] $end
$var wire 1 # D [8] $end
$var wire 1 $ D [7] $end
$var wire 1 % D [6] $end
$var wire 1 & D [5] $end
$var wire 1 ' D [4] $end
$var wire 1 ( D [3] $end
$var wire 1 ) D [2] $end
$var wire 1 * D [1] $end
$var wire 1 + D [0] $end

$scope module i1 $end
$var wire 1 , gnd $end
$var wire 1 - vcc $end
$var wire 1 . unknown $end
$var tri1 1 / devclrn $end
$var tri1 1 0 devpor $end
$var tri1 1 1 devoe $end
$var wire 1 2 D[0]~output_o $end
$var wire 1 3 D[1]~output_o $end
$var wire 1 4 D[2]~output_o $end
$var wire 1 5 D[3]~output_o $end
$var wire 1 6 D[4]~output_o $end
$var wire 1 7 D[5]~output_o $end
$var wire 1 8 D[6]~output_o $end
$var wire 1 9 D[7]~output_o $end
$var wire 1 : D[8]~output_o $end
$var wire 1 ; B[0]~input_o $end
$var wire 1 < A[0]~input_o $end
$var wire 1 = Add2~0_combout $end
$var wire 1 > B[2]~input_o $end
$var wire 1 ? A[2]~input_o $end
$var wire 1 @ A[1]~input_o $end
$var wire 1 A B[1]~input_o $end
$var wire 1 B Add2~1 $end
$var wire 1 C DT0[1]~1 $end
$var wire 1 D DT0[2]~2_combout $end
$var wire 1 E DT0[1]~0_combout $end
$var wire 1 F B[3]~input_o $end
$var wire 1 G A[3]~input_o $end
$var wire 1 H DT0[2]~3 $end
$var wire 1 I DT0[3]~5 $end
$var wire 1 J Add2~2_combout $end
$var wire 1 K DT0[3]~4_combout $end
$var wire 1 L D~0_combout $end
$var wire 1 M D~1_combout $end
$var wire 1 N D~2_combout $end
$var wire 1 O B[4]~input_o $end
$var wire 1 P A[4]~input_o $end
$var wire 1 Q LessThan0~0_combout $end
$var wire 1 R Add3~1_cout $end
$var wire 1 S Add3~2_combout $end
$var wire 1 T A[7]~input_o $end
$var wire 1 U B[7]~input_o $end
$var wire 1 V B[6]~input_o $end
$var wire 1 W A[6]~input_o $end
$var wire 1 X A[5]~input_o $end
$var wire 1 Y B[5]~input_o $end
$var wire 1 Z Add3~3 $end
$var wire 1 [ Add3~5 $end
$var wire 1 \ Add3~7 $end
$var wire 1 ] Add3~8_combout $end
$var wire 1 ^ Add3~6_combout $end
$var wire 1 _ Add3~9 $end
$var wire 1 ` Add3~10_combout $end
$var wire 1 a Add3~4_combout $end
$var wire 1 b D~3_combout $end
$var wire 1 c D~4_combout $end
$var wire 1 d D~5_combout $end
$var wire 1 e LessThan1~0_combout $end
$upscope $end
$upscope $end
$enddefinitions $end
#0
$dumpvars
b11110101 !
b1000000 "
x+
x*
x)
x(
x'
x&
x%
x$
x#
0,
1-
x.
1/
10
11
x2
x3
x4
x5
x6
x7
x8
x9
x:
0;
1<
x=
0>
1?
0@
0A
xB
xC
xD
xE
0F
0G
xH
xI
xJ
xK
xL
xM
xN
0O
1P
xQ
xR
xS
1T
0U
1V
1W
1X
0Y
xZ
x[
x\
x]
x^
x_
x`
xa
xb
xc
xd
xe
$end
#4362
0\
#4435
1_
#4473
1I
#4663
0B
#4695
1=
#4740
1C
#4813
0H
#4939
0]
#5042
1`
#5050
0J
#5240
0E
#5347
1D
#5390
0K
#5623
0e
#5860
1Q
#5862
1L
#5863
1M
#6071
0N
#8374
0R
#8447
1Z
#8520
0[
#8981
1S
#9054
1a
#9097
0^
#9497
1d
#9499
1b
#9714
05
0(
#9821
1:
1#
#9934
0c
#10187
03
0*
#10262
12
1+
#10428
14
1)
#13408
07
0&
#13457
19
1$
#13721
08
0%
#14964
16
1'
#10000000
b11010101 !
b11010111 !
b1000001 "
#10000764
1@
1;
#10000812
0X
#10002129
0a
#10002578
0d
#10002580
0b
#10002600
1c
#10005246
1E
#10005407
0=
#10005487
1B
#10005560
0C
#10005633
1H
#10006049
0L
#10006064
0E
#10006137
0D
#10006240
1K
#10006391
17
1&
#10006437
09
0$
#10006491
18
1%
#10006685
1N
#10006908
1L
#10006972
0M
#10010469
15
1(
#10010882
02
0+
#10011309
04
0)
#20000000
b10010111 !
b10011111 !
b10011011 !
b10011010 !
b1000011 "
b10111010 !
b1000010 "
#20000764
1G
1A
#20000766
1X
#20000811
0?
0<
0;
#20000812
0W
#20002023
1a
#20002444
0c
#20002466
1d
#20002468
1b
#20004583
0I
#20004658
0K
#20005028
1E
#20005100
0H
#20005109
0N
#20005151
1D
#20005173
1I
#20005296
0B
#20005414
1^
#20005485
1\
#20005558
0_
#20005707
1K
#20005831
0L
#20005873
0E
#20005933
1M
#20006092
1]
#20006127
0Q
#20006135
0`
#20006151
1L
#20006192
1c
#20006231
08
0%
#20006377
07
0&
#20006426
19
1$
#20006686
0M
#20006719
0L
#20006755
0d
#20008559
1R
#20008632
0Z
#20008705
1[
#20008752
05
0(
#20008778
0\
#20008851
1_
#20009136
0S
#20009209
0a
#20009282
0^
#20009355
0]
#20009458
1`
#20009658
0c
#20010041
0b
#20010048
1c
#20010083
18
1%
#20010614
09
0$
#20010821
13
1*
#20013852
17
1&
#20015084
06
0'
#30000000
b10101010 !
b10101000 !
b11101000 !
b11101001 !
b1000011 "
#30000764
1<
1;
#30000766
1W
#30000811
0@
#30000812
0P
#30004911
1S
#30004982
1Z
#30005055
0[
#30005480
1E
#30005487
1B
#30005589
1a
#30006010
0c
#30006032
1d
#30006034
1b
#30006064
0E
#30006228
1M
#30006281
1L
#30006877
0M
#30006910
0L
#30009797
08
0%
#30009943
07
0&
#30009992
19
1$
#30010894
16
1'
#40000000
b1101001 !
b1000111 "
b1000101 "
b1111001 !
b1111011 !
b111011 !
b111010 !
b1000100 "
#40000764
1@
1>
#40000766
1P
#40000811
0T
0<
0A
0;
#40000812
0W
#40004597
0Z
#40004670
1[
#40004672
0S
#40005069
0D
#40005168
1H
#40005174
0a
#40005241
0I
#40005253
0_
#40005296
0B
#40005308
1]
#40005369
1C
#40005442
0H
#40005515
1I
#40005623
0d
#40005625
0b
#40005645
1c
#40005823
1L
#40005830
0`
#40005849
1Q
#40005885
1N
#40005903
1E
#40005976
1D
#40006301
1d
#40006449
0c
#40006461
1e
#40006463
1b
#40006479
0Q
#40006623
0N
#40006758
1M
#40010148
03
0*
#40010620
06
0'
#40010748
0:
0#
#40011323
14
1)
#50000000
b11010 !
b10011010 !
b10001010 !
b10001000 !
b11001000 !
b1000101 "
#50000764
1T
1;
#50000766
1W
#50000811
0@
#50000812
0X
0P
#50002092
0[
#50002147
1a
#50002165
1\
#50002568
0d
#50002569
0e
#50002699
1^
#50002742
0]
#50003477
1c
#50003741
1e
#50003752
0b
#50004911
1S
#50004982
1Z
#50005013
1]
#50005128
0\
#50005201
1_
#50005203
0^
#50005383
1=
#50005490
0E
#50005559
0a
#50005705
0]
#50005808
1`
#50006020
1b
#50006030
1d
#50006040
0c
#50006303
0M
#50006336
0L
#50006389
0e
#50006391
0b
#50006398
1c
#50006427
09
0$
#50006701
0d
#50007368
18
1%
#50007563
17
1&
#50010438
13
1*
#50010587
1:
1#
#50010640
04
0)
#50010894
16
1'
#50010950
12
1+
#60000000
b11001100 !
b1000111 "
b11011100 !
b1000110 "
#60000764
1?
1A
#60000766
1P
#60000811
0;
#60004597
0Z
#60004672
0S
#60004878
0D
#60004991
1H
#60005028
1E
#60005064
0I
#60005204
1a
#60005530
0=
#60005568
0K
#60005625
0c
#60005632
1L
#60005647
1d
#60005649
1b
#60005671
1J
#60006038
1Q
#60006282
1N
#60009412
08
0%
#60009558
07
0&
#60009607
19
1$
#60009957
03
0*
#60010066
15
1(
#60010620
06
0'
#60011005
02
0+
#70000000
b11010100 !
b11010101 !
b11110101 !
b11110111 !
b1000111 "
#70000764
1@
1<
1;
#70000766
1X
#70000811
0G
#70002005
0a
#70002104
1[
#70002454
0d
#70002456
0b
#70002476
1c
#70002711
1^
#70003503
0c
#70003510
1d
#70004909
1K
#70004980
1I
#70005181
0C
#70005256
0E
#70005329
0Q
#70005332
0N
#70005487
1B
#70005557
0J
#70005788
1D
#70005888
1Q
#70006063
1N
#70006094
1E
#70006267
17
1&
#70006512
0N
#70006513
0Q
#70006842
1M
#70007935
0R
#70008008
1Z
#70008081
0[
#70008542
1S
#70008615
1a
#70008658
0^
#70008945
1R
#70008975
05
0(
#70009018
0Z
#70009060
1b
#70009091
1[
#70009522
0S
#70009595
0a
#70009698
1^
#70010046
0b
#70011407
14
1)
#80000000
b1001111 "
b1001011 "
b11110011 !
b1001001 "
b11111011 !
b11011011 !
b11011001 !
b1001000 "
#80000764
1F
1G
#80000811
0>
0A
0;
0?
0@
#80000812
0X
#80002092
0[
#80002147
1a
#80002590
1c
#80002592
1b
#80002669
0^
#80003506
0c
#80004583
0I
#80005190
1J
#80005232
0H
#80005474
0B
#80005506
1=
#80005551
1C
#80005809
0K
#80006051
0E
#80006128
0D
#80006279
1Q
#80006282
1N
#80006501
07
0&
#80006897
0L
#80006904
0N
#80010999
13
1*
#80011073
12
1+
#90000000
b11011000 !
b11010000 !
b11010010 !
b1001001 "
#90000764
1@
1;
#90000811
0G
0<
#90004909
1K
#90004980
1I
#90005246
1E
#90005354
1N
#90005557
0J
#90005822
0Q
#90005966
0N
#90006016
0M
#90006047
1L
#90010353
04
0)
#90010372
03
0*
