LabSimulation/DAC/simulation/qsim/DAC.msim.vcd
$comment
	File created using the following command:
		vcd file DAC.msim.vcd -direction
$end
$date
	Mon Jun 07 17:29:43 2021
$end
$version
	ModelSim Version 10.5b
$end
$timescale
	1ps
$end

$scope module DAC_vlg_vec_tst $end
$var reg 1 ! clk $end
$var reg 1 " sel0 $end
$var reg 1 # sel1 $end
$var wire 1 $ data [7] $end
$var wire 1 % data [6] $end
$var wire 1 & data [5] $end
$var wire 1 ' data [4] $end
$var wire 1 ( data [3] $end
$var wire 1 ) data [2] $end
$var wire 1 * data [1] $end
$var wire 1 + data [0] $end

$scope module i1 $end
$var wire 1 , gnd $end
$var wire 1 - vcc $end
$var wire 1 . unknown $end
$var tri1 1 / devclrn $end
$var tri1 1 0 devpor $end
$var tri1 1 1 devoe $end
$var wire 1 2 data[7]~output_o $end
$var wire 1 3 data[6]~output_o $end
$var wire 1 4 data[5]~output_o $end
$var wire 1 5 data[4]~output_o $end
$var wire 1 6 data[3]~output_o $end
$var wire 1 7 data[2]~output_o $end
$var wire 1 8 data[1]~output_o $end
$var wire 1 9 data[0]~output_o $end
$var wire 1 : clk~input_o $end
$var wire 1 ; clk~inputclkctrl_outclk $end
$var wire 1 < inst1|LPM_COUNTER_component|auto_generated|counter_comb_bita0~combout $end
$var wire 1 = inst1|LPM_COUNTER_component|auto_generated|counter_comb_bita0~COUT $end
$var wire 1 > inst1|LPM_COUNTER_component|auto_generated|counter_comb_bita1~combout $end
$var wire 1 ? inst1|LPM_COUNTER_component|auto_generated|counter_comb_bita1~COUT $end
$var wire 1 @ inst1|LPM_COUNTER_component|auto_generated|counter_comb_bita2~combout $end
$var wire 1 A inst1|LPM_COUNTER_component|auto_generated|counter_comb_bita2~COUT $end
$var wire 1 B inst1|LPM_COUNTER_component|auto_generated|counter_comb_bita3~combout $end
$var wire 1 C inst1|LPM_COUNTER_component|auto_generated|counter_comb_bita3~COUT $end
$var wire 1 D inst1|LPM_COUNTER_component|auto_generated|counter_comb_bita4~combout $end
$var wire 1 E inst1|LPM_COUNTER_component|auto_generated|counter_comb_bita4~COUT $end
$var wire 1 F inst1|LPM_COUNTER_component|auto_generated|counter_comb_bita5~combout $end
$var wire 1 G sel0~input_o $end
$var wire 1 H sel1~input_o $end
$var wire 1 I inst|altsyncram_component|auto_generated|q_a [7] $end
$var wire 1 J inst|altsyncram_component|auto_generated|q_a [6] $end
$var wire 1 K inst|altsyncram_component|auto_generated|q_a [5] $end
$var wire 1 L inst|altsyncram_component|auto_generated|q_a [4] $end
$var wire 1 M inst|altsyncram_component|auto_generated|q_a [3] $end
$var wire 1 N inst|altsyncram_component|auto_generated|q_a [2] $end
$var wire 1 O inst|altsyncram_component|auto_generated|q_a [1] $end
$var wire 1 P inst|altsyncram_component|auto_generated|q_a [0] $end
$var wire 1 Q inst1|LPM_COUNTER_component|auto_generated|counter_reg_bit [5] $end
$var wire 1 R inst1|LPM_COUNTER_component|auto_generated|counter_reg_bit [4] $end
$var wire 1 S inst1|LPM_COUNTER_component|auto_generated|counter_reg_bit [3] $end
$var wire 1 T inst1|LPM_COUNTER_component|auto_generated|counter_reg_bit [2] $end
$var wire 1 U inst1|LPM_COUNTER_component|auto_generated|counter_reg_bit [1] $end
$var wire 1 V inst1|LPM_COUNTER_component|auto_generated|counter_reg_bit [0] $end
$var wire 1 W inst|altsyncram_component|auto_generated|ram_block1a0_PORTADATAOUT_bus [17] $end
$var wire 1 X inst|altsyncram_component|auto_generated|ram_block1a0_PORTADATAOUT_bus [16] $end
$var wire 1 Y inst|altsyncram_component|auto_generated|ram_block1a0_PORTADATAOUT_bus [15] $end
$var wire 1 Z inst|altsyncram_component|auto_generated|ram_block1a0_PORTADATAOUT_bus [14] $end
$var wire 1 [ inst|altsyncram_component|auto_generated|ram_block1a0_PORTADATAOUT_bus [13] $end
$var wire 1 \ inst|altsyncram_component|auto_generated|ram_block1a0_PORTADATAOUT_bus [12] $end
$var wire 1 ] inst|altsyncram_component|auto_generated|ram_block1a0_PORTADATAOUT_bus [11] $end
$var wire 1 ^ inst|altsyncram_component|auto_generated|ram_block1a0_PORTADATAOUT_bus [10] $end
$var wire 1 _ inst|altsyncram_component|auto_generated|ram_block1a0_PORTADATAOUT_bus [9] $end
$var wire 1 ` inst|altsyncram_component|auto_generated|ram_block1a0_PORTADATAOUT_bus [8] $end
$var wire 1 a inst|altsyncram_component|auto_generated|ram_block1a0_PORTADATAOUT_bus [7] $end
$var wire 1 b inst|altsyncram_component|auto_generated|ram_block1a0_PORTADATAOUT_bus [6] $end
$var wire 1 c inst|altsyncram_component|auto_generated|ram_block1a0_PORTADATAOUT_bus [5] $end
$var wire 1 d inst|altsyncram_component|auto_generated|ram_block1a0_PORTADATAOUT_bus [4] $end
$var wire 1 e inst|altsyncram_component|auto_generated|ram_block1a0_PORTADATAOUT_bus [3] $end
$var wire 1 f inst|altsyncram_component|auto_generated|ram_block1a0_PORTADATAOUT_bus [2] $end
$var wire 1 g inst|altsyncram_component|auto_generated|ram_block1a0_PORTADATAOUT_bus [1] $end
$var wire 1 h inst|altsyncram_component|auto_generated|ram_block1a0_PORTADATAOUT_bus [0] $end
$upscope $end
$upscope $end
$enddefinitions $end
#0
$dumpvars
0!
0"
0#
x+
x*
x)
x(
x'
x&
x%
x$
0,
1-
x.
1/
10
11
x2
x3
x4
x5
x6
x7
x8
x9
0:
x;
x<
x=
x>
x?
x@
xA
xB
xC
xD
xE
xF
0G
0H
0P
0O
0N
0M
0L
0K
0J
0I
0V
0U
0T
0S
0R
0Q
0h
0g
0f
0e
0d
0c
0b
0a
0`
0_
0^
0]
0\
0[
0Z
0Y
0X
0W
$end
#208
0;
#858
0E
#859
0A
#863
0=
#918
1<
#1002
1C
1?
#1435
0F
#1436
0B
#1440
0>
#1579
0@
0D
#4023
03
0%
#4027
02
0$
#4311
06
0(
#4343
05
0'
#4360
04
0&
#4370
09
0+
#4381
07
0)
#4399
08
0*
#125000
1!
#125766
1:
#125988
1;
#127848
1V
#128683
0<
#128763
1=
#129370
1>
#250000
0!
#250812
0:
#251020
0;
#375000
1!
#375766
1:
#375988
1;
#377848
0V
1U
#378347
1a
1I
#378630
0?
#378696
0>
#378711
0=
#378766
1<
#378784
1?
#379318
1>
#382551
12
1$
#500000
0!
#500812
0:
#501020
0;
#625000
1!
#625766
1:
#625988
1;
#627848
1V
#628347
1f
1e
1M
1N
#628683
0<
#628763
1=
#628836
0?
#629340
0>
#629443
1@
#632855
16
1(
#632948
17
1)
#750000
0!
#750812
0:
#751020
0;
#875000
1!
#875766
1:
#875988
1;
#877848
0V
0U
1T
#878347
0f
1d
1L
0N
#878682
0@
#878711
0=
#878766
1<
#878774
1A
#878850
1?
#878923
0A
#879457
1@
#882728
07
0)
#882883
15
1'
#1000000
0!
#1000812
0:
#1001020
0;
#1125000
1!
#1125766
1:
#1125988
1;
#1127848
1V
#1128347
1h
1f
0e
0d
1c
1K
0L
0M
1N
1P
#1128683
0<
#1128763
1=
#1129370
1>
#1132658
06
0(
#1132690
05
0'
#1132913
14
1&
#1132937
19
1+
#1132948
17
1)
#1250000
0!
#1250812
0:
#1251020
0;
#1375000
1!
#1375766
1:
#1375988
1;
#1377848
0V
1U
#1378347
0h
0f
1d
1L
0N
0P
#1378630
0?
#1378696
0>
#1378703
1A
#1378711
0=
#1378766
1<
#1378784
1?
#1378857
0A
#1379318
1>
#1382717
09
0+
#1382728
07
0)
#1382883
15
1'
#1500000
0!
#1500812
0:
#1501020
0;
#1625000
1!
#1625766
1:
#1625988
1;
#1627848
1V
#1628347
1f
1e
1M
1N
#1628683
0<
#1628763
1=
#1628836
0?
#1628909
1A
#1629340
0>
#1629413
0@
#1629516
1B
#1632855
16
1(
#1632948
17
1)
#1750000
0!
#1750812
0:
#1751020
0;
#1875000
1!
#1875766
1:
#1875988
1;
#1877848
0V
0U
0T
1S
#1878347
1g
0e
0d
0c
1b
1J
0K
0L
0M
1O
#1878630
0C
#1878696
0B
#1878707
0A
#1878711
0=
#1878758
1@
#1878766
1<
#1878780
1C
#1878850
1?
#1879314
1B
#1879427
0@
#1882561
13
1%
#1882658
06
0(
#1882690
05
0'
#1882707
04
0&
#1882951
18
1*
#2000000
0!
#2000812
0:
#2001020
0;
#2125000
1!
#2125766
1:
#2125988
1;
#2127848
1V
#2128347
0g
0f
1d
1L
0N
0O
#2128683
0<
#2128763
1=
#2129370
1>
#2132728
07
0)
#2132746
08
0*
#2132883
15
1'
#2250000
0!
#2250812
0:
#2251020
0;
#2375000
1!
#2375766
1:
#2375988
1;
#2377848
0V
1U
#2378347
1g
1e
1M
1O
#2378630
0?
#2378696
0>
#2378711
0=
#2378766
1<
#2378784
1?
#2379318
1>
#2382855
16
1(
#2382951
18
1*
#2500000
0!
#2500812
0:
#2501020
0;
#2625000
1!
#2625766
1:
#2625988
1;
#2627848
1V
#2628347
0e
0d
1c
1K
0L
0M
#2628683
0<
#2628763
1=
#2628836
0?
#2629340
0>
#2629443
1@
#2632658
06
0(
#2632690
05
0'
#2632913
14
1&
#2750000
0!
#2750812
0:
#2751020
0;
#2875000
1!
#2875766
1:
#2875988
1;
#2877848
0V
0U
1T
#2878347
1e
1M
#2878682
0@
#2878711
0=
#2878766
1<
#2878774
1A
#2878847
0C
#2878850
1?
#2878923
0A
#2878996
1C
#2879457
1@
#2882855
16
1(
#3000000
0!
#3000812
0:
#3001020
0;
#3125000
1!
#3125766
1:
#3125988
1;
#3127848
1V
#3128347
0g
0e
1d
1L
0M
0O
#3128683
0<
#3128763
1=
#3129370
1>
#3132658
06
0(
#3132746
08
0*
#3132883
15
1'
#3250000
0!
#3250812
0:
#3251020
0;
#3375000
1!
#3375766
1:
#3375988
1;
#3377848
0V
1U
#3378347
1h
1f
1N
1P
#3378630
0?
#3378696
0>
#3378703
1A
#3378711
0=
#3378766
1<
#3378776
0C
#3378784
1?
#3378857
0A
#3378930
1C
#3379318
1>
#3382937
19
1+
#3382948
17
1)
#3500000
0!
#3500812
0:
#3501020
0;
#3625000
1!
#3625766
1:
#3625988
1;
#3627848
1V
#3628347
0h
1g
0f
1e
1M
0N
1O
0P
#3628683
0<
#3628763
1=
#3628836
0?
#3628909
1A
#3628982
0C
#3629340
0>
#3629413
0@
#3629486
0B
#3629589
1D
#3632717
09
0+
#3632728
07
0)
#3632855
16
1(
#3632951
18
1*
#3750000
0!
#3750812
0:
#3751020
0;
#3875000
1!
#3875766
1:
#3875988
1;
#3877848
0V
0U
0T
0S
1R
#3878347
1h
0g
1f
1N
0O
1P
#3878682
0D
#3878707
0A
#3878711
0=
#3878758
1@
#3878766
1<
#3878774
1E
#3878850
1?
1C
#3878923
0E
#3879427
0@
#3879457
1D
#3882746
08
0*
#3882937
19
1+
#3882948
17
1)
#4000000
0!
#4000812
0:
#4001020
0;
#4125000
1!
#4125766
1:
#4125988
1;
#4127848
1V
#4128347
0h
1g
1O
0P
#4128683
0<
#4128763
1=
#4129370
1>
#4132717
09
0+
#4132951
18
1*
#4250000
0!
#4250812
0:
#4251020
0;
#4375000
1!
#4375766
1:
#4375988
1;
#4377848
0V
1U
#4378347
1h
1P
#4378630
0?
#4378696
0>
#4378711
0=
#4378766
1<
#4378784
1?
#4379318
1>
#4382937
19
1+
#4500000
0!
#4500812
0:
#4501020
0;
#4625000
1!
#4625766
1:
#4625988
1;
#4627848
1V
#4628347
0h
0P
#4628683
0<
#4628763
1=
#4628836
0?
#4629340
0>
#4629443
1@
#4632717
09
0+
#4750000
0!
#4750812
0:
#4751020
0;
#4875000
1!
#4875766
1:
#4875988
1;
#4877848
0V
0U
1T
#4878347
1h
0g
0O
1P
#4878682
0@
#4878711
0=
#4878766
1<
#4878774
1A
#4878850
1?
#4878923
0A
#4879457
1@
#4882746
08
0*
#4882937
19
1+
#5000000
0!
#5000812
0:
#5001020
0;
#5125000
1!
#5125766
1:
#5125988
1;
#5127848
1V
#5128347
0h
1g
0f
0N
1O
0P
#5128683
0<
#5128763
1=
#5129370
1>
#5132717
09
0+
#5132728
07
0)
#5132951
18
1*
#5250000
0!
#5250812
0:
#5251020
0;
#5375000
1!
#5375766
1:
#5375988
1;
#5377848
0V
1U
#5378347
1h
0g
1f
0e
0M
1N
0O
1P
#5378630
0?
#5378696
0>
#5378703
1A
#5378711
0=
#5378766
1<
#5378784
1?
#5378857
0A
#5379318
1>
#5382658
06
0(
#5382746
08
0*
#5382937
19
1+
#5382948
17
1)
#5500000
0!
#5500812
0:
#5501020
0;
#5625000
1!
#5625766
1:
#5625988
1;
#5627848
1V
#5628347
0h
0f
0N
0P
#5628683
0<
#5628763
1=
#5628836
0?
#5628909
1A
#5629340
0>
#5629413
0@
#5629516
1B
#5632717
09
0+
#5632728
07
0)
#5750000
0!
#5750812
0:
#5751020
0;
#5875000
1!
#5875766
1:
#5875988
1;
#5877848
0V
0U
0T
1S
#5878347
1g
1e
0d
0L
1M
1O
#5878630
0C
#5878696
0B
#5878703
1E
#5878707
0A
#5878711
0=
#5878758
1@
#5878766
1<
#5878780
1C
#5878850
1?
#5878853
0E
#5879314
1B
#5879427
0@
#5882690
05
0'
#5882855
16
1(
#5882951
18
1*
#6000000
0!
#6000812
0:
#6001020
0;
#6125000
1!
#6125766
1:
#6125988
1;
#6127848
1V
#6128347
0e
0M
#6128683
0<
#6128763
1=
#6129370
1>
#6132658
06
0(
#6250000
0!
#6250812
0:
#6251020
0;
#6375000
1!
#6375766
1:
#6375988
1;
#6377848
0V
1U
#6378347
1e
1d
0c
0K
1L
1M
#6378630
0?
#6378696
0>
#6378711
0=
#6378766
1<
#6378784
1?
#6379318
1>
#6382707
04
0&
#6382855
16
1(
#6382883
15
1'
#6500000
0!
#6500812
0:
#6501020
0;
#6625000
1!
#6625766
1:
#6625988
1;
#6627848
1V
#6628347
0g
0e
0M
0O
#6628683
0<
#6628763
1=
#6628836
0?
#6629340
0>
#6629443
1@
#6632658
06
0(
#6632746
08
0*
#6750000
0!
#6750812
0:
#6751020
0;
#6875000
1!
#6875766
1:
#6875988
1;
#6877848
0V
0U
1T
#6878347
1g
1f
0d
0L
1N
1O
#6878682
0@
#6878711
0=
#6878766
1<
#6878774
1A
#6878847
0C
#6878850
1?
#6878920
1E
#6878923
0A
#6878996
1C
#6879069
0E
#6879457
1@
#6882690
05
0'
#6882948
17
1)
#6882951
18
1*
#7000000
0!
#7000812
0:
#7001020
0;
#7125000
1!
#7125766
1:
#7125988
1;
#7127848
1V
#7128347
0g
1e
1d
1c
0b
0J
1K
1L
1M
0O
#7128683
0<
#7128763
1=
#7129370
1>
#7132370
03
0%
#7132746
08
0*
#7132855
16
1(
#7132883
15
1'
#7132913
14
1&
#7250000
0!
#7250812
0:
#7251020
0;
#7375000
1!
#7375766
1:
#7375988
1;
#7377848
0V
1U
#7378347
0f
0e
0M
0N
#7378630
0?
#7378696
0>
#7378703
1A
#7378711
0=
#7378766
1<
#7378776
0C
#7378784
1?
#7378849
1E
#7378857
0A
#7378930
1C
#7379003
0E
#7379318
1>
#7382658
06
0(
#7382728
07
0)
#7500000
0!
#7500812
0:
#7501020
0;
#7625000
1!
#7625766
1:
#7625988
1;
#7627848
1V
#7628347
1h
1f
0d
0L
1N
1P
#7628683
0<
#7628763
1=
#7628836
0?
#7628909
1A
#7628982
0C
#7629055
1E
#7629340
0>
#7629413
0@
#7629486
0B
#7629559
0D
#7629662
1F
#7632690
05
0'
#7632937
19
1+
#7632948
17
1)
#7750000
0!
#7750812
0:
#7751020
0;
#7875000
1!
#7875766
1:
#7875988
1;
#7877848
0V
0U
0T
0S
0R
1Q
#7878347
0h
0f
1e
1d
0c
0K
1L
1M
0N
0P
#7878694
0F
#7878706
0E
#7878707
0A
#7878711
0=
#7878757
1D
#7878758
1@
#7878766
1<
#7878850
1?
1C
#7879313
1F
#7879427
0D
0@
#7882707
04
0&
#7882717
09
0+
#7882728
07
0)
#7882855
16
1(
#7882883
15
1'
#8000000
0!
#8000812
0:
#8001020
0;
#8125000
1!
#8125766
1:
#8125988
1;
#8127848
1V
#8128347
1f
0d
0L
1N
#8128683
0<
#8128763
1=
#8129370
1>
#8132690
05
0'
#8132948
17
1)
#8250000
0!
#8250812
0:
#8251020
0;
#8375000
1!
#8375766
1:
#8375988
1;
#8377848
0V
1U
#8378347
1h
1g
1d
1c
1b
0a
0I
1J
1K
1L
1O
1P
#8378630
0?
#8378696
0>
#8378711
0=
#8378766
1<
#8378784
1?
#8379318
1>
#8382374
02
0$
#8382561
13
1%
#8382883
15
1'
#8382913
14
1&
#8382937
19
1+
#8382951
18
1*
#8500000
0!
#8500812
0:
#8501020
0;
#8625000
1!
#8625766
1:
#8625988
1;
#8627848
1V
#8628347
0f
0e
0M
0N
#8628683
0<
#8628763
1=
#8628836
0?
#8629340
0>
#8629443
1@
#8632658
06
0(
#8632728
07
0)
#8750000
0!
#8750812
0:
#8751020
0;
#8875000
1!
#8875766
1:
#8875988
1;
#8877848
0V
0U
1T
#8878347
1f
0d
0L
1N
#8878682
0@
#8878711
0=
#8878766
1<
#8878774
1A
#8878850
1?
#8878923
0A
#8879457
1@
#8882690
05
0'
#8882948
17
1)
#9000000
0!
#9000812
0:
#9001020
0;
#9125000
1!
#9125766
1:
#9125988
1;
#9127848
1V
#9128347
0h
0f
1e
1d
0c
0K
1L
1M
0N
0P
#9128683
0<
#9128763
1=
#9129370
1>
#9132707
04
0&
#9132717
09
0+
#9132728
07
0)
#9132855
16
1(
#9132883
15
1'
#9250000
0!
#9250812
0:
#9251020
0;
#9375000
1!
#9375766
1:
#9375988
1;
#9377848
0V
1U
#9378347
1h
1f
0d
0L
1N
1P
#9378630
0?
#9378696
0>
#9378703
1A
#9378711
0=
#9378766
1<
#9378784
1?
#9378857
0A
#9379318
1>
#9382690
05
0'
#9382937
19
1+
#9382948
17
1)
#9500000
0!
#9500812
0:
#9501020
0;
#9625000
1!
#9625766
1:
#9625988
1;
#9627848
1V
#9628347
0f
0e
0M
0N
#9628683
0<
#9628763
1=
#9628836
0?
#9628909
1A
#9629340
0>
#9629413
0@
#9629516
1B
#9632658
06
0(
#9632728
07
0)
#9750000
0!
#9750812
0:
#9751020
0;
#9875000
1!
#9875766
1:
#9875988
1;
#9877848
0V
0U
0T
1S
#9878347
0g
1e
1d
1c
0b
0J
1K
1L
1M
0O
#9878630
0C
#9878696
0B
#9878707
0A
#9878711
0=
#9878758
1@
#9878766
1<
#9878780
1C
#9878850
1?
#9879314
1B
#9879427
0@
#9882370
03
0%
#9882746
08
0*
#9882855
16
1(
#9882883
15
1'
#9882913
14
1&
#10000000
0!
#10000812
0:
#10001020
0;
#10125000
1!
#10125766
1:
#10125988
1;
#10127848
1V
#10128347
1g
1f
0d
0L
1N
1O
#10128683
0<
#10128763
1=
#10129370
1>
#10132690
05
0'
#10132948
17
1)
#10132951
18
1*
#10250000
0!
#10250812
0:
#10251020
0;
#10375000
1!
#10375766
1:
#10375988
1;
#10377848
0V
1U
#10378347
0g
0e
0M
0O
#10378630
0?
#10378696
0>
#10378711
0=
#10378766
1<
#10378784
1?
#10379318
1>
#10382658
06
0(
#10382746
08
0*
#10500000
0!
#10500812
0:
#10501020
0;
#10625000
1!
#10625766
1:
#10625988
1;
#10627848
1V
#10628347
1e
1d
0c
0K
1L
1M
#10628683
0<
#10628763
1=
#10628836
0?
#10629340
0>
#10629443
1@
#10632707
04
0&
#10632855
16
1(
#10632883
15
1'
#10750000
0!
#10750812
0:
#10751020
0;
#10875000
1!
#10875766
1:
#10875988
1;
#10877848
0V
0U
1T
#10878347
0e
0M
#10878682
0@
#10878711
0=
#10878766
1<
#10878774
1A
#10878847
0C
#10878850
1?
#10878923
0A
#10878996
1C
#10879457
1@
#10882658
06
0(
#11000000
0!
#11000812
0:
#11001020
0;
#11125000
1!
#11125766
1:
#11125988
1;
#11127848
1V
#11128347
1g
1e
0d
0L
1M
1O
#11128683
0<
#11128763
1=
#11129370
1>
#11132690
05
0'
#11132855
16
1(
#11132951
18
1*
#11250000
0!
#11250812
0:
#11251020
0;
#11375000
1!
#11375766
1:
#11375988
1;
#11377848
0V
1U
#11378347
0h
0f
0N
0P
#11378630
0?
#11378696
0>
#11378703
1A
#11378711
0=
#11378766
1<
#11378776
0C
#11378784
1?
#11378857
0A
#11378930
1C
#11379318
1>
#11382717
09
0+
#11382728
07
0)
#11500000
0!
#11500812
0:
#11501020
0;
#11625000
1!
#11625766
1:
#11625988
1;
#11627848
1V
#11628347
1h
0g
1f
0e
0M
1N
0O
1P
#11628683
0<
#11628763
1=
#11628836
0?
#11628909
1A
#11628982
0C
#11629340
0>
#11629413
0@
#11629486
0B
#11629589
1D
#11632658
06
0(
#11632746
08
0*
#11632937
19
1+
#11632948
17
1)
#11750000
0!
#11750812
0:
#11751020
0;
#11875000
1!
#11875766
1:
#11875988
1;
#11877848
0V
0U
0T
0S
1R
#11878347
0h
1g
0f
0N
1O
0P
#11878682
0D
#11878707
0A
#11878711
0=
#11878758
1@
#11878766
1<
#11878774
1E
#11878850
1?
1C
#11878923
0E
#11879427
0@
#11879457
1D
#11882717
09
0+
#11882728
07
0)
#11882951
18
1*
#12000000
0!
#12000812
0:
#12001020
0;
#12125000
1!
#12125766
1:
#12125988
1;
#12127848
1V
#12128347
1h
0g
0O
1P
#12128683
0<
#12128763
1=
#12129370
1>
#12132746
08
0*
#12132937
19
1+
#12250000
0!
#12250812
0:
#12251020
0;
#12375000
1!
#12375766
1:
#12375988
1;
#12377848
0V
1U
#12378347
0h
0P
#12378630
0?
#12378696
0>
#12378711
0=
#12378766
1<
#12378784
1?
#12379318
1>
#12382717
09
0+
#12500000
0!
#12500812
0:
#12501020
0;
#12625000
1!
#12625766
1:
#12625988
1;
#12627848
1V
#12628347
1h
1P
#12628683
0<
#12628763
1=
#12628836
0?
#12629340
0>
#12629443
1@
#12632937
19
1+
#12750000
0!
#12750812
0:
#12751020
0;
#12875000
1!
#12875766
1:
#12875988
1;
#12877848
0V
0U
1T
#12878347
0h
1g
1O
0P
#12878682
0@
#12878711
0=
#12878766
1<
#12878774
1A
#12878850
1?
#12878923
0A
#12879457
1@
#12882717
09
0+
#12882951
18
1*
#13000000
0!
#13000812
0:
#13001020
0;
#13125000
1!
#13125766
1:
#13125988
1;
#13127848
1V
#13128347
1h
0g
1f
1N
0O
1P
#13128683
0<
#13128763
1=
#13129370
1>
#13132746
08
0*
#13132937
19
1+
#13132948
17
1)
#13250000
0!
#13250812
0:
#13251020
0;
#13375000
1!
#13375766
1:
#13375988
1;
#13377848
0V
1U
#13378347
0h
1g
0f
1e
1M
0N
1O
0P
#13378630
0?
#13378696
0>
#13378703
1A
#13378711
0=
#13378766
1<
#13378784
1?
#13378857
0A
#13379318
1>
#13382717
09
0+
#13382728
07
0)
#13382855
16
1(
#13382951
18
1*
#13500000
0!
#13500812
0:
#13501020
0;
#13625000
1!
#13625766
1:
#13625988
1;
#13627848
1V
#13628347
1h
1f
1N
1P
#13628683
0<
#13628763
1=
#13628836
0?
#13628909
1A
#13629340
0>
#13629413
0@
#13629516
1B
#13632937
19
1+
#13632948
17
1)
#13750000
0!
#13750812
0:
#13751020
0;
#13875000
1!
#13875766
1:
#13875988
1;
#13877848
0V
0U
0T
1S
#13878347
0g
0e
1d
1L
0M
0O
#13878630
0C
#13878696
0B
#13878703
1E
#13878707
0A
#13878711
0=
#13878758
1@
#13878766
1<
#13878780
1C
#13878850
1?
#13878853
0E
#13879314
1B
#13879427
0@
#13882658
06
0(
#13882746
08
0*
#13882883
15
1'
#14000000
0!
#14000812
0:
#14001020
0;
#14125000
1!
#14125766
1:
#14125988
1;
#14127848
1V
#14128347
1e
1M
#14128683
0<
#14128763
1=
#14129370
1>
#14132855
16
1(
#14250000
0!
#14250812
0:
#14251020
0;
#14375000
1!
#14375766
1:
#14375988
1;
#14377848
0V
1U
#14378347
0e
0d
1c
1K
0L
0M
#14378630
0?
#14378696
0>
#14378711
0=
#14378766
1<
#14378784
1?
#14379318
1>
#14382658
06
0(
#14382690
05
0'
#14382913
14
1&
#14500000
0!
#14500812
0:
#14501020
0;
#14625000
1!
#14625766
1:
#14625988
1;
#14627848
1V
#14628347
1g
1e
1M
1O
#14628683
0<
#14628763
1=
#14628836
0?
#14629340
0>
#14629443
1@
#14632855
16
1(
#14632951
18
1*
#14750000
0!
#14750812
0:
#14751020
0;
#14875000
1!
#14875766
1:
#14875988
1;
#14877848
0V
0U
1T
#14878347
0g
0f
1d
1L
0N
0O
#14878682
0@
#14878711
0=
#14878766
1<
#14878774
1A
#14878847
0C
#14878850
1?
#14878920
1E
#14878923
0A
#14878996
1C
#14879069
0E
#14879457
1@
#14882728
07
0)
#14882746
08
0*
#14882883
15
1'
#15000000
0!
#15000812
0:
#15001020
0;
#15125000
1!
#15125766
1:
#15125988
1;
#15127848
1V
#15128347
1g
0e
0d
0c
1b
1J
0K
0L
0M
1O
#15128683
0<
#15128763
1=
#15129370
1>
#15132561
13
1%
#15132658
06
0(
#15132690
05
0'
#15132707
04
0&
#15132951
18
1*
#15250000
0!
#15250812
0:
#15251020
0;
#15375000
1!
#15375766
1:
#15375988
1;
#15377848
0V
1U
#15378347
1f
1e
1M
1N
#15378630
0?
#15378696
0>
#15378703
1A
#15378711
0=
#15378766
1<
#15378776
0C
#15378784
1?
#15378849
1E
#15378857
0A
#15378930
1C
#15379003
0E
#15379318
1>
#15382855
16
1(
#15382948
17
1)
#15500000
0!
#15500812
0:
#15501020
0;
#15625000
1!
#15625766
1:
#15625988
1;
#15627848
1V
#15628347
0h
0f
1d
1L
0N
0P
#15628683
0<
#15628763
1=
#15628836
0?
#15628909
1A
#15628982
0C
#15629055
1E
#15629340
0>
#15629413
0@
#15629486
0B
#15629559
0D
#15629632
0F
#15632717
09
0+
#15632728
07
0)
#15632883
15
1'
#15750000
0!
#15750812
0:
#15751020
0;
#15875000
1!
#15875766
1:
#15875988
1;
#15877848
0V
0U
0T
0S
0R
0Q
#15878347
1h
1f
0e
0d
1c
1K
0L
0M
1N
1P
#15878706
0E
#15878707
0A
#15878711
0=
#15878757
1D
#15878758
1@
#15878766
1<
#15878850
1?
1C
#15879427
0D
0@
#15882658
06
0(
#15882690
05
0'
#15882913
14
1&
#15882937
19
1+
#15882948
17
1)
#16000000
0!
#16000812
0:
#16001020
0;
#16125000
1!
#16125766
1:
#16125988
1;
#16127848
1V
#16128347
0f
1d
1L
0N
#16128683
0<
#16128763
1=
#16129370
1>
#16132728
07
0)
#16132883
15
1'
#16250000
0!
#16250812
0:
#16251020
0;
#16375000
1!
#16375766
1:
#16375988
1;
#16377848
0V
1U
#16378347
0h
0g
0d
0c
0b
1a
1I
0J
0K
0L
0O
0P
#16378630
0?
#16378696
0>
#16378711
0=
#16378766
1<
#16378784
1?
#16379318
1>
#16382370
03
0%
#16382551
12
1$
#16382690
05
0'
#16382707
04
0&
#16382717
09
0+
#16382746
08
0*
#16500000
0!
#16500812
0:
#16501020
0;
#16625000
1!
#16625766
1:
#16625988
1;
#16627848
1V
#16628347
1f
1e
1M
1N
#16628683
0<
#16628763
1=
#16628836
0?
#16629340
0>
#16629443
1@
#16632855
16
1(
#16632948
17
1)
#16750000
0!
#16750812
0:
#16751020
0;
#16875000
1!
#16875766
1:
#16875988
1;
#16877848
0V
0U
1T
#16878347
0f
1d
1L
0N
#16878682
0@
#16878711
0=
#16878766
1<
#16878774
1A
#16878850
1?
#16878923
0A
#16879457
1@
#16882728
07
0)
#16882883
15
1'
#17000000
0!
#17000812
0:
#17001020
0;
#17125000
1!
#17125766
1:
#17125988
1;
#17127848
1V
#17128347
1h
1f
0e
0d
1c
1K
0L
0M
1N
1P
#17128683
0<
#17128763
1=
#17129370
1>
#17132658
06
0(
#17132690
05
0'
#17132913
14
1&
#17132937
19
1+
#17132948
17
1)
#17250000
0!
#17250812
0:
#17251020
0;
#17375000
1!
#17375766
1:
#17375988
1;
#17377848
0V
1U
#17378347
0h
0f
1d
1L
0N
0P
#17378630
0?
#17378696
0>
#17378703
1A
#17378711
0=
#17378766
1<
#17378784
1?
#17378857
0A
#17379318
1>
#17382717
09
0+
#17382728
07
0)
#17382883
15
1'
#17500000
0!
#17500812
0:
#17501020
0;
#17625000
1!
#17625766
1:
#17625988
1;
#17627848
1V
#17628347
1f
1e
1M
1N
#17628683
0<
#17628763
1=
#17628836
0?
#17628909
1A
#17629340
0>
#17629413
0@
#17629516
1B
#17632855
16
1(
#17632948
17
1)
#17750000
0!
#17750812
0:
#17751020
0;
#17875000
1!
#17875766
1:
#17875988
1;
#17877848
0V
0U
0T
1S
#17878347
1g
0e
0d
0c
1b
1J
0K
0L
0M
1O
#17878630
0C
#17878696
0B
#17878707
0A
#17878711
0=
#17878758
1@
#17878766
1<
#17878780
1C
#17878850
1?
#17879314
1B
#17879427
0@
#17882561
13
1%
#17882658
06
0(
#17882690
05
0'
#17882707
04
0&
#17882951
18
1*
#18000000
0!
#18000812
0:
#18001020
0;
#18125000
1!
#18125766
1:
#18125988
1;
#18127848
1V
#18128347
0g
0f
1d
1L
0N
0O
#18128683
0<
#18128763
1=
#18129370
1>
#18132728
07
0)
#18132746
08
0*
#18132883
15
1'
#18250000
0!
#18250812
0:
#18251020
0;
#18375000
1!
#18375766
1:
#18375988
1;
#18377848
0V
1U
#18378347
1g
1e
1M
1O
#18378630
0?
#18378696
0>
#18378711
0=
#18378766
1<
#18378784
1?
#18379318
1>
#18382855
16
1(
#18382951
18
1*
#18500000
0!
#18500812
0:
#18501020
0;
#18625000
1!
#18625766
1:
#18625988
1;
#18627848
1V
#18628347
0e
0d
1c
1K
0L
0M
#18628683
0<
#18628763
1=
#18628836
0?
#18629340
0>
#18629443
1@
#18632658
06
0(
#18632690
05
0'
